<?xml version="1.0" encoding="utf-8"?>
<!-- Generator: Adobe Illustrator 15.0.0, SVG Export Plug-In . SVG Version: 6.00 Build 0)  -->
<!DOCTYPE svg PUBLIC "-//W3C//DTD SVG 1.1//EN" "http://www.w3.org/Graphics/SVG/1.1/DTD/svg11.dtd">
<svg version="1.1" id="Layer_1" xmlns="http://www.w3.org/2000/svg" xmlns:xlink="http://www.w3.org/1999/xlink" x="0px" y="0px"
	 width="32px" height="32px" viewBox="0 0 32 32" enable-background="new 0 0 32 32" xml:space="preserve">
<g id="oEMz76.tif">
	<g>
		<path fill="#FFFFFF" d="M11.62,9.49c-0.12,0-0.29,0-0.42,0c0-0.17,0-0.33,0-0.5c0-0.12,0.08-0.25,0.17-0.33
			c0.42-0.29,1.04-0.42,1.21-1.04c0.08,0.04,0.21,0.08,0.29,0.12c-0.04-0.12,0-0.25-0.08-0.33c-0.21-0.25-0.04-0.33,0.08-0.5
			c0.04-0.04,0-0.17-0.04-0.29c-0.08,0.04-0.17,0.08-0.21,0.13c-0.21,0.21-0.46,0.38-0.54,0.58c-0.21,0.54-0.62,0.62-1.04,0.71
			c-0.04-0.17,0.08-0.42-0.21-0.42c0-0.13,0-0.29,0-0.42c0.17,0.12,0.29,0.21,0.46,0.33c0.17,0.12,0.33,0.17,0.46-0.38
			c0-0.08-0.04,0-0.04,0.04c0,0.04,0,0.12,0,0.21c0.08-0.04,0.17-0.08,0.21-0.17c0.04-0.08-0.04-0.17-0.13-0.08
			c-0.21,0.12-0.33,0.04-0.5-0.08c-0.17-0.12-0.33-0.17-0.38,0.13c-0.17,0.04-0.42-0.08-0.42,0.21c-0.13,0.08-0.29,0.12-0.42,0.21
			c0-0.29-0.25-0.17-0.42-0.21C9.54,7.2,9.45,6.95,9.33,6.74c-0.12-0.21-0.21-0.17-0.38,0C8.87,6.82,8.79,6.86,8.66,6.95
			c0-0.12-0.04-0.25-0.04-0.38c0-0.08,0-0.13,0-0.21C8.7,6.28,8.83,6.2,8.83,6.11c0-0.33,0.08-0.42,0.33-0.17
			C9.2,5.78,9.58,5.82,9.33,5.49C9.2,5.32,9.04,5.03,9.54,4.91c0.25-0.08,0.21-0.37,0.04-0.58C9.49,4.2,9.2,4.07,9.16,4.12
			C8.99,4.24,8.62,4.41,8.91,4.66c0.29,0.25-0.17,0.33-0.08,0.5C8.45,4.99,8.54,4.49,8.24,4.24c0.04-0.08,0.12-0.12,0.17-0.21
			c0.04-0.08,0-0.17-0.04-0.29C8.29,3.78,8.24,3.82,8.16,3.87c-0.25,0.12-0.5,0.25-0.79,0.37S6.79,4.45,6.58,4.03
			c0-0.08,0-0.04-0.04,0c0.04,0.04,0.04,0.04,0.08,0.08C6.66,4.07,6.7,4.03,6.7,3.99c0,0-0.04-0.04-0.12,0.04
			C6.33,4.2,6.16,4.28,6,4.32c-0.21,0.08-0.54,0.5-0.5,0.71c0,0.04,0.08,0.08,0.12,0.08C5.91,5.2,5.91,5.2,5.79,5.37
			C5.7,5.45,5.66,5.53,5.58,5.57C5.5,5.66,5.41,5.7,5.37,5.78C5.33,5.7,5.29,5.57,5.29,5.49C5.33,5.2,5.2,4.99,5.08,4.74
			C5.04,4.66,5,4.62,4.96,4.57C4.91,4.66,4.91,4.78,4.87,4.87C4.83,4.95,4.83,5.03,4.79,5.16C4.75,5.07,4.66,4.95,4.66,4.87
			C4.58,4.45,4.75,4.03,4.71,3.57c-0.17-1.08-0.08-1.08,1-1.08c0.29,0,0.62,0,0.92,0c0.25,0,0.46-0.04,0.71-0.08
			c-0.21-0.25-0.5-0.08-0.71-0.13c-0.04,0-0.08,0-0.08,0C6.41,2.24,6.29,2.24,6.16,2.2C6.29,2.16,6.37,2.12,6.5,2.03
			c0.04-0.04,0.12-0.08,0.12-0.17c0.04-0.08,0.04-0.12,0.04-0.21c-0.08,0-0.17-0.04-0.21,0C6.25,1.74,6.08,1.91,5.87,1.99
			C5.7,2.08,5.5,2.03,5.29,2.08C5.2,1.99,5.12,1.91,5,1.87C4.83,1.83,4.62,1.91,4.66,1.62c0.04-0.12,0.17-0.33,0.29-0.38
			c0.29-0.12,2.21,0,2.5,0.21c0.21,0.13,0,0.17-0.12,0.21c-0.04,0-0.13,0.04-0.17,0.08C7.2,1.78,7.25,1.87,7.29,1.87
			c0.67,0.04,1.33,0,1.87-0.46C9.37,1.2,9.41,1.45,9.54,1.45c0.33,0.04,0.71,0,1.04,0c0.25,0,0.5,0.04,0.75,0.04
			c1-0.08,2.04-0.12,3,0c0.54,0.08,1.04,0.17,1.58,0.17c0.58,0,1.21,0,1.79-0.17c0.54-0.17,1.12,0,1.71-0.21
			c0.54-0.21,1.25-0.08,1.87-0.04c0.58,0.04,1.17-0.08,1.79,0.13c0.58,0.21,1.29,0.04,1.96,0.04c0.54,0,1.08-0.08,1.54,0.33
			c0.04,0.04,0.21,0.08,0.29,0.04c0.17-0.08,0-0.46,0.33-0.38c0.17,0.04,0.38,0.17,0.54,0.21c0.08,0,0.17-0.12,0.25-0.21
			c0.04-0.04,0.12-0.17,0.17-0.12c0.29,0.12,0.58,0.25,0.87,0.37c0.04,0.08,0.13,0.13,0.17,0.21c0.08-0.08,0.17-0.12,0.25-0.21
			c0.17,0.04,0.41-0.08,0.41,0.21c-0.12,0.13-0.25,0.25-0.38,0.33c0.13,0.04,0.25,0.04,0.38,0.08c0.21,0.29,0.42,0.29,0.62,0
			c0.33-0.08,0.5,0.08,0.42,0.42c-0.17,0-0.29,0.29-0.54,0c-0.12-0.12-0.46,0-0.75,0c0,0,0,0,0.04,0c0-0.04-0.04-0.12-0.08-0.17
			c0,0-0.09,0.04-0.12,0.04c0.04,0.04,0.08,0.08,0.12,0.12c0.08,0.08,0.17,0.21,0.21,0.21c0.21,0.04,0.5-0.08,0.5,0.33
			c0,0.04,0.33,0.67,0.42-0.04c0.08,0.04,0.17,0,0.21,0.08c0.33,0.54,0.58,1.08,0.58,1.71c0,1.33,0,2.66,0,4.04
			c0,0.29-0.12,0.67,0.04,0.79c0.29,0.29-0.04,0.46-0.04,0.67c0.04,0.21-0.04,0.5,0.21,0.62c-0.33,0.13,0.12,0.46-0.17,0.58
			c0.21,0.13,0.04,0.5,0.37,0.58c0,0.08,0,0.12,0,0.21c-0.08,0.08-0.25,0.12-0.29,0.21c-0.17,0.25-0.29,0.17-0.41,0
			c-0.08-0.12-0.21-0.29-0.34-0.42c0,0,0,0,0.04,0c0-0.04-0.04-0.12-0.08-0.17c0,0-0.08,0.04-0.13,0.04
			c0.04,0.04,0.08,0.08,0.13,0.12c0.04,0.67-0.04,1.33,0.08,1.96c0.12,0.5,0.21,1,0.17,1.46c-0.04,0.5,0.21,1.04-0.21,1.46
			c-0.04,0.04,0.04,0.21,0.08,0.25c0.25,0.29,0.08,0.67,0.08,1c0,0.12,0,1.08,0,1.21c0,0.08-0.04,0.21,0.04,0.29
			c0.13,0.25-0.33,0.46-0.04,0.79c0.17,0.17,0.04,0.58,0.04,0.92s0,0.62,0,0.92c0.04,0.37-0.12,0.75,0.21,1.08
			c0.25,0.25-0.25,0.5-0.04,0.88c0.12,0.21,0.08,0.62-0.12,0.96c-0.17,0.25-0.04,0.67-0.08,1c0,0.25-0.08,0.54-0.12,0.79l-0.5,0.92
			c-0.08,0-0.13,0.04-0.21,0.04c0-0.08,0-0.12,0-0.21c0-0.29,0.04-0.54,0-0.83c-0.04-0.25-0.12-0.5-0.12-0.83c0-0.08,0-0.04-0.04,0
			c0.04,0.04,0.04,0.04,0.08,0.08c0.04-0.04,0.08-0.08,0.08-0.13c0,0-0.04-0.04-0.12,0.04c-0.5,0.29-0.33,0.71-0.21,0.83
			c0.33,0.46-0.08,1.08,0.33,1.54c-0.12,0.38-0.21,0.88-0.46,1.17c-0.33,0.37-0.79,0.71-1.29,0.91c-0.46,0.21-0.96,0.5-1.5,0.04
			c-0.12-0.09-0.33-0.04-0.5-0.04c-1.29,0-2.58,0-3.83,0c-0.29,0-0.58,0.25-0.75,0.21c-0.67-0.29-1.29,0.21-1.92,0.04
			c-0.08-0.04-0.21,0-0.29,0c-0.92,0.04-1.79-0.08-2.62-0.42c-0.17-0.04-0.29-0.17-0.46-0.17c-0.12,0-0.29,0.17-0.42,0.17
			c-1.12,0-2.21-0.04-3.33,0.04c-0.42,0.04-0.21-0.5-0.75-0.46c-0.12,0-0.08,0,0,0c0.08,0,0.13-0.08,0.21-0.08
			c-0.08-0.04-0.17-0.08-0.25-0.08c-0.12,0-0.25,0-0.42,0c-0.04,0-0.12,0.04-0.17,0.08c0.08,0.04,0.12,0.08,0.21,0.12
			c0.04,0,0.12,0,0.42,0c0.21,0.09,0.21,0.21,0.21,0.29c-0.08,0-0.17,0-0.21,0c-0.54,0.04-1.12-0.04-1.62,0.12
			c-0.58,0.21-1.12,0.12-1.71,0.17c-0.25,0-0.67,0.04-0.79-0.09c-0.21-0.25-0.38,0.25-0.54-0.08c-0.17-0.33-0.54,0.34-0.83-0.04
			c-0.75-0.08-1.46-0.17-2.21-0.21c-0.25-0.04-0.54,0.08-0.75-0.21c-0.04-0.08-0.33,0-0.46,0.08c-0.33,0.25-0.21-0.04-0.25-0.17
			c-0.04-0.08-0.21-0.17-0.25-0.12C2,30.39,1.75,29.6,1.29,29.43C0.92,29.31,1,28.77,0.83,28.39C0.71,28.06,1,27.64,0.62,27.35
			c-0.04-0.04,0.04-0.17,0.08-0.29c0.04-0.17,0.17-0.46,0.08-0.54c-0.33-0.42-0.17-0.88-0.17-1.29c0-0.25,0.12-0.46-0.12-0.75
			c-0.21-0.29-0.21-0.79-0.25-1.17c0-0.12,0.12-0.25,0.04-0.42c-0.25-0.46-0.21-1-0.04-1.46c0.21-0.67,0.08-1.33,0.08-2.04
			c-0.38-0.25-0.04-0.46,0.04-0.66c0.08-0.25,0.42-0.46,0.04-0.79c-0.17-0.12-0.04-0.58-0.04-0.91c0.04-0.04,0.17-0.04,0.17-0.09
			c0.08-0.17,0.13-0.38,0.17-0.54c0.04,0.21,0.04,0.38,0.08,0.58c0,0.08,0.08,0.13,0.13,0.21C0.96,17.15,1,17.06,1,17.03
			c-0.08-0.46,0.17-0.92-0.17-1.38c-0.12-0.17,0-0.54-0.04-0.83c0-0.12,0-0.08-0.21,0c-0.04,0.04-0.17-0.04-0.17-0.04
			c0-0.58,0-1.17,0-1.75c0-0.04,0.08-0.12,0.08-0.17c0.04,0.04,0.08,0.13,0.08,0.17c0,0.29,0,0.54,0,0.83
			c0,0.08,0.08,0.17,0.12,0.25c0.04-0.08,0.08-0.17,0.08-0.29c0-0.71,0.33-1.37,0.21-2.08c0,0,0.08-0.04,0.12-0.08
			c0.04,0.04,0.04,0.13,0.08,0.17c0.04,0.04,0.04,0.12,0.08,0.17c0.04-0.08,0.08-0.12,0.12-0.21c0.04-0.04,0.12-0.13,0.17-0.13
			c0.08,0.04,0.21,0.13,0.21,0.21c0.08,0.29,0,0.62,0.38,0.75c0.08-0.29,0.21-0.54,0.29-0.83c0.08-0.33,0.12-0.71,0.21-1.04
			c0.08-0.29,0.29-0.46,0.62-0.37c0.04,0.12,0,0.29,0.08,0.37c0.08,0.13,0.17,0.25-0.04,0.25c-0.38-0.04-0.46,0.08-0.46,0.46
			c0,0.58-0.29,1.17-0.25,1.79c0,0-0.13,0.04-0.17,0.08c0-0.08,0-0.12,0-0.21c0-0.04-0.04-0.12-0.08-0.17
			c-0.04,0.04-0.12,0.12-0.12,0.17c-0.04,0.04,0,0.12,0,0.21c-0.83,0-0.83,0-0.83,0.79c0,0.17,0,0.33,0,0.5
			c0,0.04,0.04,0.12,0.08,0.17c0.04-0.04,0.08-0.08,0.13-0.17c0.08-0.21-0.21-0.54,0.21-0.67c0,0.08,0,0.12,0,0.21
			c0,0.04,0.04,0.13,0.08,0.17c0.04-0.04,0.13-0.13,0.13-0.17c0.04-0.04,0-0.12,0-0.21c0.38,0.29,0.25,0.58,0.04,0.92
			c-0.04,0.04,0,0.17,0.04,0.29c0.08-0.04,0.13-0.08,0.21-0.12c0.62-0.08,0.25-0.58,0.33-0.87c0.08-0.08,0.12-0.17,0.21-0.25
			c0.04-0.04,0.08-0.08,0.12-0.13c0.04,0.04,0.08,0.04,0.08,0.08c0,0.46,0.12,0.92-0.08,1.37c-0.08,0.12-0.12,0.33-0.08,0.46
			c0.25,1.25,0.25,2.12,0.08,3.08c-0.04,0.21,0.08,0.41,0.12,0.58C3.08,19.39,3,19.39,2.96,19.44c0.04,0.04,0.12,0.08,0.17,0.12
			C3,19.73,2.91,19.89,2.75,20.02c-0.21,0.17-0.21,0.37-0.25,0.62c-0.08,0.42,0.33,0.71,0.04,1.21c-0.21,0.38-0.04,0.96-0.04,1.42
			c0,0.46,0.04,0.92,0,1.33c-0.04,0.33,0.29,0.62,0.04,1c-0.04,0.08,0.17,0.58,0.5,0.17c0,0,0.25,0.08,0.29,0.17
			c0.04,0.21-0.04,0.42,0.04,0.62c0.08,0.29,0.21,0.58,0.33,0.83c0.04-0.25,0.08-0.54,0.08-0.79c0-2.04,0-4.08,0-6.12
			c0-0.29-0.04-0.54,0-0.83c0.04-0.21-0.33-0.42-0.04-0.67c-0.17-0.12-0.25-0.25-0.08-0.5c0.12-0.21,0.17-0.54,0.08-0.79
			c-0.08-0.33-0.38-0.71-0.17-0.92c0.33-0.38-0.17-0.58-0.04-0.92c0.12-0.29,0.08-0.71,0-1.04c-0.04-0.29,0.25-0.54,0.21-0.75
			c-0.04-0.25-0.21-0.46-0.17-0.75c0.04-0.25,0-0.5,0-0.71c0-0.04-0.13-0.12-0.21-0.17c0-0.21-0.04-0.42,0-0.62
			c0.04-0.17,0.17-0.25,0.29-0.42c0.08,0.08,0.21,0.17,0.29,0.25c0.21,0.25,0.17,0.04,0.29-0.08c0.25-0.29,0.58-0.5,0.87-0.75
			c0.04,0,0.12,0,0.12,0.04c0.04,0.04,0.04,0.17,0,0.21c-0.12,0.12-0.38,0.21-0.38,0.33C4.83,11.57,5,11.74,5.04,11.94
			c0,0.04,0,0.08,0,0.08c-0.17,0.13-0.29,0.25-0.46,0.33c-0.17,0.12-0.42-0.46-0.54,0.04C4,12.48,4.29,12.65,4.41,12.82
			c0,0-0.12,0.17-0.25,0.25c0,0,0,0,0.04,0c0-0.04-0.04-0.12-0.08-0.17c0,0-0.08,0.04-0.12,0.04c0.04,0.04,0.08,0.08,0.12,0.12
			c0.12,0.21,0.17,0.42,0.25,0.62c-0.12,0.04-0.29,0.08-0.42,0.17c0,0,0,0.12,0.04,0.17c0.08-0.04,0.12-0.04,0.21-0.08
			c0.04,0,0.12-0.04,0.17-0.08c0,0.83,0,1.67,0,2.46c0,0.21-0.04,0.46-0.12,0.66c-0.08,0.21-0.08,0.29,0.04,0.46
			c0.04,0.08,0.04,0.25,0,0.33c-0.21,0.5-0.21,1,0,1.54c0.08,0.21,0.17,0.5,0.04,0.67c-0.08,0.21-0.17,0.29,0,0.46
			c-0.29,0.16,0,0.29,0,0.46c0,0.16,0.17,0.42-0.25,0.46c0,0,0,0,0.04,0c0-0.04-0.04-0.12-0.08-0.17c0,0-0.08,0.04-0.12,0.04
			c0.04,0.04,0.08,0.08,0.12,0.12c-0.12,0.25,0.33,0.38,0.13,0.67c-0.13,0.21-0.08,0.58-0.08,0.87c0,0.29,0,0.54,0,0.83
			c-0.04,0.63,0,0.75,0.21,1.46c0,0.12,0-0.04,0-0.21c0-0.04-0.08-0.08-0.08-0.08c-0.04,0.04-0.08,0.08-0.08,0.17
			c0,0.29,0,0.62,0,0.92c0,0.04,0.04,0.13,0.08,0.17c0.04-0.08,0.08-0.12,0.12-0.21c0-0.12,0-0.25,0-0.71
			c0.08-0.25,0.21-0.21,0.21-0.13c0,0.29,0.08,0.67,0,0.92c-0.21,0.54,0,0.79,0.5,1c0.46,0.21,0.87,0.62,1.42,0.21h0.08
			c1.42-0.08,2.87-0.16,4.29-0.21c0.25,0,0.5,0.17,0.75,0.17c0.25-0.04,0.46-0.25,0.71-0.25c0.33,0,0.71,0.04,1,0.21
			c0.21,0.13,0.33,0.04,0.5,0c0.38-0.12,0.79-0.08,1.21-0.08c0.04,0,0.12,0.04,0.17,0.08c-0.04,0.04-0.08,0.13-0.13,0.13
			c-0.62,0-1.17,0.21-1.79,0.25c-0.75,0.04-1.46,0.25-2.21,0.17c-0.12,0-0.21,0.12-0.33,0.21c-0.04,0.04-0.04,0.08-0.08,0.12
			c0,0,0.04,0.04,0.08,0.08c0.21,0,0.46,0.08,0.62,0c0.62-0.42,1.37,0,2.04-0.33c0.17-0.09,0.58,0.08,0.75,0.25
			c0.25,0.25,0.5,0.29,0.83,0.29c0.5,0,1.04,0.04,1.54,0c0.42-0.04,0.83-0.17,1.25-0.21c0.42-0.04,0.87,0.08,1.25-0.04
			c0.71-0.25,1.42-0.12,2.12-0.21c0.42-0.04,0.83-0.21,1.25-0.04c0.42-0.37,0.92-0.08,1.37-0.16c0.17-0.04,0.29-0.21,0.42-0.17
			c0.29,0.08,0.5-0.54,0.79-0.08c0.17-0.12,0.38-0.25,0.5-0.42c0.04-0.08-0.08-0.29-0.04-0.33c0.08-0.12,0.25-0.17,0.42-0.21
			c0.67-0.25,0.92-0.71,0.92-1.38c0-0.29-0.04-0.58,0.21-0.87c0.09-0.12,0.09-0.42,0-0.62c-0.33-0.83-0.12-1.67-0.21-2.5
			c-0.04-0.42,0.12-0.87-0.21-1.29c-0.04-0.04-0.04-0.12,0-0.21c0.29-0.63-0.08-1.29,0-1.92c0.04-0.5,0-1.04,0-1.54
			c0.04-0.46,0.17-0.92,0.21-1.37c0.04-0.62-0.04-0.79-0.67-0.96c-0.62-0.12-1.21-0.37-1.83-0.29c-0.08,0-0.21,0.25-0.17,0.25
			c0.29,0.33,0.17,0.71,0.21,1.08c0.04,0.29,0.17,0.58,0.21,0.83c0,0.25-0.12,0.5-0.21,0.75c-0.04,0.08,0,0.21,0,0.29
			c0.13,0.5-0.08,1.58-0.33,2c0,0.04-0.04,0.04-0.08,0.09c0,0-0.04,0.04-0.08,0.04c-0.04-0.04-0.08-0.12-0.08-0.17
			c0-0.62,0-1.25,0.04-1.96c0-0.08,0-0.04-0.04,0c0.04,0.04,0.04,0.04,0.08,0.08c0.04-0.04,0.08-0.08,0.08-0.12
			c0,0-0.04-0.04-0.13,0.04c-0.33,0.13-0.54,0.08-0.5-0.25c0-0.08-0.12-0.17-0.33-0.42c-0.04-0.04,0.04,0.04,0.12,0.17
			c0.08-0.12,0.21-0.25,0.17-0.33c-0.04-0.13-0.17-0.21-0.29-0.29c-0.04,0.08-0.08,0.17-0.04,0.46c0.17,0.5,0.04,0.83,0.33,1.12
			c0.21,0.21-0.17,0.5-0.17,0.71c0,0.46-0.08,0.88-0.37,1.29c-0.21,0.33,0.08,0.46,0.37,0.54c0.04,0.83-0.54,1.37-1,1.92
			c-0.21,0.25-0.42,0.67-0.87,0.58c0-0.21,0-0.42,0.08-0.58c0.08-0.17,0.21-0.25,0.04-0.42c-0.04,0-0.21,0.17-0.33,0.25
			c-0.21,0.12-0.25,0.29-0.21,0.54c-0.21-0.04-0.38,0.16-0.54,0.16c-0.37,0.09-0.25,0.13-0.08,0.34c0.29,0.33,0.21,0.29-0.12,0.58
			c-0.25,0.21-0.79-0.12-0.75,0.46c-0.33,0.08-0.67,0.25-1.04,0.29c-0.33,0.04-0.58,0.25-0.87,0.38c-0.13,0.08-0.33,0.04-0.5,0.04
			c-0.75,0.04-1.46-0.08-2.21,0.17c-0.42,0.17-0.92-0.08-1.25-0.38c-0.25-0.25-0.5-0.21-0.83-0.16c0-0.04,0.04-0.08,0.08-0.13
			c-0.17-0.12-0.33-0.21-0.5-0.29c0,0-0.08,0.08-0.13,0.12c0.17,0.12,0.29,0.21,0.54,0.33c0.04,0.33-0.29,0.21-0.42,0.17
			c-0.21-0.08-0.38-0.21-0.67-0.21c-0.17,0-0.33-0.04-0.5-0.04c0.04-0.08,0.08-0.21,0.13-0.29c-0.17-0.04-0.42-0.04-0.54-0.17
			c-0.67-0.42-1.25-0.96-1.96-1.29c-0.42-0.21-0.58-0.5-0.62-0.88c0-0.08-0.08-0.16-0.08-0.33c0-0.09,0-0.04-0.04,0
			c0.04,0.04,0.04,0.04,0.08,0.08c0.04-0.04,0.08-0.08,0.08-0.12c0,0-0.04-0.04-0.12,0.04c-0.25-0.17-0.5-0.46-0.67-0.71
			c-0.12-0.21-0.29-0.46-0.33-0.67c-0.04-0.17,0.04-0.38,0.04-0.58c0-0.25-0.08-0.5-0.13-0.79c0-0.42,0.04-0.88-0.42-1.12
			c0.08-0.42,0.42-0.12,0.62-0.21c0,0.37-0.08,0.79,0.33,1.08c0.17,0.17,0.21,0.5,0.29,0.83c0,0,0,0,0-0.04
			c-0.04,0-0.13,0.04-0.17,0.08c0,0,0.04,0.08,0.04,0.12c0.04-0.04,0.08-0.08,0.13-0.12c0.21,0.17,0.46,0.33,0.71,0.54
			c0,0,0.08-0.04,0.13-0.04v-0.08c-0.17-0.42-0.21-0.96-0.54-1.21c-0.42-0.29-0.5-0.58-0.5-1.04c0-0.67-0.29,0.13-0.42-0.08
			c0-0.13,0-0.29,0-0.42c0.04-0.21-0.21-0.46-0.17-0.5c0.12-0.29,0.38-0.54,0.58-0.79c0.04-0.04,0.08-0.08,0.12-0.13
			c0.04,0.04,0.08,0.13,0.08,0.17c0.08,0.21,0.12,0.42,0.21,0.62c-0.38,0.04-0.33,0.04-0.33,0.21c0.04,0.33,0.46,0.33,0.5,0.58
			c0.08,0.29-0.08,0.67,0.04,0.92c0.17,0.33,0.25,0.79,0.58,1c0.04,0.16-0.08,0.41,0.33,0.54c0.08,0.04,0.04-0.04,0-0.12
			c-0.04,0.04-0.08,0.08-0.08,0.08c0.04,0.08,0.08,0.21,0.12,0.29c0.04-0.04,0.04-0.13,0-0.29c-0.12-0.25,0-0.5-0.33-0.54
			c-0.04-0.21-0.08-0.46-0.12-0.67c-0.08-0.29-0.29-0.63-0.25-0.92c0.04-0.5-0.21-0.79-0.46-1.17c0.12-0.04,0.29,0,0.38-0.08
			c0.08-0.08,0.12-0.21,0.17-0.33c0.04,0.08,0.08,0.17,0.08,0.25c0,0.21,0,0.42,0,0.62c0.04,0.21-0.17,0.58,0.33,0.58l0.04,0.12
			c-0.42,0.71,0.29,1.12,0.33,1.71c0,0.25,0.42-0.29,0.37,0.04s-0.13,0.67,0.17,0.92c0.25,0.21,0.5,0.42,0.79,0.62
			c0.25,0.21,0.5,0.42,0.79,0.62c-0.08,0.33,0.08,0.5,0.42,0.42c0.04,0.04,0.04,0.13,0.08,0.17c0.04-0.04,0.08-0.12,0.13-0.17
			c0.25,0.17,0.62,0.17,0.67,0.58c0.12,0,0.29,0,0.33-0.04c0.29-0.25,0.75-0.42,1-0.29c0.04,0,0.04,0.04,0.08,0.08
			c-0.04,0.04-0.12,0.08-0.17,0.08c-0.17,0-0.33,0-0.5,0c-0.04,0-0.08,0.08-0.13,0.12c0.04,0.04,0.13,0.08,0.17,0.08
			c0.54,0.08,1.04,0.17,1.58,0.21c0.42,0.04,0.83,0,1.25-0.17c0.75-0.29,1.54-0.42,2.21-0.96c0.88-0.71,0.88-0.67,1.46-1.67
			c0.12-0.21,0.21,0.08,0.29,0.04c0.12-0.04,0.25-0.13,0.29-0.25c0.25-0.5,0.42-1.04,0.79-1.41c0.04-0.04,0.08-0.12,0.08-0.17
			c0.04-0.25,0-0.54,0.08-0.79c0.08-0.25-0.08-0.46,0.08-0.71c0.13-0.21,0.04-0.54,0.04-0.83c0-0.29,0-0.54,0-0.83
			c0-0.13-0.04-0.25-0.08-0.38c-0.08-0.17-0.5-0.25-0.12-0.5c-0.12-0.17-0.33-0.29-0.38-0.46c-0.12-0.38-0.42-0.54-0.75-0.75
			c-0.42-0.21-0.75-0.58-1.08-0.87c-0.17-0.12-1.62-0.71-1.96-0.79c-0.33-0.08-0.75-0.08-0.83-0.62c0-0.21-0.12-0.21-0.21-0.21
			c-0.04,0-0.13,0.13-0.13,0.17s0.08,0.08,0.13,0.17c0.04,0.04,0.62-0.17,0.58-0.17c-0.08-0.08-0.21-0.12-0.42,0.08
			c-0.71,0.21-1.21,0.21-1.75,0.21c-0.29,0-0.62-0.04-0.92,0c-0.29,0.04-0.58,0.12-0.83,0.21c-0.04-0.17,0.08-0.42-0.21-0.42
			c-0.12-0.08-0.29-0.21-0.42-0.33c-0.04-0.04-0.04-0.17,0-0.21c0.04-0.04,0.12,0,0.21,0s0.12,0,0.21,0
			c-0.04-0.08-0.08-0.29-0.17-0.29C11.95,9.03,11.7,9.15,11.62,9.49z M3.91,28.56c-0.04-0.04-0.08-0.09-0.08-0.13
			c-0.04,0.04-0.04,0.04-0.08,0.08c0.04,0.04,0.08,0.08,0.12,0.08c0,0,0.04-0.04-0.21-0.17c0.04,0,0.04,0,0.08,0
			c0-0.04-0.04-0.12-0.08-0.17c0,0-0.08,0.04-0.12,0.04C3.54,28.35,3.58,28.39,3.91,28.56z M28.69,27.8c0,0.09,0,0.13,0,0.71
			c0-0.16,0-0.25,0-0.29c0-0.08-0.08-0.13-0.08-0.21c-0.04,0.04-0.08,0.08-0.12,0.17c-0.04,0.04,0,0.17-0.04,0.17
			c-0.12,0.16-0.29,0.29-0.08,0.5c0.04,0.04,0.17,0.04,0.17,0c0.08-0.12,0.13-0.29,0.13-0.83c0.04-0.04,0.12-0.04,0.17-0.08
			C28.81,27.89,28.73,27.85,28.69,27.8c-0.08-0.08-0.12-0.12-0.33-0.21c0.04,0,0.08,0,0.08,0c0.08-0.33,0.13-0.62,0.21-0.96
			l-0.13-0.04c-0.12,0.08-0.29,0.75-0.25,0.91c0,0.04,0.04,0.04,0.17,0.08C28.56,27.68,28.6,27.72,28.69,27.8z M20.36,9.49
			c-0.08-0.08-0.12-0.13-0.21-0.21c-0.08-0.12-0.13-0.29-0.08-0.62c-0.04,0.04-0.08,0.08-0.12,0.08c0.04,0.04,0.04,0.04,0.08,0.08
			c0.04-0.04,0.08-0.08,0.08-0.12c0,0-0.04-0.04-0.17,0.12c-0.12-0.08-0.29-0.12-0.5-0.21c0.04,0,0.04,0,0.08,0
			c0-0.04-0.04-0.13-0.08-0.17c0,0-0.08,0.04-0.13,0.04c0.04,0.04,0.08,0.08,0.21,0.13c-0.04,0.08-0.08,0.17-0.12,0.25
			c-0.12,0.21-0.17,0.33,0.12,0.37c0.04,0.29,0.21,0.25,0.37,0.12c0.08-0.04,0.17-0.08,0.25-0.12C20.24,9.36,20.28,9.4,20.36,9.49
			c0.08,0.08,0.12,0.12,0.21,0.21c0.08,0.08,0.12,0.13,0.21,0.21c-0.04,0.46,0.29,0.67,0.63,0.83c0.08,0.08,0.13,0.13,0.21,0.21
			c0.08,0.08,0.12,0.13,0.42,0.33c-0.04-0.04-0.08-0.08-0.08-0.13c-0.04,0.04-0.04,0.04-0.08,0.08c0.04,0.04,0.08,0.08,0.12,0.08
			c0,0,0.04-0.04-0.12-0.17c-0.08-0.08-0.12-0.12-0.21-0.21c-0.08-0.08-0.12-0.12-0.21-0.21c-0.08-0.21-0.12-0.42-0.21-0.62
			c0.42,0,0.79-0.04,1.12,0.33c0.17,0.21,0.54,0.33,0.92,0.29c0.5-0.04,1-0.12,1.46-0.17c0.58-0.04,1.12-0.25,1.67-0.25
			c0.29,0,0.62-0.08,0.79-0.29c0.12-0.17,0.04-0.54,0.04-0.79c0-0.08,0.04-0.17,0-0.21C26.86,8.7,27.19,8.2,26.98,7.9
			c-0.37-0.5,0.08-0.79,0.21-1.17c0-0.04,0-0.08-0.04-0.13c-0.25-0.54,0-1.08-0.12-1.62c-0.09-0.33,0.29-0.62,0.04-1
			c-0.04-0.04,0.29-0.33,0.46-0.5c0.25-0.21-0.04-0.33-0.12-0.37c-0.17-0.08-0.37-0.08-0.58-0.08c-0.08-0.08-0.17-0.17-0.25-0.21
			c-0.21-0.04-0.37,0-0.67,0c0.04,0,0.04,0,0.08,0c0-0.04-0.04-0.13-0.08-0.17c0,0-0.08,0.04-0.12,0.04
			c0.04,0.04,0.08,0.08,0.21,0.13c0.08,0.08,0.17,0.17,0.25,0.21c0.21,0.04,0.38,0,0.58,0c-0.04,0.04-0.04,0.17-0.08,0.17
			c-0.67,0.13-1.33,0-2,0.21c-0.5,0.17-1.08,0-1.67,0.04c-0.54,0.04-1.04,0.17-1.58,0.21c-0.29,0-0.33,0.12-0.33,0.38
			c0,0.83,0,1.67,0,2.5c0,0.08-0.04,0.17-0.08,0.29c-0.04-0.08-0.12-0.17-0.12-0.25c0-0.71,0-1.46,0-2.17
			c0-0.08-0.12-0.17-0.21-0.25c-0.04-0.08-0.13-0.12-0.17-0.21c-0.08,0.08-0.17,0.12-0.25,0.21c-0.33-0.04-0.13-0.33-0.21-0.46
			c-0.08-0.13-0.21-0.25-0.33-0.33c-0.17,0.17-0.08,0.29,0.04,0.42c0.04,0.08,0.12,0.25,0.08,0.25c-0.29,0.21-0.21,0.5-0.21,0.75
			c0,0.46,0.62-0.04,0.62,0.42c-0.08,0.04-0.13,0.12-0.21,0.17c0.08,0.08,0.13,0.17,0.21,0.25c0.04,0.12,0.04,0.25,0.08,0.37
			c0.04,0.17,0.08,0.29,0.12,0.54c-0.04-0.04-0.08-0.08-0.08-0.08c-0.38-0.04-0.46,0.33-0.71,0.5c0.04,0.04,0.08,0.12,0.13,0.12
			c0.25-0.08,0.46-0.21,0.71-0.33c0.04,0,0-0.13,0-0.29c0.42,0.29,0.12,0.75,0.21,1.08c-0.42,0.42-0.17,0.87,0,1.25
			c0.17,0.38,0,0.67,0,0.96c-0.08,0-0.12,0-0.21,0C20.48,9.61,20.44,9.57,20.36,9.49z M17.36,9.69c0.04,0,0.04,0,0.08,0
			c0-0.04-0.04-0.12-0.08-0.17c0,0-0.08,0.04-0.12,0.04c0.04,0.04,0.08,0.08,0.21,0.12c0.08,0.08,0.12,0.13,0.21,0.21
			c0,0.29,0.25,0.17,0.63,0.33c-0.04-0.04-0.08-0.08-0.08-0.13c-0.04,0.04-0.04,0.04-0.08,0.08c0.04,0.04,0.08,0.08,0.12,0.08
			c0,0,0.04-0.04-0.12-0.17c0-0.29-0.25-0.17-0.42-0.21C17.57,9.82,17.53,9.78,17.36,9.69z M10.37,21.98
			c0.08,0.08,0.13,0.12,0.21,0.21c0.08,0.33,0.29,0.46,0.83,0.54c-0.04-0.04-0.08-0.08-0.08-0.12c-0.04,0.04-0.04,0.04-0.08,0.08
			c0.04,0.04,0.08,0.08,0.12,0.08c0,0,0.04-0.04-0.12-0.17c-0.08-0.33-0.29-0.46-0.62-0.42C10.49,22.1,10.45,22.06,10.37,21.98
			c-0.08-0.08-0.12-0.12-0.21-0.21c-0.08-0.08-0.13-0.13-0.21-0.21c-0.08-0.08-0.12-0.12-0.21-0.21c-0.08-0.08-0.13-0.12-0.29-0.21
			c0.04,0,0.04,0,0.08,0c0-0.04-0.04-0.12-0.08-0.17c0,0-0.08,0.04-0.12,0.04c0.04,0.04,0.08,0.08,0.21,0.12
			c0.08,0.08,0.12,0.12,0.21,0.21c0.08,0.08,0.12,0.12,0.21,0.21c0.08,0.08,0.13,0.13,0.21,0.21
			C10.24,21.85,10.28,21.89,10.37,21.98z M19.74,21.77c0.08-0.08,0.13-0.13,0.21-0.21c0.08-0.08,0.12-0.12,0.33-0.42
			c-0.04,0.04-0.08,0.08-0.12,0.08c0.04,0.04,0.04,0.04,0.08,0.08c0.04-0.04,0.08-0.08,0.08-0.13c0,0-0.04-0.04-0.17,0.13
			c-0.08,0.08-0.13,0.12-0.21,0.21C19.86,21.64,19.82,21.69,19.74,21.77c-0.08,0.08-0.13,0.12-0.21,0.37c0-0.12,0-0.16,0-0.16
			c-0.08,0-0.17-0.04-0.21,0c-0.54,0.29-1.12,0.62-1.67,0.96c-0.04,0,0,0.12,0,0.21c0,0.04,0.08,0.04,0.13,0.04
			c0.17-0.04,0.42-0.04,0.54-0.17c0.42-0.29,0.79-0.58,1.17-1.04C19.61,21.89,19.65,21.85,19.74,21.77z M20.15,20.52
			c0.08-0.08,0.12-0.13,0.21-0.21c0.08-0.08,0.12-0.12,0.21-0.21c0.08-0.08,0.12-0.12,0.21-0.21c0.08-0.08,0.13-0.12,0.33-0.41
			c-0.04,0.04-0.08,0.08-0.13,0.08c0.04,0.04,0.04,0.04,0.08,0.08c0.04-0.04,0.08-0.08,0.08-0.12c0,0-0.04-0.04-0.17,0.12
			c-0.08,0.08-0.12,0.12-0.21,0.21c-0.08,0.08-0.12,0.12-0.21,0.21c-0.08,0.08-0.12,0.12-0.21,0.21c-0.08,0.08-0.12,0.12-0.21,0.29
			C20.15,20.6,20.15,20.56,20.15,20.52c-0.04,0-0.13,0.04-0.17,0.08c0,0,0.04,0.08,0.04,0.12C20.07,20.69,20.11,20.64,20.15,20.52z
			 M9.95,6.99c0.08-0.08,0.13-0.13,0.33-0.83c-0.04,0.04-0.12,0.08-0.12,0.12c0,0.17,0,0.33,0,0.5c0,0,0.12,0,0.21,0
			c0.04,0,0.13-0.04,0.17-0.04c-0.08-0.17-0.17-0.37-0.37,0.04c-0.08,0.08-0.13,0.12-0.21,0.29C9.95,7.07,9.95,7.03,9.95,6.99
			c-0.04,0-0.12,0.04-0.17,0.08c0,0,0.04,0.08,0.04,0.13C9.87,7.16,9.91,7.11,9.95,6.99z M20.36,11.9
			c-0.04-0.04-0.08-0.08-0.08-0.12c-0.04,0.04-0.04,0.04-0.08,0.08c0.04,0.04,0.08,0.08,0.13,0.08c0,0,0.04-0.04-0.21-0.17
			c0.04,0,0.04,0,0.08,0c0-0.04-0.04-0.13-0.08-0.17c0,0-0.08,0.04-0.12,0.04C19.99,11.69,20.03,11.74,20.36,11.9z M15.57,6.28
			c-0.04-0.04-0.08-0.08-0.08-0.12c-0.04,0.04-0.04,0.04-0.08,0.08c0.04,0.04,0.08,0.08,0.12,0.08c0,0,0.04-0.04-0.29-0.08
			c0.08-0.13,0.13-0.13,0.13-0.17c0-0.08-0.04-0.17-0.04-0.25c-0.04,0-0.12,0.04-0.12,0.04C15.2,5.95,15.2,6.03,15.57,6.28z
			 M13.37,4.87c-0.12-0.08-0.12-0.12-0.17-0.12c-0.08,0-0.17,0.04-0.25,0.04c0,0.04,0.04,0.12,0.04,0.12c0.12,0,0.21,0,0.46-0.37
			c-0.04,0.04-0.08,0.08-0.12,0.08c0.04,0.04,0.04,0.04,0.08,0.08c0.04-0.04,0.08-0.08,0.08-0.12C13.49,4.57,13.45,4.53,13.37,4.87z
			 M27.02,26.56c-0.29,0-0.17,0.25-0.21,0.42c-0.17,0.04-0.42-0.08-0.37,0.42c-0.04-0.08-0.08-0.12-0.12-0.21
			c-0.04,0.04-0.12,0.08-0.12,0.12c0,0.08,0.04,0.17,0.08,0.25c0.04-0.04,0.08-0.13,0.13-0.42c0.12,0,0.29,0,0.42,0
			c0,0.08,0,0.13,0,0.21c-0.29,0-0.17,0.25-0.21,0.5c0-0.04,0-0.08,0-0.08c-0.08,0-0.25-0.04-0.29,0c-0.17,0.16-0.5,0.33-0.5,0.5
			c0,0.5-0.42,0.08-0.46,0.21c-0.08,0.42-0.46,0.38-0.71,0.54c-0.12,0.08-0.21,0.21-0.33,0.33c0.17,0.04,0.37,0.12,0.46,0.08
			c0.62-0.38,1.33-0.75,1.79-1.33c0.04-0.04,0-0.12,0-0.29c0.29,0,0.17-0.25,0.21-0.41c0.13,0.08,0.29,0.12,0.42,0.21
			c-0.21,0.33-0.42,0.71-0.62,1.12c0-0.04,0-0.04,0-0.08c-0.04,0-0.12,0.04-0.17,0.08c0,0,0.04,0.08,0.04,0.12
			c0.04-0.04,0.08-0.08,0.12-0.21c0.75,0,0.67-0.75,1.04-1.08c0,0-0.08-0.08-0.08-0.17c-0.04,0.04-0.08,0.08-0.12,0.12
			c-0.04,0.04-0.12,0.04-0.17,0.08c-0.04-0.33,0.08-0.54,0.63-0.5c-0.04-0.04-0.08-0.08-0.08-0.12c-0.04,0.04-0.04,0.04-0.08,0.08
			c0.04,0.04,0.08,0.08,0.12,0.08c0,0,0.04-0.04-0.12-0.17c0-0.12,0-0.29,0.33-1c-0.17,0.04-0.29,0.13-0.46,0.21
			c0,0,0,0.12,0.04,0.21c0.04,0.08,0.12,0.12,0.17,0.17c0.12-0.17,0.21-0.33,0.29-0.5c0,0-0.08-0.08-0.42,0.5c-0.12,0-0.29,0-0.42,0
			c-0.04-0.04-0.04-0.12-0.08-0.17C27.11,26.43,27.06,26.52,27.02,26.56z M11.91,2.99c-0.13-0.08-0.13-0.13-0.17-0.13
			c-0.08,0-0.17,0.04-0.25,0.04c0,0.04,0.04,0.12,0.04,0.12c0.12,0,0.21,0,0.46-0.38c-0.04,0.04-0.08,0.08-0.12,0.08
			c0.04,0.04,0.04,0.04,0.08,0.08c0.04-0.04,0.08-0.08,0.08-0.13C12.03,2.7,11.99,2.66,11.91,2.99z M17.74,8.99
			c-0.17-0.08-0.25-0.12-0.29-0.12s-0.12,0-0.21,0c0.04,0.08,0.08,0.17,0.17,0.21c0.08,0.04,0.17-0.04-0.17-0.21
			c0-0.08,0-0.12,0.42-1c0-0.25,0-0.46,0-0.71c0-0.04-0.04-0.13-0.08-0.17c-0.08,0.08-0.21,0.17-0.21,0.21
			c0.08,0.29-0.33,0.67,0.08,0.92c-0.08,0.08-0.17,0.12-0.21,0.21c0,0.08,0.04,0.25,0.08,0.29c0.21,0.08,0.29-0.08,0.29-0.54
			c0-0.08,0-0.12-0.42,0.58c-0.13,0.04-0.29,0.08-0.42,0.17c0,0,0,0.13,0.04,0.17c0.08-0.04,0.12-0.04,0.21-0.08
			C17.11,8.9,17.2,8.9,17.74,8.99z M19.15,3.78c-0.04-0.12-0.08-0.21-0.13-0.33c-0.04,0.08-0.08,0.12-0.08,0.21
			c0,0.12,0.08,0.29,0.13,0.42c0.04-0.08,0.08-0.17-0.13-0.62c-0.08-0.21,0.21-0.54-0.29-0.62c0.04,0,0.04,0,0.08,0
			c0-0.04-0.04-0.13-0.08-0.17c0,0-0.08,0.04-0.13,0.04c0.04,0.04,0.08,0.08,0.21,0.13C18.78,3.03,18.49,3.37,19.15,3.78z
			 M14.53,2.62c-0.25,0-0.5-0.04-0.42,0.33c0,0.08,0,0.21,0,0.42c0-0.04,0-0.08,0-0.12c-0.17-0.21-0.29-0.42-0.46-0.54
			c-0.04-0.04-0.25,0.13-0.38,0.13c-0.21,0-0.5,0.12-0.67-0.17c-0.04,0.04-0.13,0.08-0.17,0.12c0,0.04,0,0.17,0.04,0.17
			c0.13,0.04,0.25,0.04,0.38,0.04c0.33,0.08,0.71,0.08,0.83,0.5c0,0.04,0.13,0.04,0.21,0.04c0.08-0.04,0.17-0.12,0.21-0.33
			c0.12-0.21,0.29-0.42,0.54-0.83c-0.04,0.04-0.08,0.08-0.12,0.08c0.04,0.04,0.04,0.04,0.08,0.08c0.04-0.04,0.08-0.08,0.08-0.12
			C14.74,2.49,14.7,2.45,14.53,2.62z M21.82,17.27c0-0.08,0-0.21,0-0.29c0-0.04-0.04-0.12-0.08-0.16c-0.04,0.04-0.12,0.08-0.12,0.12
			c0,0.21,0,0.42,0,0.58c0,0.04,0.04,0.08,0.08,0.08c0.04-0.04,0.08-0.08,0.13-0.17c0-0.04,0-0.12-0.17,0.33
			c-0.04-0.08-0.08-0.13-0.12-0.21c-0.04,0.04-0.13,0.08-0.13,0.12c0,0.08,0.04,0.17,0.08,0.25C21.53,17.94,21.57,17.9,21.82,17.27z
			 M2.04,28.64c0.08,0.08,0.12,0.12,0.21,0.21c0,0.08,0,0.12,0,0.29c0-0.04,0-0.04,0-0.08c-0.04,0-0.13,0.04-0.17,0.08
			c0,0,0.04,0.08,0.04,0.12c0.04-0.04,0.08-0.08,0.13-0.21c0.29,0,0.17,0.21,0.21,0.38c0,0.08,0.08,0.17,0.08,0.25
			c0.08-0.08,0.29-0.21,0.25-0.29c0-0.17-0.21-0.37,0.21-0.33c0-0.08,0-0.21-0.04-0.21c-0.25,0-0.46,0-0.71,0
			C2.17,28.77,2.12,28.72,2.04,28.64c-0.08-0.33-0.29-0.46-0.79-0.33c0.17-0.17,0.29-0.25,0.38-0.38c0.04-0.08-0.04-0.21-0.13-0.29
			c-0.04-0.04-0.25,0.04-0.25,0.08c0,0.17,0,0.38,0.17,0.54C1.5,28.56,1.71,28.68,2.04,28.64z M12.66,5.95
			c-0.46,0.04-0.58,0.17-0.62,0.71c0-0.04,0-0.04,0-0.08c-0.04,0-0.12,0.04-0.17,0.08c0,0,0.04,0.08,0.04,0.12
			c0.04-0.04,0.08-0.08,0.12-0.21c0.21-0.21,0.42-0.42,0.75-0.83c-0.04,0.04-0.08,0.08-0.13,0.08c0.04,0.04,0.04,0.04,0.08,0.08
			c0.04-0.04,0.08-0.08,0.08-0.12C12.87,5.82,12.82,5.78,12.66,5.95z M2.46,27.72c-0.04-0.04-0.08-0.08-0.08-0.12
			c-0.04,0.04-0.04,0.04-0.08,0.08c0.04,0.04,0.08,0.09,0.13,0.09c0,0,0.04-0.04-0.13-0.17c0-0.38-0.12-0.62-0.21-4.75
			c0-0.58,0-1.04,0-1.54c0-0.04-0.04-0.13-0.08-0.17c-0.04,0.04-0.12,0.08-0.12,0.12c0.12,0.58-0.17,1.12-0.21,1.67
			c-0.08,1.17,0.21,2.37-0.21,3.54c0,0.04,0,0.08,0,0.08c0.08,0.04,0.12,0.12,0.21,0.17c0.04,0,0.17-0.04,0.21-0.08
			c0.12-0.46,0.42-0.92,0.08-1.41c-0.08-0.13-0.12-0.46-0.04-0.58c0.38-0.63,0.08-1.25,0,2.08C1.83,27.14,1.79,27.47,2.46,27.72z
			 M23.53,28.39c-0.08,0.04-0.21,0.12-0.29,0.21c-0.12,0.08-0.25,0.17-0.33,0.25c0.17,0,0.33,0.04,0.5,0c0.08,0,0.17-0.12,0.21-0.21
			c0.04-0.04,0.04-0.08,0.04-0.13c0,0-0.04-0.04-0.79,0.46c0-0.04,0-0.04,0-0.08c-0.04,0-0.12,0.04-0.17,0.08
			c0,0,0.04,0.08,0.04,0.12C22.78,29.02,22.82,28.97,23.53,28.39z M21.28,29.6c-0.17-0.08-0.25-0.13-0.29-0.13
			c-0.04,0-0.12,0-0.21,0c0.04,0.09,0.08,0.17,0.17,0.21c0.08,0.04,0.17-0.04-0.17-0.21c0-0.08,0-0.12,0.21-0.41
			c-0.08,0.04-0.12,0.08-0.21,0.12c0.04,0.04,0.08,0.08,0.08,0.08c0.08-0.04,0.21-0.08,0.29-0.12c-0.04-0.04-0.12-0.04-0.42,0.12
			c-0.42,0.04-0.79,0.04-1.21,0.08C19.94,29.64,20.36,29.39,21.28,29.6z M11.2,4.7c0-0.08,0-0.12,0.46-0.87
			c-0.21,0.08-0.42,0.21-0.67,0.33c0.04,0.04,0.08,0.08,0.12,0.17c0.08,0.21,0.29,0.25,0.38,0.17c0.12-0.12,0.21-0.37,0.29-0.54
			c0,0-0.04-0.04-0.58,0.58c-0.04,0.04-0.12,0.04-0.17,0.08c0.04,0.04,0.12,0.08-0.04,0.67c0,0.12,0,0.17,0,0.21
			c0.04,0.08,0.04,0.17,0.08,0.29c0.04-0.08,0.08-0.12,0.12-0.21c0.08-0.17,0.17-0.33,0.21-0.54c0-0.08-0.04-0.17-0.08-0.25
			c-0.08,0.08-0.21,0.17-0.25,0.25C10.99,5.07,10.99,5.2,11.2,4.7z M22.86,29.76c-0.25-0.17-0.33-0.25-0.46-0.25
			c-0.12,0-0.33,0-0.38,0.08c-0.08,0.17,0,0.33,0.21,0.29c0.12,0,0.25-0.04-0.67-0.42c0.08,0,0.21,0.04,0.29,0
			c0.17-0.08,0.33-0.21,0.5-0.29c-0.04-0.04-0.12-0.08-0.12-0.17c-0.21-0.38-0.38,0.25-0.58,0.04c0,0-0.12,0.12-0.21,0.21
			c-0.04,0.04-0.04,0.08-0.08,0.12C21.48,29.43,21.57,29.47,22.86,29.76z M23.61,11.78c0.04,0,0.04,0,0.08,0
			c0-0.04-0.04-0.13-0.08-0.17c0,0-0.08,0.04-0.12,0.04c0.04,0.04,0.08,0.08,0.21,0.13c-0.04,0.08-0.08,0.21-0.12,0.21
			c-0.33,0-0.29,0.12-0.08,0.29c0.08,0.04,0.17,0.08,2.04,0.25c-0.29-0.12-0.46-0.25-0.62-0.29c-0.12-0.04-0.17,0.33-0.37,0.08
			c-0.04-0.04-0.25,0.08-0.37,0.12c-0.13,0.04-0.29,0.08-0.42,0.08c0.13,0.04,0.25,0.08,0.38,0.12c0.17,0.04,0.38,0.17,0.54,0.17
			c0.25-0.04,0.5-0.13-0.92-0.38c0.17-0.17,0.38-0.29,0.54-0.46c0.04,0-0.04-0.17-0.04-0.17C24.02,11.78,23.86,11.78,23.61,11.78z
			 M13.99,5.95c-0.29,0-0.38,0.04-0.54,0.25c-0.21,0.29,0.12,0.46,0.04,0.67c0.04,0,0.17,0.04,0.17,0.04
			c0.12-0.25,0.25-0.5,0.37-0.79c0.04-0.04-0.04-0.12-0.42,0.87c-0.17-0.04-0.25-0.04-0.29-0.04c-0.25,0-0.25,0.17-0.21,0.33
			c0,0.08,0.08,0.17,0.13,0.25C13.32,7.41,13.45,7.28,13.99,5.95z M27.86,24.81c0,0.08,0,0.21,0,0.29c0,0.21,0.04,0.38,0.08,0.58
			c0.04-0.16,0.08-0.33,0.12-0.5c0.04-0.12,0.12-0.21,0.12-0.33c0-0.25,0-0.54-0.04-0.79h-0.08c-0.42,0.12-0.12,0.46-0.21,0.67
			c0,0.04,0,0.08,0.54-0.83c-0.04,0.04-0.08,0.08-0.12,0.08c0.04,0.04,0.04,0.04,0.08,0.08c0.04-0.04,0.08-0.08,0.08-0.12
			C28.48,23.94,28.44,23.89,27.86,24.81z M8.99,28.22c0.29,0,0.54,0,0.83,0c0.12,0,0.25-0.08,0.33-0.13
			c0.04-0.04,0.08-0.12,0.12-0.21c-0.04,0-0.12-0.09-0.17-0.04c-0.58,0.25-1.17,0.21-1.79,0.21c-0.08,0-0.17,0.08-0.25,0.08
			c0.08,0.04,0.13,0.08,0.21,0.08c0.25,0,0.5,0-0.21,0.08c0-0.04,0-0.04,0-0.08c-0.04,0-0.12,0.04-0.17,0.08
			c0,0,0.04,0.08,0.04,0.12C7.99,28.39,8.04,28.35,8.99,28.22z M17.24,4.53c0-0.04-0.04-0.21-0.04-0.42
			c-0.17,0.12-0.33,0.25-0.5,0.42c-0.08,0.08-0.17,0.17-0.25,0.25c-0.17,0.17-0.17,0.54,0.04,0.71c0.04,0.04,0.25,0.04,0.33-0.04
			c0.08-0.04,0.08-0.25,0.17-0.29c0.04-0.04,0.21,0.38,0.29-0.04C17.28,4.99,17.24,4.87,17.24,4.53z M16.82,3.45
			c0.08-0.12,0.17-0.29,0.21-0.42c0-0.04-0.13-0.17-0.13-0.17c-0.38,0.25-0.75,0.54-1.04,0.96C15.74,3.74,15.74,3.7,15.7,3.7
			c-0.08,0-0.17,0.04-0.25,0.04c0,0.04,0.04,0.12,0.04,0.12c0.12,0,0.21,0,0.33-0.17c0.42,0,0.79,0.33,1.25,0.21
			c0.29-0.08,0.58,0,0.83,0.29c0.12,0.17,0.17,0.04,0.21-0.08c0.04-0.17,0.21-0.25,0.29-0.42c0.04-0.04,0.04-0.08,0.08-0.17
			c-0.04-0.04-0.13-0.08-0.17-0.08C17.78,3.45,17.32,3.45,16.82,3.45z M20.15,28.64c0.62,0,1.25,0,1.87,0
			c0.09,0,0.12-0.08,0.21-0.13c-0.04-0.04-0.12-0.08-0.17-0.08c-0.29,0-0.62,0-0.92,0c-0.29,0-0.54,0-0.83,0
			c-0.29,0-0.71,0.13-0.92-0.04c-0.33-0.25-0.54,0.08-0.79,0.04c-0.25-0.04-0.54,0.13-0.79-0.17c-0.04-0.04-0.21-0.08-0.25-0.04
			c-0.33,0.33-0.79,0.16-1.17,0.16c-0.71,0.04-1.46,0-2.17,0c-0.33,0-0.58,0.29-0.96,0.21c-0.04,0-0.12,0.08-0.17,0.08
			c0.04,0.04,0.13,0.08,0.17,0.08c0.83,0,1.67,0.08,2.5-0.04c0.46-0.08,0.92-0.17,1.37-0.17c0.13,0,0.33,0.04,0.33,0.12
			c0.08,0.54,0.33,0.33,0.5,0.08c0.17-0.17,0.33-0.21,0.54-0.21C19.03,28.64,19.61,28.64,20.15,28.64z M17.24,28.93
			c-0.04-0.04-0.12-0.08-0.17-0.08c-0.12,0-0.29-0.04-0.42,0c-0.62,0.25-1.25,0.42-1.92,0.46c-0.29,0-0.54,0.46-0.79,0.71
			c0.33,0.25,0.54-0.04,0.83-0.13c0.33-0.08,0.71-0.08,1.04-0.21c0.46-0.16,0.87-0.37,1.33-0.58C17.15,29.06,17.2,28.97,17.24,28.93
			z M1.46,18.52H1.42c0-0.25,0-0.5,0-0.71c0-0.04-0.04-0.12-0.08-0.17c-0.04,0.04-0.08,0.09-0.12,0.17c0,0.25,0,0.5,0,0.71
			c0,0.04-0.08,0.08-0.13,0.17C1.04,18.65,1,18.56,1,18.52c0-0.21,0-0.42,0-0.62c0-0.08-0.08-0.17-0.12-0.21
			c-0.04,0.04-0.08,0.12-0.08,0.17C0.62,18.69,1.04,19.44,1,20.27c0,0.04,0.04,0.08,0.08,0.08c0.04,0,0.13-0.04,0.13-0.08
			C1.29,19.65,1.37,19.06,1.46,18.52z M9.87,1.99c-0.46,0-0.88,0-1.33,0c-0.17,0-0.33,0.08-0.46,0.12C7.99,2.16,7.99,2.24,7.95,2.33
			c0.04,0.04,0.12,0.04,0.17,0.08c0.33,0,0.71,0.04,1.04,0c0.33-0.04,0.62-0.17,0.96-0.21c0.42-0.04,0.87-0.04,1.29-0.08
			c-0.42-0.33-0.88-0.04-1.33-0.12C9.99,1.99,9.91,1.99,9.87,1.99z M9.12,21.31c-0.04-0.08-0.13-0.13-0.13-0.17
			c-0.04-0.67-0.71-1-0.96-1.54c0-0.04-0.08-0.04-0.13-0.04c0,0.04-0.04,0.12-0.04,0.17c-0.12,0.42,0.46,0.5,0.42,0.83
			c-0.04,0.42,0.33,0.54,0.54,0.79C8.87,21.4,8.99,21.31,9.12,21.31z M15.11,4.45c0.04,0-0.04-0.04-0.12-0.08
			c-0.04,0.12-0.08,0.29-0.17,0.33s-0.17-0.29-0.38-0.04c-0.12,0.17-0.37,0.25-0.54,0.37c0.5,0.42-0.21,0.25-0.21,0.42
			c0,0.08,0,0.12,0,0.21c0,0.04,0.08,0.08,0.13,0.08c0.29-0.12,0.58-0.29,0.83-0.42C14.57,4.87,15.32,5.03,15.11,4.45z M0.58,22.69
			c0,0.42,0,0.83,0,1.25c0,0.04,0.08,0.08,0.12,0.08c0,0,0.08-0.04,0.08-0.08c0-0.08,0-0.13,0-0.21c0-0.33,0-0.71,0-1.04
			c0-0.29-0.12-0.63,0.21-0.83c-0.5-0.29,0.12-0.58,0-0.88c0-0.04,0-0.08,0-0.08c-0.04-0.04-0.08-0.13-0.08-0.17
			c-0.04,0.04-0.04,0.04-0.08,0.08c-0.08,0.25-0.21,0.5-0.25,0.75C0.54,21.94,0.58,22.31,0.58,22.69z M19.07,9.36
			c-0.04-0.83-0.13-1.5-0.17-2.12c0-0.04-0.04-0.12-0.08-0.17C18.78,7.11,18.7,7.2,18.7,7.24c-0.08,0.62,0.12,1.25-0.21,1.87
			c-0.08,0.12,0.33,0.5,0.46,0.42C19.07,9.45,19.11,9.28,19.07,9.36z M22.86,20.02c-0.08-0.08-0.12-0.17-0.21-0.21
			c-0.04-0.04-0.17,0-0.21,0.04c-0.25,0.38-0.5,0.75-0.75,1.17c-0.04,0.12-0.08,0.25-0.08,0.38c0,0.04,0.04,0.12,0.08,0.16
			c0.04-0.04,0.13-0.04,0.13-0.08c0.12-0.17,0.33-0.38,0.33-0.58c0.04-0.29,0.25-0.33,0.46-0.42c-0.21-0.25-0.17-0.38,0.17-0.38
			C22.82,20.06,22.82,20.02,22.86,20.02z M9.08,30.05c-0.58,0.17-1.21-0.17-1.79,0.17c0.62,0.04,1.21,0.09,1.83,0.04
			c0.54-0.04,1.12,0.17,1.62-0.12C10.2,30.14,9.66,30.1,9.08,30.05z M31.19,7.82c0-0.21-0.38-0.83-0.5-0.79
			C30.4,7.2,30.6,7.49,30.56,7.7c-0.04,0.17,0,0.33,0,0.5c0.04,0.33,0.17,0.08,0.29,0.08C31.14,8.24,31.23,8.11,31.19,7.82z
			 M23.28,13.65c-0.08,0.04-0.17,0.08-0.21,0.08c0.17,0.17,0.21,0.29,0,0.42c0.42,0.29,0.5,0.75,0.71,1.12
			c0.04,0.04,0.12,0.04,0.21,0c0.04,0,0.08-0.12,0.08-0.12c-0.33-0.42-0.38-0.92-0.58-1.37C23.44,13.73,23.36,13.69,23.28,13.65z
			 M11.62,28.43c0,0.04,0,0.04,0.04,0.08c0.38-0.08,0.75-0.16,1.12-0.29c0.17-0.04,0.42,0.16,0.5-0.13
			c-0.17-0.04-0.33-0.08-0.5-0.08c-0.42,0-0.87-0.04-1.25,0.21c-0.17,0.08-0.37-0.13-0.5,0.12c0.17,0.04,0.33,0.04,0.5,0.08
			C11.53,28.43,11.58,28.43,11.62,28.43z M16.91,5.99c-0.21,0.08-0.46,0.17-0.5,0.29c-0.04,0.29,0,0.58,0.08,0.87
			c0,0.04,0.29,0,0.46,0c-0.04-0.08-0.04-0.17-0.08-0.21c-0.12-0.29-0.08-0.5,0.13-0.71c0.04-0.04,0-0.13,0-0.21
			C16.99,6.03,16.95,5.99,16.91,5.99z M23.48,29.68c0.25,0,0.54-0.54,0.42-0.71c-0.04-0.04-0.12-0.08-0.12-0.04
			c-0.25,0.08-0.46,0.17-0.71,0.29c-0.04,0.04-0.08,0.08-0.17,0.12c0.04,0.04,0.12,0.08,0.17,0.12
			C23.23,29.56,23.36,29.64,23.48,29.68z M8.2,2.87c0.37-0.04,0.71-0.08,1.08-0.08C8.95,2.49,8.54,2.66,8.16,2.66
			C7.79,2.62,7.41,2.7,7.04,2.7C7.41,2.99,7.83,2.74,8.2,2.87z M21.73,2.41c-0.38,0-0.54,0-0.71,0c-0.08,0-0.25-0.04-0.29,0
			c-0.13,0.08-0.21,0.21-0.29,0.33c0.12,0.04,0.25,0.08,0.38,0.04c0.25-0.08,0.46-0.25,0.75-0.21c0.21,0,0.5,0.17,0.71-0.13
			C21.98,2.45,21.73,2.41,21.73,2.41z M9.16,29.1c0.33-0.04,0.67-0.08,1-0.08c-0.29-0.25-0.67-0.08-1-0.13
			c-0.33-0.04-0.67,0.04-1,0.04C8.41,29.22,8.79,28.97,9.16,29.1z M26.98,12.11v0.04c-0.08,0-0.21,0.04-0.29,0.04
			c-0.29,0.04-0.58,0.04-0.87,0.08c0.25,0.29,0.54,0.04,0.79,0.12c0.12,0.04,0.21,0.17,0.33,0.21c0.09,0.04,0.25-0.04,0.25-0.08
			c0.04-0.17,0-0.33,0-0.5C27.11,12.07,27.02,12.11,26.98,12.11z M9.74,5.57c0,0.04,0,0.17,0.04,0.29h0.12
			c0.12-0.29,0.29,0.17,0.46,0c0.17-0.17,0.25-0.33,0.21-0.54c0-0.04-0.04-0.12-0.08-0.17c-0.04,0.08-0.08,0.13-0.13,0.21
			C10.2,5.61,10.2,5.61,9.95,5.32C9.91,5.28,9.87,5.2,9.87,5.16C9.83,5.2,9.79,5.24,9.74,5.28C9.74,5.32,9.74,5.41,9.74,5.57z
			 M18.45,2.24c0.25-0.04,0.54-0.08,0.87-0.08c-0.25-0.29-0.62-0.08-0.92-0.13c-0.29-0.04-0.58,0.04-0.92,0.04
			C17.74,2.37,18.11,2.12,18.45,2.24z M28.02,11.28c0.04,0.25,0.04,0.58,0.08,0.87c0.33-0.25,0.08-0.58,0.13-0.92
			c0.04-0.29-0.04-0.58-0.04-0.92C27.86,10.61,28.15,10.94,28.02,11.28z M28.15,2.03c0.13-0.04,0.04,0-0.04,0
			c0.08,0.04,0.21,0.08,0.25,0.17c0.17,0.12,0.29,0.29,0.46,0.42c0.04,0.04,0.13,0,0.21,0c0-0.08,0-0.12,0-0.21
			C28.94,2.03,28.73,1.91,28.15,2.03z M28.27,7.74c0-0.08,0.04-0.21,0-0.29c-0.04-0.08-0.17-0.17-0.25-0.21
			c-0.04,0.08-0.17,0.21-0.17,0.29c0.04,0.21,0.12,0.42,0.21,0.62c0,0.04,0.08,0.04,0.12,0.08c0,0,0.04-0.04,0.04-0.08
			C28.27,7.99,28.27,7.86,28.27,7.74z M22.03,16.02c0.12,0.17-0.17,0.5,0.12,0.75c0.04-0.25,0.04-0.54,0.09-0.79
			c0-0.17,0-0.33,0-0.5c0-0.04-0.09-0.04-0.12-0.08c0,0-0.09,0.04-0.09,0.08C22.03,15.61,22.03,15.77,22.03,16.02z M28.27,9.28
			c-0.09-0.25,0.17-0.58-0.13-0.79c-0.04,0.25-0.04,0.54-0.08,0.79c0,0.17,0,0.33,0,0.5c0,0.04,0.08,0.04,0.12,0.08
			c0,0,0.09-0.04,0.09-0.08C28.27,9.61,28.27,9.45,28.27,9.28z M30.4,8.07c-0.08-0.33,0.13-0.62-0.17-0.87
			c-0.04,0.25-0.08,0.54-0.04,0.79c0,0.21-0.17,0.46,0.13,0.58C30.31,8.45,30.35,8.24,30.4,8.07z M27.9,22.85
			c-0.04-0.16-0.04-0.37-0.08-0.62c-0.25,0.21-0.12,0.46-0.12,0.71c0,0.21,0.04,0.46,0.08,0.71C27.98,23.44,27.77,23.14,27.9,22.85z
			 M27.86,28.6c0.04,0.17,0.04,0.42,0.08,0.62c0.29-0.17,0.12-0.46,0.12-0.71c0-0.21-0.04-0.46-0.04-0.71
			C27.73,28.02,27.94,28.31,27.86,28.6z M13.57,2.41c0.04,0,0.29-0.08,0.5-0.13c-0.21-0.04-0.46-0.04-0.67-0.08
			c-0.04,0-0.13-0.13-0.17-0.13c-0.08,0-0.21,0.08-0.29,0.13c-0.04,0.04-0.04,0.08-0.08,0.12c0.08,0.04,0.17,0.04,0.29,0.08
			C13.24,2.41,13.32,2.41,13.57,2.41z M16.86,23.39c-0.21,0.08-0.42,0.17-0.66,0.25c-0.08,0.04-0.12,0.08-0.17,0.12
			c0.08,0.04,0.17,0.08,0.29,0.08c0.08,0,0.21-0.04,0.29-0.04c0.12-0.04,0.25-0.08,0.33-0.12c0.08-0.04,0.21-0.08,0.29-0.12
			C17.11,23.48,17.03,23.44,16.86,23.39z M6.16,3.07C6.33,2.99,6.5,2.91,6.7,2.83C6.75,2.78,6.75,2.74,6.79,2.7
			C6.75,2.66,6.66,2.62,6.62,2.62c-0.04,0-0.12,0.04-0.17,0.04C6.33,2.7,6.2,2.74,6.12,2.78C6.04,2.83,5.91,2.87,5.83,2.91
			C5.91,2.99,6,3.03,6.16,3.07z M27.86,4.28c0-0.08,0-0.13,0-0.21c-0.04-0.08-0.08-0.17-0.17-0.21c-0.04-0.04-0.17,0-0.17,0.04
			c-0.04,0.08-0.08,0.21-0.08,0.25c0.04,0.17,0.13,0.29,0.21,0.42c0.04,0.04,0.08,0.04,0.13,0.08c0,0,0.04-0.04,0.04-0.08
			C27.86,4.49,27.86,4.37,27.86,4.28z M12.24,2.2c0.04,0,0.21-0.04,0.38-0.08c-0.08-0.29-0.33-0.08-0.5-0.12
			c-0.13-0.04-0.29,0-0.42,0c-0.04,0-0.08,0.04-0.08,0.08S11.66,2.2,11.7,2.2C11.87,2.2,11.99,2.2,12.24,2.2z M16.4,9.49
			c0.04,0,0.12-0.04,0.21-0.08c-0.08-0.08-0.12-0.17-0.21-0.21c-0.04-0.04-0.12-0.08-0.17-0.08c-0.08,0-0.17,0.08-0.25,0.12
			c0.04,0.08,0.08,0.21,0.17,0.29C16.2,9.53,16.28,9.49,16.4,9.49z M10.45,3.87c-0.12-0.12-0.17-0.21-0.25-0.21S9.95,3.7,9.95,3.74
			c0,0.17,0.04,0.33,0.04,0.46c0,0,0.04,0,0.08,0C10.2,4.16,10.33,4.03,10.45,3.87z M18.32,7.07c-0.08-0.08-0.17-0.21-0.25-0.29
			l-0.21,0.12c0.08,0.17,0.21,0.29,0.29,0.46C18.24,7.32,18.28,7.24,18.32,7.07z M23.15,12.36c-0.08-0.17-0.17-0.25-0.21-0.33
			c-0.08,0.13-0.21,0.25-0.29,0.38c0,0.04,0.08,0.12,0.13,0.21C22.9,12.53,23.02,12.44,23.15,12.36z M24.52,3.24
			c0.04,0,0.21-0.04,0.37-0.08c-0.08-0.29-0.33-0.08-0.5-0.12c-0.13-0.04-0.29,0-0.42,0c-0.04,0-0.08,0.04-0.08,0.08
			c0,0.04,0.04,0.12,0.08,0.12C24.15,3.24,24.27,3.24,24.52,3.24z M9.41,6.11C9.37,6.24,9.28,6.32,9.33,6.36
			c0.08,0.13,0.21,0.25,0.33,0.37C9.7,6.7,9.74,6.61,9.7,6.57C9.66,6.45,9.54,6.28,9.41,6.11z M1.83,16.44c0-0.12,0-0.29,0-0.42
			c0-0.04-0.08-0.04-0.12-0.08c0,0.25,0,0.5,0,0.75c0.04-0.04,0.12-0.04,0.12-0.08C1.83,16.61,1.83,16.52,1.83,16.44z M14.32,7.03
			c0.08-0.08,0.17-0.17,0.17-0.25c0.04-0.12-0.04-0.25-0.04-0.38c-0.12,0.17-0.25,0.33-0.33,0.46C14.16,6.91,14.24,6.95,14.32,7.03z
			 M24.73,2.62c0.08,0,0.21,0,0.29,0c0.04,0,0.04-0.08,0.08-0.12c-0.25,0-0.5,0-0.75,0c0.04,0.04,0.04,0.12,0.08,0.12
			C24.52,2.62,24.65,2.62,24.73,2.62z M16.57,8.15c0.13-0.12,0.25-0.25,0.25-0.25c-0.04-0.08-0.13-0.21-0.21-0.25
			c0,0-0.17,0.08-0.17,0.17C16.4,7.86,16.49,7.99,16.57,8.15z M12.07,5.66c-0.17-0.04-0.33-0.08-0.5-0.13
			c-0.04,0-0.12,0.04-0.17,0.08c0.17,0.08,0.37,0.17,0.54,0.29C11.99,5.86,12.03,5.78,12.07,5.66z M14.99,9.49
			c-0.08,0-0.12,0-0.21,0c-0.08,0.04-0.17,0.08-0.25,0.08c0.08,0.04,0.17,0.08,0.25,0.08c0.12,0,0.29,0,0.42,0
			c0.04,0,0.12-0.08,0.17-0.08c-0.04-0.04-0.08-0.08-0.17-0.08C15.16,9.49,15.07,9.49,14.99,9.49z M5.7,3.57
			C5.54,3.7,5.45,3.74,5.37,3.78c0.17,0.08,0.33,0.21,0.5,0.29c0,0,0.12-0.12,0.08-0.17C5.91,3.82,5.83,3.7,5.7,3.57z M28.1,13.98
			c-0.04-0.12-0.08-0.25-0.12-0.33c-0.04,0.08-0.08,0.17-0.08,0.25c0,0.12,0.04,0.25,0.08,0.38C28.02,14.19,28.06,14.11,28.1,13.98z
			 M19.15,4.62c-0.04-0.13-0.08-0.25-0.13-0.33c-0.04,0.08-0.08,0.17-0.08,0.25c0,0.12,0.04,0.25,0.08,0.37
			C19.07,4.82,19.11,4.74,19.15,4.62z M27.48,14.57c-0.04-0.08-0.12-0.17-0.17-0.25c-0.04,0.08-0.08,0.17-0.08,0.29
			c0,0.08,0.08,0.21,0.13,0.29C27.4,14.77,27.44,14.69,27.48,14.57z M21.53,1.74c-0.13,0.04-0.25,0.08-0.33,0.12
			c0.08,0.04,0.17,0.08,0.25,0.08c0.12,0,0.25-0.04,0.38-0.08C21.73,1.87,21.65,1.78,21.53,1.74z M28.31,22.35
			c-0.04-0.12-0.08-0.25-0.13-0.33c-0.04,0.08-0.12,0.17-0.12,0.29c0,0.08,0.04,0.17,0.04,0.29C28.19,22.48,28.27,22.39,28.31,22.35
			z M13.07,3.57c-0.04-0.04-0.12-0.12-0.17-0.08c-0.08,0.04-0.17,0.12-0.25,0.21c0,0,0.08,0.12,0.13,0.17
			C12.91,3.74,12.99,3.66,13.07,3.57z M18.32,8.11c-0.08-0.25-0.08-0.38-0.12-0.5c-0.04,0.04-0.13,0.12-0.13,0.17
			c0,0.12,0.04,0.25,0.08,0.37C18.24,8.2,18.28,8.15,18.32,8.11z M12.78,9.32c0.25-0.08,0.37-0.08,0.5-0.13
			c-0.04-0.04-0.12-0.12-0.17-0.12c-0.12,0-0.25,0.04-0.38,0.08C12.74,9.24,12.74,9.28,12.78,9.32z M28.4,17.27
			c-0.17-0.25-0.21-0.29-0.25-0.33c-0.04-0.04-0.12-0.08-0.21-0.12c0,0.08-0.08,0.25-0.04,0.25C27.94,17.15,28.06,17.19,28.4,17.27z
			 M28.1,6.7c-0.04-0.12-0.08-0.25-0.12-0.33c-0.04,0.08-0.08,0.17-0.08,0.25c0,0.13,0.04,0.25,0.08,0.38
			C28.02,6.91,28.06,6.82,28.1,6.7z M12.95,30.35c0.12-0.04,0.25-0.08,0.33-0.12c-0.08-0.04-0.17-0.08-0.25-0.08
			c-0.13,0-0.25,0.04-0.38,0.08C12.74,30.26,12.82,30.31,12.95,30.35z M6.33,29.02C6.2,29.06,6.08,29.1,6,29.14
			c0.08,0.04,0.17,0.08,0.25,0.08c0.12,0,0.25-0.04,0.37-0.08C6.54,29.14,6.45,29.06,6.33,29.02z M4.46,28.89
			c0.08-0.04,0.17-0.12,0.25-0.16c-0.08-0.04-0.17-0.08-0.29-0.08c-0.08,0-0.21,0.08-0.29,0.12C4.25,28.81,4.33,28.85,4.46,28.89z
			 M13.2,8.7c0.17-0.08,0.21-0.08,0.29-0.13c-0.04-0.04-0.12-0.12-0.17-0.12s-0.13,0.04-0.17,0.08C13.16,8.61,13.16,8.65,13.2,8.7z
			 M25.36,30.05c-0.04-0.08-0.08-0.17-0.08-0.17c-0.08,0-0.17,0.04-0.29,0.08c0.04,0.04,0.04,0.12,0.08,0.12
			C25.15,30.1,25.23,30.05,25.36,30.05z M11.24,29.81c-0.08-0.04-0.12-0.13-0.17-0.13c-0.08,0-0.17,0.04-0.25,0.08
			c0.04,0.04,0.12,0.08,0.17,0.08C11.03,29.89,11.12,29.85,11.24,29.81z M8.2,29.93c0.17-0.08,0.21-0.08,0.29-0.12
			c-0.04-0.04-0.12-0.13-0.17-0.13c-0.04,0-0.12,0.04-0.17,0.08C8.16,29.85,8.16,29.89,8.2,29.93z M28.31,29.76
			c-0.08-0.17-0.08-0.21-0.13-0.29c-0.04,0.04-0.12,0.13-0.12,0.17s0.04,0.12,0.08,0.17C28.23,29.81,28.27,29.81,28.31,29.76z
			 M13.74,9.15c-0.08-0.17-0.08-0.21-0.13-0.29c-0.04,0.04-0.12,0.12-0.12,0.17c0,0.04,0.04,0.12,0.08,0.17
			C13.66,9.2,13.7,9.2,13.74,9.15z M24.73,1.83c-0.13,0-0.21-0.04-0.29-0.04c-0.04,0-0.04,0.08-0.08,0.12
			c0.08,0.04,0.17,0.04,0.29,0.08C24.65,1.99,24.69,1.91,24.73,1.83z M10.49,2.66c0.17-0.08,0.21-0.08,0.29-0.12
			c-0.04-0.04-0.12-0.12-0.17-0.12c-0.04,0-0.12,0.04-0.17,0.08C10.45,2.58,10.45,2.62,10.49,2.66z M20.19,2.53
			c-0.08-0.04-0.12-0.12-0.17-0.12c-0.08,0-0.17,0.04-0.25,0.08c0.04,0.04,0.12,0.08,0.17,0.08C19.99,2.62,20.07,2.58,20.19,2.53z
			 M6.83,28.6c-0.04-0.08-0.08-0.17-0.08-0.17c-0.08,0-0.17,0.04-0.29,0.08c0.04,0.04,0.04,0.13,0.08,0.13
			C6.62,28.64,6.7,28.6,6.83,28.6z M25.69,27.85c0.17-0.08,0.21-0.08,0.29-0.13c-0.04-0.04-0.13-0.12-0.17-0.12
			c-0.04,0-0.12,0.04-0.17,0.08C25.65,27.77,25.65,27.8,25.69,27.85z M15.36,23.69c-0.13,0-0.21-0.04-0.29-0.04
			c-0.04,0-0.04,0.08-0.08,0.12c0.08,0.04,0.17,0.04,0.29,0.08C15.28,23.85,15.32,23.77,15.36,23.69z M14.16,22.39
			c0.08-0.04,0.12-0.08,0.17-0.12c-0.08-0.04-0.17-0.08-0.25-0.08c-0.04,0-0.12,0.04-0.17,0.08C13.99,22.35,14.07,22.39,14.16,22.39
			z M27.61,19.89c-0.08,0.04-0.17,0.09-0.17,0.09c0,0.08,0.04,0.17,0.08,0.29c0.04-0.04,0.12-0.04,0.12-0.08
			C27.65,20.1,27.61,20.02,27.61,19.89z M21.53,19.86c0,0.04-0.04,0.12-0.08,0.17c0.04,0.04,0.12,0.08,0.17,0.08
			c0.08,0,0.12-0.08,0.17-0.12C21.73,19.94,21.65,19.94,21.53,19.86z M28.19,17.98c-0.04,0.08-0.12,0.12-0.12,0.17
			c0,0.08,0.04,0.17,0.08,0.25c0.04-0.04,0.08-0.12,0.08-0.17C28.27,18.19,28.23,18.11,28.19,17.98z M18.49,30.14
			c-0.13,0-0.21-0.04-0.29-0.04c-0.04,0-0.04,0.08-0.08,0.12c0.08,0.04,0.17,0.04,0.29,0.09C18.4,30.31,18.45,30.22,18.49,30.14z
			 M2.25,15.57c0.04,0.08,0.08,0.12,0.12,0.17c0.04-0.08,0.08-0.17,0.08-0.25c0-0.04-0.04-0.12-0.08-0.17
			C2.33,15.4,2.25,15.48,2.25,15.57z M27.23,13.48c-0.04-0.08-0.08-0.17-0.12-0.25c-0.04,0.04-0.08,0.12-0.08,0.17
			c0,0.08,0.04,0.17,0.08,0.25C27.15,13.61,27.19,13.57,27.23,13.48z M11.62,6.2c-0.04-0.08-0.08-0.17-0.12-0.25
			c-0.04,0.04-0.08,0.13-0.08,0.17c0,0.08,0.04,0.17,0.08,0.25C11.53,6.32,11.58,6.28,11.62,6.2z M25.69,13.07
			c0.17-0.08,0.21-0.08,0.29-0.12c-0.04-0.04-0.13-0.12-0.17-0.12c-0.04,0-0.12,0.04-0.17,0.08C25.65,12.98,25.65,13.03,25.69,13.07
			z M22.19,12.19c-0.08,0.04-0.17,0.08-0.17,0.08c0,0.08,0.04,0.17,0.09,0.29c0.04-0.04,0.12-0.04,0.12-0.08
			C22.24,12.4,22.19,12.32,22.19,12.19z M27.4,11.24c-0.04-0.04-0.04-0.04-0.08-0.08c-0.04,0.04-0.04,0.08-0.08,0.13
			c0,0,0.04,0.04,0.08,0.08C27.36,11.32,27.4,11.28,27.4,11.24z M22.44,11.9c-0.04-0.04-0.04-0.08-0.08-0.08s-0.08,0.04-0.12,0.08
			c0.04,0.04,0.04,0.08,0.08,0.08C22.36,11.94,22.4,11.9,22.44,11.9z M30.31,6.45c-0.04-0.04-0.04-0.04-0.08-0.08
			c-0.04,0.04-0.04,0.08-0.08,0.13c0,0,0.04,0.04,0.08,0.08C30.27,6.53,30.31,6.49,30.31,6.45z M10.95,6.49
			c-0.04-0.04-0.04-0.08-0.08-0.13c-0.04,0.04-0.08,0.04-0.08,0.08c0,0.04,0.04,0.08,0.08,0.13C10.91,6.53,10.95,6.53,10.95,6.49z
			 M22.4,11.24c-0.04-0.04-0.04-0.04-0.08-0.08c-0.04,0.04-0.04,0.08-0.08,0.13c0,0,0.04,0.04,0.08,0.08
			C22.36,11.32,22.4,11.28,22.4,11.24z M22.9,12.94c0.04,0.04,0.04,0.04,0.08,0.08c0.04-0.04,0.04-0.08,0.08-0.12
			c0,0-0.04-0.04-0.08-0.08C22.94,12.86,22.9,12.9,22.9,12.94z M22.69,11.07c0.04,0.04,0.04,0.04,0.08,0.08
			c0.04-0.04,0.04-0.08,0.08-0.12c0,0-0.04-0.04-0.08-0.08C22.73,10.99,22.69,11.03,22.69,11.07z M22.78,13.48
			c-0.04,0.04-0.08,0.04-0.13,0.08c0.04,0.04,0.04,0.08,0.08,0.08c0.04,0,0.08-0.04,0.12-0.08C22.82,13.53,22.82,13.48,22.78,13.48z
			 M27.98,5.74c-0.04,0.04-0.08,0.04-0.08,0.08s0.04,0.08,0.08,0.12c0.04-0.04,0.08-0.04,0.08-0.08
			C28.02,5.82,27.98,5.78,27.98,5.74z M22.03,14.4c-0.04-0.04-0.04-0.08-0.08-0.08c-0.04,0-0.08,0.04-0.12,0.08
			c0.04,0.04,0.04,0.08,0.08,0.08C21.94,14.44,21.98,14.4,22.03,14.4z M22.28,10.86c0.04,0.04,0.04,0.04,0.08,0.08
			c0.04-0.04,0.04-0.08,0.08-0.12c0,0-0.04-0.04-0.08-0.08C22.32,10.78,22.28,10.82,22.28,10.86z M21.94,14.69
			c-0.04,0.04-0.08,0.04-0.08,0.08c0,0.04,0.04,0.08,0.08,0.12c0.04-0.04,0.08-0.04,0.08-0.08C21.98,14.77,21.94,14.73,21.94,14.69z
			 M22.78,14.94c-0.04,0.04-0.08,0.04-0.13,0.08c0.04,0.04,0.04,0.08,0.08,0.08c0.04,0,0.08-0.04,0.12-0.08
			C22.82,14.98,22.82,14.94,22.78,14.94z M17.94,5.7c0.04-0.04,0.08-0.04,0.13-0.08c-0.04-0.04-0.04-0.08-0.08-0.08
			c-0.04,0-0.08,0.04-0.13,0.08C17.91,5.66,17.91,5.7,17.94,5.7z M1.37,15.61c-0.04-0.04-0.04-0.04-0.08-0.08
			c-0.04,0.04-0.04,0.08-0.08,0.12c0,0,0.04,0.04,0.08,0.08C1.33,15.69,1.37,15.65,1.37,15.61z M30.9,5.37
			c-0.04,0.04-0.08,0.04-0.13,0.08c0.04,0.04,0.04,0.08,0.08,0.08c0.04,0,0.08-0.04,0.13-0.08C30.94,5.41,30.94,5.37,30.9,5.37z
			 M23.82,15.57c-0.04,0.04-0.08,0.04-0.12,0.08c0.04,0.04,0.04,0.08,0.08,0.08c0.04,0,0.08-0.04,0.12-0.08
			C23.86,15.61,23.86,15.57,23.82,15.57z M23.78,16.11c0.04-0.04,0.08-0.04,0.12-0.08c-0.04-0.04-0.04-0.08-0.08-0.08
			c-0.04,0-0.08,0.04-0.12,0.08C23.73,16.07,23.73,16.11,23.78,16.11z M21.98,10.61c-0.04-0.04-0.04-0.04-0.08-0.08
			c-0.04,0.04-0.04,0.08-0.08,0.13c0,0,0.04,0.04,0.08,0.08C21.94,10.69,21.98,10.65,21.98,10.61z M22.99,17.23
			c-0.04,0.04-0.08,0.04-0.13,0.09c0.04,0.04,0.04,0.08,0.08,0.08c0.04,0,0.08-0.04,0.13-0.08C23.02,17.27,23.02,17.23,22.99,17.23z
			 M30.19,10.44c0.04,0.04,0.04,0.04,0.08,0.08c0.04-0.04,0.04-0.08,0.08-0.12c0,0-0.04-0.04-0.08-0.08
			C30.23,10.36,30.19,10.4,30.19,10.44z M15.28,6.99c-0.04,0.04-0.08,0.04-0.08,0.08s0.04,0.08,0.08,0.13
			c0.04-0.04,0.08-0.04,0.08-0.08C15.32,7.07,15.28,7.03,15.28,6.99z M18.65,10.4c-0.04-0.04-0.04-0.04-0.08-0.08
			c-0.04,0.04-0.04,0.08-0.08,0.13c0,0,0.04,0.04,0.08,0.08C18.61,10.49,18.65,10.44,18.65,10.4z M21.15,18.52
			c-0.04-0.04-0.04-0.04-0.08-0.08c-0.04,0.04-0.04,0.08-0.08,0.12c0,0,0.04,0.04,0.08,0.08C21.11,18.61,21.15,18.56,21.15,18.52z
			 M7.79,19.1c-0.04,0.04-0.08,0.04-0.12,0.08c0.04,0.04,0.04,0.09,0.08,0.09c0.04,0,0.08-0.04,0.12-0.09
			C7.83,19.15,7.83,19.1,7.79,19.1z M21.57,19.19c-0.04-0.04-0.04-0.08-0.08-0.12c-0.04,0.04-0.08,0.04-0.08,0.08
			c0,0.04,0.04,0.08,0.08,0.13C21.53,19.23,21.57,19.23,21.57,19.19z M27.65,19.39c-0.04-0.04-0.04-0.08-0.08-0.08
			c-0.04,0-0.08,0.04-0.13,0.08c0.04,0.04,0.04,0.09,0.08,0.09C27.56,19.44,27.61,19.39,27.65,19.39z M17.7,4.78
			c0.04,0.04,0.04,0.08,0.08,0.12c0.04-0.04,0.08-0.04,0.08-0.08c0-0.04-0.04-0.08-0.08-0.12C17.74,4.74,17.7,4.74,17.7,4.78z
			 M28.19,19.73c-0.04,0.04-0.08,0.04-0.12,0.08c0.04,0.04,0.04,0.08,0.08,0.08c0.04,0,0.08-0.04,0.13-0.08
			C28.23,19.77,28.23,19.73,28.19,19.73z M1.79,20.23c-0.04-0.04-0.04-0.08-0.08-0.13c-0.04,0.04-0.08,0.04-0.08,0.08
			c0,0.04,0.04,0.08,0.08,0.12C1.75,20.27,1.79,20.27,1.79,20.23z M21.03,20.39c0.04,0.04,0.04,0.08,0.08,0.13
			c0.04-0.04,0.08-0.04,0.08-0.08c0-0.04-0.04-0.09-0.08-0.13C21.07,20.35,21.03,20.35,21.03,20.39z M18.4,4.32
			c-0.04,0.04-0.08,0.04-0.12,0.08c0.04,0.04,0.04,0.08,0.08,0.08c0.04,0,0.08-0.04,0.13-0.08C18.45,4.37,18.45,4.32,18.4,4.32z
			 M12.16,4.32c-0.04,0.04-0.08,0.04-0.12,0.08c0.04,0.04,0.04,0.08,0.08,0.08c0.04,0,0.08-0.04,0.12-0.08
			C12.2,4.37,12.2,4.32,12.16,4.32z M16.99,22.1c-0.04-0.04-0.04-0.08-0.08-0.12c-0.04,0.04-0.08,0.04-0.08,0.08
			c0,0.04,0.04,0.08,0.08,0.13C16.95,22.14,16.99,22.14,16.99,22.1z M16.32,4.24c0.04-0.04,0.04-0.04,0.08-0.08
			c-0.04-0.04-0.08-0.04-0.12-0.08c0,0-0.04,0.04-0.08,0.08C16.24,4.2,16.28,4.24,16.32,4.24z M13.32,3.95
			c0.04,0.04,0.04,0.08,0.08,0.12c0.04-0.04,0.08-0.04,0.08-0.08c0-0.04-0.04-0.08-0.08-0.12C13.37,3.91,13.32,3.91,13.32,3.95z
			 M18.86,9.78c-0.04-0.04-0.04-0.04-0.08-0.08c-0.04,0.04-0.04,0.08-0.08,0.13c0,0,0.04,0.04,0.08,0.08
			C18.82,9.86,18.86,9.82,18.86,9.78z M12.41,3.99c-0.04-0.04-0.04-0.08-0.08-0.12c-0.04,0.04-0.08,0.04-0.08,0.08
			c0,0.04,0.04,0.08,0.08,0.12C12.37,4.03,12.41,4.03,12.41,3.99z M15.32,22.48c-0.04-0.04-0.04-0.04-0.08-0.08
			c-0.04,0.04-0.04,0.08-0.08,0.12c0,0,0.04,0.04,0.08,0.08C15.28,22.56,15.32,22.52,15.32,22.48z M11.99,22.89
			c-0.04-0.04-0.04-0.04-0.08-0.08c-0.04,0.04-0.04,0.08-0.08,0.12c0,0,0.04,0.04,0.08,0.08C11.95,22.98,11.99,22.94,11.99,22.89z
			 M16.95,22.85c-0.04,0.04-0.08,0.04-0.12,0.08c0.04,0.04,0.04,0.08,0.08,0.08c0.04,0,0.08-0.04,0.13-0.08
			C16.99,22.89,16.99,22.85,16.95,22.85z M28.36,22.98c0.04-0.04,0.08-0.04,0.12-0.09c-0.04-0.04-0.04-0.08-0.08-0.08
			c-0.04,0-0.08,0.04-0.12,0.08C28.31,22.94,28.31,22.98,28.36,22.98z M17.28,23.14c0.04,0.04,0.04,0.04,0.08,0.08
			c0.04-0.04,0.04-0.08,0.08-0.12c0,0-0.04-0.04-0.08-0.09C17.32,23.06,17.28,23.1,17.28,23.14z M29.77,23.14
			c0.04,0.04,0.04,0.04,0.08,0.08c0.04-0.04,0.04-0.08,0.08-0.12c0,0-0.04-0.04-0.08-0.09C29.81,23.06,29.77,23.1,29.77,23.14z
			 M1.04,23.73c0.04,0.04,0.04,0.08,0.08,0.13c0.04-0.04,0.08-0.04,0.08-0.08c0-0.04-0.04-0.08-0.08-0.12
			C1.08,23.69,1.04,23.69,1.04,23.73z M11.16,3.57c-0.04-0.04-0.04-0.08-0.08-0.12c-0.04,0.04-0.08,0.04-0.08,0.08
			c0,0.04,0.04,0.08,0.08,0.12C11.12,3.62,11.16,3.62,11.16,3.57z M11.74,3.28c-0.04,0.04-0.08,0.04-0.12,0.08
			c0.04,0.04,0.04,0.08,0.08,0.08c0.04,0,0.08-0.04,0.12-0.08C11.78,3.32,11.78,3.28,11.74,3.28z M7.29,3.37
			c0.04,0.04,0.04,0.04,0.08,0.08c0.04-0.04,0.04-0.08,0.08-0.12c0,0-0.04-0.04-0.08-0.08C7.33,3.28,7.29,3.32,7.29,3.37z
			 M14.2,9.86c0.04-0.04,0.08-0.04,0.13-0.08c-0.04-0.04-0.04-0.08-0.08-0.08s-0.08,0.04-0.12,0.08C14.16,9.82,14.16,9.86,14.2,9.86
			z M7.74,3.2c0.04-0.04,0.08-0.04,0.12-0.08C7.83,3.07,7.83,3.03,7.79,3.03c-0.04,0-0.08,0.04-0.12,0.08C7.7,3.16,7.7,3.2,7.74,3.2
			z M18.24,2.95c-0.04-0.04-0.04-0.08-0.08-0.12c-0.04,0.04-0.08,0.04-0.08,0.08c0,0.04,0.04,0.08,0.08,0.12
			C18.2,2.99,18.24,2.99,18.24,2.95z M15.16,7.53c-0.04-0.04-0.04-0.08-0.08-0.08c-0.04,0-0.08,0.04-0.12,0.08
			c0.04,0.04,0.04,0.08,0.08,0.08C15.07,7.57,15.11,7.53,15.16,7.53z M13.2,9.65c0.04-0.04,0.04-0.04,0.08-0.08
			c-0.04-0.04-0.08-0.04-0.12-0.08c0,0-0.04,0.04-0.08,0.08C13.12,9.61,13.16,9.65,13.2,9.65z M5.54,2.91
			C5.5,2.87,5.5,2.87,5.45,2.83C5.41,2.87,5.41,2.91,5.37,2.95c0,0,0.04,0.04,0.08,0.08C5.5,2.99,5.54,2.95,5.54,2.91z M16.99,9.36
			c-0.04-0.04-0.04-0.04-0.08-0.08c-0.04,0.04-0.04,0.08-0.08,0.12c0,0,0.04,0.04,0.08,0.08C16.95,9.45,16.99,9.4,16.99,9.36z
			 M25.19,27.93c0.04,0.04,0.04,0.04,0.08,0.08c0.04-0.04,0.04-0.08,0.08-0.12c0,0-0.04-0.04-0.08-0.09
			C25.23,27.85,25.19,27.89,25.19,27.93z M22.69,2.74c0.04,0.04,0.04,0.04,0.08,0.08c0.04-0.04,0.04-0.08,0.08-0.13
			c0,0-0.04-0.04-0.08-0.08C22.73,2.66,22.69,2.7,22.69,2.74z M24.9,28.14c-0.04-0.04-0.04-0.08-0.08-0.12
			c-0.04,0.04-0.08,0.04-0.08,0.08c0,0.04,0.04,0.08,0.08,0.13C24.86,28.18,24.9,28.18,24.9,28.14z M10.7,28.39
			c0.04-0.04,0.04-0.04,0.08-0.08c-0.04-0.04-0.08-0.04-0.12-0.08c0,0-0.04,0.04-0.08,0.08C10.62,28.35,10.66,28.39,10.7,28.39z
			 M24.27,28.31c-0.04-0.04-0.04-0.04-0.08-0.08c-0.04,0.04-0.04,0.08-0.08,0.12c0,0,0.04,0.04,0.08,0.08
			C24.23,28.39,24.27,28.35,24.27,28.31z M5.37,28.56c-0.04-0.04-0.04-0.09-0.08-0.09c-0.04,0-0.08,0.04-0.13,0.09
			c0.04,0.04,0.04,0.08,0.08,0.08C5.29,28.6,5.33,28.56,5.37,28.56z M15.82,7.74c0.04,0.04,0.04,0.04,0.08,0.08
			c0.04-0.04,0.04-0.08,0.08-0.12c0,0-0.04-0.04-0.08-0.08C15.86,7.65,15.82,7.7,15.82,7.74z M1.75,28.89
			c-0.04,0.04-0.08,0.04-0.12,0.08c0.04,0.04,0.04,0.08,0.08,0.08c0.04,0,0.08-0.04,0.12-0.08C1.79,28.93,1.79,28.89,1.75,28.89z
			 M11.16,2.53c-0.04-0.04-0.04-0.08-0.08-0.12c-0.04,0.04-0.08,0.04-0.08,0.08s0.04,0.08,0.08,0.12
			C11.12,2.58,11.16,2.58,11.16,2.53z M17.15,2.2c-0.04,0.04-0.08,0.04-0.08,0.08c0,0.04,0.04,0.08,0.08,0.13
			c0.04-0.04,0.08-0.04,0.08-0.08C17.2,2.28,17.15,2.24,17.15,2.2z M14.91,2.08c-0.04-0.04-0.04-0.04-0.08-0.08
			c-0.04,0.04-0.04,0.08-0.08,0.12c0,0,0.04,0.04,0.08,0.08C14.86,2.16,14.91,2.12,14.91,2.08z M3.46,29.18
			c-0.04-0.04-0.04-0.08-0.08-0.12c-0.04,0.04-0.08,0.04-0.08,0.08c0,0.04,0.04,0.08,0.08,0.12C3.41,29.22,3.46,29.22,3.46,29.18z
			 M25.98,29.18c-0.04-0.04-0.04-0.08-0.08-0.08c-0.04,0-0.08,0.04-0.12,0.08c0.04,0.04,0.04,0.08,0.08,0.08
			C25.9,29.22,25.94,29.18,25.98,29.18z M20.65,1.53c0.04-0.04,0.08-0.04,0.12-0.08c-0.04-0.04-0.04-0.08-0.08-0.08
			c-0.04,0-0.08,0.04-0.12,0.08C20.61,1.49,20.61,1.53,20.65,1.53z M7.83,29.76c-0.04-0.04-0.04-0.04-0.08-0.08
			c-0.04,0.04-0.04,0.08-0.08,0.13c0,0,0.04,0.04,0.08,0.08C7.79,29.85,7.83,29.81,7.83,29.76z M8.74,29.76
			c0.04,0.04,0.04,0.08,0.08,0.12c0.04-0.04,0.08-0.04,0.08-0.08c0-0.04-0.04-0.08-0.08-0.13C8.79,29.72,8.74,29.72,8.74,29.76z
			 M12.74,8.82c0.04-0.04,0.08-0.04,0.12-0.08c-0.04-0.04-0.04-0.08-0.08-0.08S12.7,8.7,12.66,8.74C12.7,8.78,12.7,8.82,12.74,8.82z
			 M21.69,29.72c-0.04,0.04-0.04,0.04-0.08,0.08c0.04,0.04,0.08,0.04,0.12,0.08c0,0,0.04-0.04,0.08-0.08
			C21.78,29.76,21.73,29.72,21.69,29.72z M6.87,30.02c0.04,0.04,0.04,0.04,0.08,0.08C7,30.05,7,30.02,7.04,29.97
			c0,0-0.04-0.04-0.08-0.08C6.91,29.93,6.87,29.97,6.87,30.02z M20.32,1.49c-0.04-0.04-0.04-0.08-0.08-0.12
			c-0.04,0.04-0.08,0.04-0.08,0.08c0,0.04,0.04,0.08,0.08,0.13C20.28,1.53,20.32,1.53,20.32,1.49z M20.9,30.05
			c0.04-0.04,0.04-0.04,0.08-0.08c-0.04-0.04-0.08-0.04-0.12-0.08c0,0-0.04,0.04-0.08,0.08C20.82,30.02,20.86,30.05,20.9,30.05z
			 M23.61,29.93c-0.04,0.04-0.08,0.04-0.12,0.08c0.04,0.04,0.04,0.08,0.08,0.08c0.04,0,0.08-0.04,0.12-0.08
			C23.65,29.97,23.65,29.93,23.61,29.93z"/>
		<path fill="#FFFFFF" d="M26.81,0.95c-0.08,0.08-0.17,0.13-0.25,0.21c-0.04-0.08-0.12-0.12-0.17-0.21
			C26.52,0.95,26.69,0.95,26.81,0.95z"/>
		<path fill="#FFFFFF" d="M3.71,1.41C3.83,1.33,4,1.37,4.08,1.29C4.21,1.2,4.29,1.08,4.33,1.33c0.04,0.29,0,0.62,0,0.92
			c0,0.04-0.17,0.08-0.17,0.08C4.04,2.2,3.83,2.24,3.96,2.37c0.46,0.67-0.21,1.25-0.04,1.92C3.96,4.45,3.66,4.7,3.54,4.91
			c-0.08,0-0.21,0-0.29,0c0-0.08,0-0.12,0-0.21c0.04-0.29,0.08-0.58,0.08-0.87c0-0.04-0.08-0.08-0.13-0.12
			C3.16,3.74,3.12,3.82,3.12,3.87C3.16,4.41,2.71,4.74,2.5,5.16C2.17,5.11,2.33,4.74,2.12,4.57c0.42-0.08-0.21-0.29,0.08-0.54
			c0.17-0.17,0.08-0.62,0.17-1.08c0-0.08,0-0.04-0.04,0c0.04,0.04,0.04,0.04,0.08,0.08C2.46,2.99,2.5,2.95,2.5,2.91
			c0,0-0.04-0.04-0.12,0.04C2.17,3.03,2.04,3.03,1.92,3.03c0-0.12,0-0.29,0.04-0.5c0-0.08,0-0.04-0.04,0C1.96,2.58,1.96,2.58,2,2.62
			c0.04-0.04,0.08-0.08,0.08-0.12c0,0-0.04-0.04-0.12,0.04C1.75,2.62,1.62,2.62,1.5,2.62c0.17-0.25,0.29-0.5,0.46-0.75
			C2.37,1.24,3,1.04,3.79,1.29C3.71,1.29,3.71,1.33,3.71,1.41c0,0,0,0,0-0.04c-0.04,0-0.12,0.04-0.17,0.08c0,0,0.04,0.08,0.04,0.13
			C3.62,1.53,3.66,1.49,3.71,1.41z M3.33,3.16C3.37,3.2,3.37,3.2,3.41,3.24C3.46,3.2,3.46,3.16,3.5,3.12c0,0-0.04-0.04-0.08-0.08
			C3.37,3.07,3.33,3.12,3.33,3.16z"/>
		<path fill="#FFFFFF" d="M21.44,27.39c-1.25-0.04-2.5,0.38-3.75,0.21c-0.17,0-0.33,0-0.5,0c-0.04,0-0.08-0.08-0.13-0.12
			c0.04-0.04,0.13-0.08,0.17-0.08c0.54,0,1.04-0.54,1.62,0c0.08,0.08,0.33,0,0.54-0.12c0.71-0.5,1.58-0.25,2.37-0.25
			c0.33,0.42,0.62,0.12,0.92-0.04c0.25-0.12,0.46-0.12,0.67,0c0.04,0.04,0.12,0.08,0.17,0.08c-0.04,0.04-0.08,0.08-0.13,0.12
			c-0.25,0.08-0.5,0.17-0.75,0.21C22.19,27.43,21.82,27.39,21.44,27.39z"/>
		<path fill="#FFFFFF" d="M1.83,3.03c0,0.17,0.08,0.38,0,0.5C1.58,3.82,1.58,4.07,1.79,4.41c0.08,0.13,0.29,0.58-0.17,0.71
			c0-0.08,0-0.12,0-0.21c0-0.04-0.04-0.12-0.08-0.17C1.5,4.78,1.42,4.87,1.42,4.91c-0.04,0.04,0,0.13,0,0.21
			C1.37,5.07,1.29,5.07,1.25,5.03C1.08,4.82,1,4.91,1,5.11c0,0.13,0,0.25,0,0.37c-0.08,0-0.29,0.04-0.29,0
			C0.62,5.37,0.54,5.11,0.58,5.03C1.17,4.49,1.25,3.62,1.83,3.03z"/>
		<path fill="#FFFFFF" d="M0.79,7.82c0-0.08,0.04-0.21,0-0.29C0.46,6.91,0.67,6.36,1,5.86c0.04-0.08,0-0.21,0-0.29
			c0.12-0.12,0.29-0.29,0.42-0.42c0.08,0,0.12,0,0.21,0C1.33,5.99,1.17,6.86,1,7.7C0.96,7.74,0.88,7.78,0.79,7.82z"/>
		<path fill="#FFFFFF" d="M1.42,9.9C1.21,10.19,1,10.49,0.79,10.82c-0.04,0.04-0.08,0.08-0.12,0.12c-0.04-0.04-0.08-0.04-0.08-0.08
			c0-0.42,0-0.79,0-1.21c0-0.12,0.25-0.71,0.42-1C1,8.9,1,9.11,1,9.36c0,0,0.17,0.04,0.21,0C1.25,9.28,1.25,9.2,1.29,9.07
			c0.04,0.08,0.12,0.21,0.12,0.29C1.42,9.57,1.42,9.74,1.42,9.9z"/>
		<path fill="#FFFFFF" d="M2.21,8.24C2.29,7.7,2.37,7.11,2.46,6.57c0-0.04,0.04-0.13,0.08-0.17c0.04,0.08,0.12,0.17,0.12,0.21
			C2.75,7.16,2.46,7.7,2.87,8.2C2.75,8.45,2.62,8.7,2.46,8.95C2.42,8.99,2.37,8.99,2.33,9.03C2.29,8.99,2.25,8.9,2.25,8.86
			c0-0.21,0-0.42,0-0.62H2.21z"/>
		<path fill="#FFFFFF" d="M3.29,22.6c0,0.25,0.04,0.5,0,0.71c-0.04,0.25,0.17,0.58-0.12,0.67c-0.12,0.04,0-0.46-0.25-0.71
			c-0.21-0.21,0.04-1.75,0.17-2.04c0-0.04,0.04-0.08,0.08-0.08c0.04,0,0.12,0.04,0.12,0.08C3.29,21.73,3.29,22.14,3.29,22.6z"/>
		<path fill="#FFFFFF" d="M3.29,10.32C3.12,9.74,3.54,9.2,3.5,8.61c0-0.04,0.25-0.08,0.42-0.17c0,0.5,0.08,0.96-0.21,1.42
			C3.58,10.03,3.41,10.15,3.29,10.32z"/>
		<path fill="#FFFFFF" d="M9.33,13.15c-0.04-0.29,0-0.58,0.42-0.62c0-0.25,0.08-0.42,0.33-0.29c0.08,0.04,0.08,0.38,0,0.54
			c-0.08,0.25-0.29,0.46-0.42,0.67c-0.04,0.08-0.12,0.12-0.21,0.21c-0.04-0.08-0.08-0.17-0.08-0.29
			C9.33,13.32,9.33,13.23,9.33,13.15z"/>
		<path fill="#FFFFFF" d="M7.87,9.86c-0.21,0.17-0.04,0.58-0.46,0.67c-0.04,0-0.17,0.04-0.17,0.08c0,0.25-0.13,0.46-0.38,0.5
			c-0.17,0-0.04-0.5,0.21-0.75c0.21-0.21,0.37-0.38,0.58-0.58c0.04-0.04,0.08,0,0.12,0C7.87,9.78,7.87,9.82,7.87,9.86z"/>
		<path fill="#FFFFFF" d="M1.83,10.32c-0.29,0.21-0.25,0.62-0.42,0.92c-0.04,0.04-0.08,0.08-0.12,0.12
			c-0.04-0.04-0.08-0.12-0.08-0.17c0.04-0.21,0.08-0.46,0.12-0.67c0.04-0.21,0.04-0.37,0.08-0.58C1.5,9.9,1.58,9.86,1.62,9.78
			c0.04-0.08,0.08-0.17,0.08-0.25c0.04,0.08,0.08,0.17,0.12,0.25C1.83,9.94,1.83,10.11,1.83,10.32z"/>
		<path fill="#FFFFFF" d="M15.7,27.8c-0.13,0-0.29,0.04-0.42,0c-0.17-0.04-0.42,0.17-0.46-0.12c0-0.04,0.38-0.12,0.54-0.17
			c0.08,0,0.17,0.04,0.21,0c0.38-0.21,0.67,0.21,1,0.17c0,0,0,0.04,0,0.09c-0.25,0.04-0.54,0.04-0.79,0.08
			C15.74,27.8,15.7,27.8,15.7,27.8z"/>
		<path fill="#FFFFFF" d="M7.04,5.11C7,5.07,6.87,5.03,6.83,4.95C6.75,4.82,6.7,4.7,6.66,4.53c0.17,0,0.37-0.13,0.46-0.04
			C7.33,4.66,7.49,4.78,7.7,4.53c0.04-0.04,0.21,0,0.33,0.04C7.95,4.66,7.91,4.74,7.83,4.78C7.62,4.91,7.37,4.99,7.04,5.11z"/>
		<path fill="#FFFFFF" d="M7.83,11.86c0.08-0.25,0.17-0.54,0.25-0.83c0.08-0.25,0.21-0.46,0.29-0.71c0.29,0.29,0,0.54-0.08,0.79
			c-0.08,0.25-0.12,0.5-0.21,0.75c-0.04,0.08-0.08,0.21-0.12,0.29C7.91,12.07,7.87,11.99,7.83,11.86z"/>
		<path fill="#FFFFFF" d="M9.12,15.52c0,0.37,0.04,0.54,0,0.71c-0.04,0.12-0.17,0.21-0.25,0.29c-0.04-0.08-0.12-0.21-0.12-0.29
			c-0.04-0.17-0.04-0.33,0-0.5c0.04-0.21,0.17-0.42,0.29-0.58C9.04,15.32,9.12,15.52,9.12,15.52z"/>
		<path fill="#FFFFFF" d="M6.66,13.11c-0.04,0.17-0.08,0.33-0.08,0.54c-0.12-0.17-0.29-0.33-0.33-0.54
			C6.2,12.9,6.29,12.65,6.33,12.4h0.08C6.83,12.53,6.54,12.86,6.66,13.11z"/>
		<path fill="#FFFFFF" d="M10.16,9.49c0.08-0.33,0.29-0.46,0.62-0.42c-0.08,0.33,0.08,0.5,0.42,0.42c0,0.12,0,0.29,0,0.42
			C10.83,9.82,10.58,9.45,10.16,9.49z"/>
		<path fill="#FFFFFF" d="M9.12,14.03c0,0.04-0.04,0.25-0.13,0.46c-0.04,0.08-0.12,0.12-0.21,0.17C8.74,14.57,8.7,14.4,8.7,14.36
			c0.29-0.25,0.17-0.58,0.21-0.92c0-0.08,0.08-0.17,0.12-0.25c0.04,0.08,0.08,0.17,0.08,0.29C9.12,13.61,9.12,13.73,9.12,14.03z"/>
		<path fill="#FFFFFF" d="M2.96,5.57C2.79,5.66,2.62,5.74,2.5,5.86C2.42,5.95,2.42,6.07,2.33,6.16C2.29,6.03,2.25,5.91,2.25,5.78
			c0.04-0.17,0.17-0.29,0.21-0.42c0-0.42,0.17-0.12,0.25-0.04C2.79,5.32,2.83,5.41,2.96,5.57z"/>
		<path fill="#FFFFFF" d="M4.75,9.49C4.83,9.61,4.87,9.78,4.96,9.9c-0.17,0.08-0.33,0.17-0.54,0.21c-0.08,0-0.21-0.08-0.29-0.12
			C4.21,9.9,4.25,9.78,4.33,9.74C4.46,9.61,4.62,9.57,4.75,9.49z"/>
		<path fill="#FFFFFF" d="M11.2,20.73c0-0.29,0-0.58,0-0.92c0-0.04,0.12-0.12,0.21-0.12c0.17,0,0.21,0.04,0.08,0.21
			c-0.17,0.17-0.21,0.34,0.12,0.42c-0.08,0.13-0.12,0.29-0.21,0.42C11.33,20.73,11.28,20.73,11.2,20.73z"/>
		<path fill="#FFFFFF" d="M11.66,10.9c0.08,0.08,0.12,0.13,0.17,0.13c-0.08,0.08-0.17,0.21-0.29,0.29
			c-0.17,0.17-0.37,0.29-0.54,0.42c0-0.08,0-0.12,0-0.21C11.12,11.28,11.37,11.03,11.66,10.9z"/>
		<path fill="#FFFFFF" d="M7.25,6.78C7.2,6.82,7.2,6.91,7.16,6.95C6.91,7.07,6.79,6.91,6.7,6.74C6.58,6.53,6.45,6.28,6.83,6.16
			C6.95,6.36,7.12,6.57,7.25,6.78z"/>
		<path fill="#FFFFFF" d="M9.54,7.82c0.04,0.33-0.58,0.12-0.42,0.54c-0.08,0-0.21,0-0.21-0.04C8.87,7.99,8.95,7.74,9.33,7.61
			C9.41,7.7,9.45,7.74,9.54,7.82z"/>
		<path fill="#FFFFFF" d="M12.45,20.73c-0.17-0.04-0.29-0.08-0.46-0.12c-0.12-0.08-0.25-0.16-0.38-0.29c0-0.25,0.21-0.25,0.33-0.17
			C12.16,20.31,12.28,20.52,12.45,20.73z"/>
		<path fill="#FFFFFF" d="M4.54,23.69c0,0.33,0,0.5,0,0.67c0,0.04-0.08,0.04-0.13,0.08c0,0-0.08-0.04-0.08-0.08
			c0-0.17-0.04-0.34,0-0.5c0.04-0.21-0.17-0.46,0.12-0.58C4.5,23.48,4.54,23.64,4.54,23.69z"/>
		<path fill="#FFFFFF" d="M6.5,10.9c0.04,0.13,0.12,0.17,0.12,0.25c0.04,0.25-0.33,0.62-0.54,0.58C6.04,11.74,6,11.61,6,11.57
			c0-0.04,0.04-0.17,0.04-0.17C6.37,11.4,6.41,11.19,6.5,10.9z"/>
		<path fill="#FFFFFF" d="M5.37,11.86c0,0.04,0,0.17-0.04,0.29c-0.04,0.08-0.17,0.17-0.29,0.25C5,12.28,5,12.15,4.96,12.03
			c0.29,0,0.17-0.21,0.21-0.38c0-0.08,0.08-0.17,0.13-0.25c0.04,0.08,0.08,0.17,0.08,0.29C5.37,11.69,5.37,11.69,5.37,11.86z"/>
		<path fill="#FFFFFF" d="M3.29,6.36c0,0.21,0.04,0.33,0,0.42C3.21,6.91,3.04,7.03,2.91,7.16C2.96,7.03,3,6.86,3.04,6.74
			c0.04-0.08,0-0.21,0.04-0.29C3.12,6.36,3.16,6.28,3.16,6.2C3.25,6.24,3.29,6.36,3.29,6.36z"/>
		<path fill="#FFFFFF" d="M6.41,15.82c0,0.12,0,0.29,0,0.42c0,0.04-0.04,0.08-0.08,0.08c-0.04,0-0.12-0.04-0.12-0.08
			c0-0.12,0-0.29,0-0.42c0-0.25,0.04-0.46,0.08-0.71C6.54,15.32,6.33,15.61,6.41,15.82z"/>
		<path fill="#FFFFFF" d="M21.19,22.19c-0.13,0.08-0.25,0.21-0.42,0.29c-0.04,0.04-0.17,0.04-0.21,0c-0.04-0.04-0.04-0.13,0-0.21
			c0.04-0.13,0.12-0.21,0.21-0.33C20.9,22.06,21.07,22.1,21.19,22.19z"/>
		<path fill="#FFFFFF" d="M3.91,8.45c0-0.08,0.04-0.25,0-0.29C3.58,7.82,3.83,7.7,4.12,7.61c0,0.21,0.04,0.37,0,0.58
			C4.08,8.28,4,8.36,3.91,8.45z"/>
		<path fill="#FFFFFF" d="M9.54,14.9c0,0.25,0,0.38,0,0.54c0,0.04-0.08,0.08-0.13,0.08c0,0-0.08-0.04-0.08-0.08
			c0-0.13-0.04-0.29,0-0.42c0.04-0.17-0.17-0.42,0.12-0.5C9.49,14.69,9.54,14.82,9.54,14.9z"/>
		<path fill="#FFFFFF" d="M2.04,11.15c-0.08-0.08-0.17-0.17-0.21-0.25c-0.04-0.21,0-0.38,0-0.58c0.25,0,0.54-0.04,0.21,0.33
			C1.96,10.78,2.04,10.99,2.04,11.15z"/>
		<path fill="#FFFFFF" d="M6.62,14.11c0,0.12,0,0.21-0.04,0.29c0,0.04-0.12,0.08-0.17,0.08c-0.08-0.04-0.21-0.12-0.21-0.12
			c0.08-0.17,0.21-0.33,0.29-0.46C6.58,13.94,6.62,14.03,6.62,14.11z"/>
		<path fill="#FFFFFF" d="M6.33,4.62c0.04,0.21,0.08,0.38,0.08,0.54c0,0.04-0.12,0.08-0.21,0.17C6.12,5.16,6.04,4.99,6,4.82
			C6,4.78,6.16,4.74,6.33,4.62z"/>
		<path fill="#FFFFFF" d="M3.71,5.07c0,0.12,0,0.25-0.04,0.37C3.62,5.57,3.5,5.61,3.37,5.7c0-0.12-0.04-0.25,0-0.33
			c0-0.08,0.08-0.17,0.12-0.25c0.04-0.08,0.08-0.12,0.08-0.21C3.62,4.95,3.66,5.03,3.71,5.07z"/>
		<path fill="#FFFFFF" d="M3.04,24.56c0.12,0.12,0.25,0.25,0.25,0.25c-0.04,0.08-0.12,0.21-0.21,0.25c0,0-0.17-0.08-0.17-0.17
			C2.87,24.85,2.96,24.73,3.04,24.56z"/>
		<path fill="#FFFFFF" d="M7.41,8.32c-0.08,0.17-0.17,0.33-0.25,0.5H7.08C7.04,8.65,7,8.49,7.04,8.36c0-0.04,0.17-0.08,0.25-0.08
			C7.33,8.24,7.41,8.32,7.41,8.32z"/>
		<path fill="#FFFFFF" d="M9.33,17.06c0,0.08,0,0.12,0,0.21c0,0.04-0.08,0.04-0.12,0.08c0-0.25,0-0.5,0-0.75
			c0.04,0.04,0.12,0.04,0.12,0.08C9.33,16.82,9.33,16.94,9.33,17.06z"/>
		<path fill="#FFFFFF" d="M7.04,5.53c0.08-0.12,0.12-0.29,0.21-0.42c0.17,0.04,0.42-0.08,0.42,0.21C7.45,5.41,7.25,5.45,7.04,5.53z"
			/>
		<path fill="#FFFFFF" d="M29.73,1.78c0.21,0.12,0.42,0.29,0.62,0.42c-0.21,0-0.42,0-0.62,0C29.73,2.08,29.73,1.91,29.73,1.78z"/>
		<path fill="#FFFFFF" d="M4.41,8.28C4.37,8.15,4.29,8.07,4.33,8.03C4.41,7.9,4.54,7.78,4.66,7.65C4.71,7.7,4.75,7.78,4.71,7.82
			C4.66,7.99,4.54,8.11,4.41,8.28z"/>
		<path fill="#FFFFFF" d="M7.87,6.91C7.99,7.03,8.08,7.11,8.08,7.2c0.04,0.25-0.12,0.25-0.29,0.21c-0.04,0-0.12-0.13-0.08-0.17
			C7.7,7.11,7.79,7.03,7.87,6.91z"/>
		<path fill="#FFFFFF" d="M8.29,8.45c0,0.21,0,0.42,0,0.62c-0.12,0-0.29,0-0.42,0C7.99,8.86,8.16,8.65,8.29,8.45z"/>
		<path fill="#FFFFFF" d="M9.99,9.82c-0.12,0.17-0.25,0.33-0.33,0.46c-0.04-0.04-0.12-0.08-0.12-0.12c0.08-0.17,0.21-0.33,0.29-0.5
			C9.87,9.74,9.91,9.78,9.99,9.82z"/>
		<path fill="#FFFFFF" d="M12.45,9.9c-0.17,0.12-0.33,0.25-0.5,0.37c-0.04-0.12-0.08-0.25-0.12-0.37C12.03,9.9,12.24,9.9,12.45,9.9z
			"/>
		<path fill="#FFFFFF" d="M8.12,14.77c-0.04,0-0.12,0.04-0.21,0.08c-0.04-0.12-0.08-0.25-0.08-0.37c0-0.04,0.08-0.12,0.12-0.17
			C8.04,14.44,8.08,14.57,8.12,14.77z"/>
		<path fill="#FFFFFF" d="M11.41,20.73c0.33-0.08,0.5,0.08,0.42,0.42c-0.08,0-0.12,0-0.21,0C11.53,21.02,11.49,20.86,11.41,20.73z"
			/>
		<path fill="#FFFFFF" d="M8.49,14.28c0-0.17,0-0.33,0-0.5c0-0.04,0.08-0.04,0.12-0.08c0,0,0.08,0.04,0.08,0.08c0,0.17,0,0.33,0,0.5
			C8.62,14.28,8.58,14.28,8.49,14.28z"/>
		<path fill="#FFFFFF" d="M10.37,7.82c0-0.12,0-0.29,0-0.42c0.13,0.08,0.29,0.12,0.42,0.21C10.78,7.95,10.53,7.78,10.37,7.82z"/>
		<path fill="#FFFFFF" d="M4.83,2.24C4.71,2.2,4.62,2.16,4.54,2.12c0.12-0.04,0.29-0.08,0.42-0.12c0.04,0,0.12,0.04,0.21,0.08
			C5.04,2.16,4.96,2.2,4.83,2.24z"/>
		<path fill="#FFFFFF" d="M5.2,7.99C5.16,8.07,5.08,8.15,5.04,8.24C5,8.15,4.96,8.03,5,7.95c0-0.08,0.08-0.17,0.12-0.29
			C5.12,7.74,5.16,7.82,5.2,7.99z"/>
		<path fill="#FFFFFF" d="M2.29,11.49c-0.04,0.12-0.08,0.21-0.12,0.29c-0.04-0.13-0.08-0.29-0.12-0.42c0-0.04,0.04-0.12,0.08-0.21
			C2.21,11.28,2.25,11.36,2.29,11.49z"/>
		<path fill="#FFFFFF" d="M11.03,11.86c-0.12,0.08-0.25,0.21-0.38,0.29c-0.04-0.04-0.08-0.13-0.08-0.17c0-0.25,0.17-0.25,0.33-0.21
			C10.95,11.78,10.95,11.82,11.03,11.86z"/>
		<path fill="#FFFFFF" d="M1.25,8.4C1.21,8.49,1.17,8.57,1.12,8.65C1.08,8.53,1.04,8.4,1.04,8.24c0-0.08,0.08-0.12,0.12-0.21
			C1.17,8.15,1.21,8.28,1.25,8.4z"/>
		<path fill="#FFFFFF" d="M7.91,9.15C7.79,9.24,7.66,9.36,7.54,9.45C7.49,9.4,7.45,9.32,7.45,9.28c0-0.25,0.17-0.25,0.33-0.21
			C7.83,9.07,7.83,9.11,7.91,9.15z"/>
		<path fill="#FFFFFF" d="M5,9.24C4.96,9.32,4.91,9.4,4.87,9.49C4.83,9.36,4.79,9.24,4.79,9.07c0-0.08,0.08-0.12,0.13-0.21
			C4.91,8.99,4.96,9.11,5,9.24z"/>
		<path fill="#FFFFFF" d="M8.29,6.66C8.24,6.7,8.16,6.74,8.04,6.78c-0.04,0-0.08-0.08-0.13-0.12c0.13-0.08,0.25-0.17,0.37-0.25
			C8.29,6.45,8.29,6.49,8.29,6.66z"/>
		<path fill="#FFFFFF" d="M5.41,8.95c-0.04,0-0.12,0.04-0.21,0.08C5.16,8.9,5.12,8.78,5.12,8.65c0-0.04,0.08-0.12,0.12-0.17
			C5.33,8.61,5.37,8.74,5.41,8.95z"/>
		<path fill="#FFFFFF" d="M12.49,10.61c-0.12,0.08-0.25,0.21-0.37,0.29c-0.04-0.04-0.08-0.12-0.08-0.17c0-0.25,0.17-0.25,0.33-0.21
			C12.41,10.53,12.41,10.57,12.49,10.61z"/>
		<path fill="#FFFFFF" d="M20.11,18.44c0,0.12,0.04,0.21,0.04,0.29c0,0.04-0.08,0.04-0.13,0.08c-0.04-0.08-0.04-0.17-0.08-0.29
			C19.94,18.52,20.03,18.48,20.11,18.44z"/>
		<path fill="#FFFFFF" d="M10.99,8.03c0,0.29-0.25,0.17-0.42,0.21C10.58,7.95,10.83,8.07,10.99,8.03z"/>
		<path fill="#FFFFFF" d="M28.9,1.58c0.08-0.08,0.17-0.13,0.25-0.21c0.04,0.08,0.12,0.12,0.17,0.21C29.19,1.58,29.02,1.58,28.9,1.58
			z"/>
		<path fill="#FFFFFF" d="M8.79,9.2C8.62,9.24,8.49,9.28,8.45,9.28C8.37,9.24,8.37,9.15,8.29,9.07c0.08,0,0.12,0,0.21,0
			C8.54,9.11,8.62,9.11,8.79,9.2z"/>
		<path fill="#FFFFFF" d="M0.83,8.03C0.75,8.11,0.71,8.2,0.67,8.24C0.62,8.15,0.58,8.07,0.58,7.99c0-0.04,0.08-0.08,0.12-0.13
			C0.75,7.86,0.79,7.95,0.83,8.03z"/>
		<path fill="#FFFFFF" d="M5.33,9.28c0,0.12,0.04,0.21,0.04,0.29c0,0.04-0.08,0.04-0.12,0.08C5.2,9.57,5.2,9.49,5.16,9.36
			C5.16,9.36,5.25,9.32,5.33,9.28z"/>
		<path fill="#FFFFFF" d="M9.95,7.61c0,0.29-0.25,0.17-0.42,0.21c0-0.08,0-0.12,0-0.21C9.66,7.61,9.83,7.61,9.95,7.61z"/>
		<path fill="#FFFFFF" d="M11.83,9.9c-0.29,0-0.17-0.25-0.21-0.42C11.95,9.49,11.78,9.74,11.83,9.9z"/>
		<path fill="#FFFFFF" d="M16.82,27.22c-0.04,0.09-0.08,0.17-0.08,0.17c-0.08,0-0.17-0.04-0.29-0.08c0.04-0.04,0.04-0.12,0.08-0.12
			C16.61,27.18,16.7,27.22,16.82,27.22z"/>
		<path fill="#FFFFFF" d="M24.86,26.72c0.17,0.08,0.21,0.08,0.29,0.12c-0.04,0.04-0.12,0.12-0.17,0.12c-0.04,0-0.12-0.04-0.17-0.08
			C24.82,26.85,24.82,26.77,24.86,26.72z"/>
		<path fill="#FFFFFF" d="M1.21,3.2C1.17,3.28,1.12,3.37,1.08,3.45C1.04,3.41,1,3.32,1,3.28C1,3.2,1.04,3.12,1.08,3.03
			C1.12,3.07,1.17,3.16,1.21,3.2z"/>
		<path fill="#FFFFFF" d="M11.41,10.32c-0.08,0-0.12,0-0.21,0c0-0.12,0-0.29,0-0.42C11.53,9.9,11.37,10.15,11.41,10.32z"/>
		<path fill="#FFFFFF" d="M3.08,7.65C3.04,7.74,3,7.78,2.96,7.82C2.91,7.74,2.87,7.65,2.87,7.57c0-0.04,0.04-0.13,0.08-0.17
			C3.04,7.49,3.08,7.57,3.08,7.65z"/>
		<path fill="#FFFFFF" d="M23.19,19.19c0.04,0.17,0.08,0.29,0.08,0.33c-0.04,0.08-0.12,0.08-0.21,0.17c0-0.08,0-0.12,0-0.21
			C23.11,19.44,23.11,19.36,23.19,19.19z"/>
		<path fill="#FFFFFF" d="M4.25,7.11c0.04,0.17,0.08,0.29,0.08,0.33C4.29,7.53,4.21,7.53,4.12,7.61c0-0.08,0-0.13,0-0.21
			C4.16,7.36,4.16,7.28,4.25,7.11z"/>
		<path fill="#FFFFFF" d="M10.16,18.86c-0.04,0.08-0.08,0.12-0.08,0.17c-0.04-0.08-0.08-0.21-0.13-0.29c0-0.04,0.04-0.08,0.08-0.08
			C10.08,18.73,10.16,18.81,10.16,18.86z"/>
		<path fill="#FFFFFF" d="M9.79,18.73c0-0.21-0.04-0.29-0.04-0.42c0,0,0.08-0.04,0.12-0.04c0,0.08,0.04,0.17,0.04,0.25
			C9.95,18.61,9.91,18.61,9.79,18.73z"/>
		<path fill="#FFFFFF" d="M9.54,17.86c-0.04,0.08-0.08,0.12-0.13,0.17c-0.04-0.09-0.08-0.17-0.08-0.25c0-0.04,0.04-0.13,0.08-0.17
			C9.49,17.69,9.54,17.77,9.54,17.86z"/>
		<path fill="#FFFFFF" d="M11.08,10.69c-0.21,0-0.29,0.04-0.42,0.04c0,0-0.04-0.08-0.04-0.12c0.08,0,0.17-0.04,0.25-0.04
			C10.95,10.53,10.95,10.57,11.08,10.69z"/>
		<path fill="#FFFFFF" d="M7,14.9c-0.08-0.04-0.17-0.08-0.17-0.08c0-0.08,0.04-0.17,0.08-0.29c0.04,0.04,0.12,0.04,0.12,0.08
			C7.04,14.69,7,14.77,7,14.9z"/>
		<path fill="#FFFFFF" d="M7.25,5.95c0,0.29-0.25,0.17-0.42,0.21C6.83,5.86,7.08,5.99,7.25,5.95z"/>
		<path fill="#FFFFFF" d="M8.49,6.36c-0.08,0-0.12,0-0.21,0c0-0.08,0-0.12,0-0.21c0.04-0.08,0.08-0.13,0.12-0.17
			c0.04,0.04,0.04,0.12,0.08,0.17C8.49,6.24,8.49,6.28,8.49,6.36z"/>
		<path fill="#FFFFFF" d="M7.2,13.86c-0.08-0.04-0.17-0.08-0.17-0.08c0-0.08,0.04-0.17,0.08-0.29c0.04,0.04,0.13,0.04,0.13,0.08
			C7.25,13.65,7.2,13.73,7.2,13.86z"/>
		<path fill="#FFFFFF" d="M2.46,13.23c0,0.08,0,0.12,0,0.21c-0.04,0.08-0.08,0.12-0.13,0.17c-0.04-0.04-0.04-0.12-0.08-0.17
			c0-0.08,0-0.12,0-0.21C2.33,13.23,2.37,13.23,2.46,13.23z"/>
		<path fill="#FFFFFF" d="M3.04,12.82c0,0.12,0.04,0.21,0.04,0.29c0,0.04-0.08,0.04-0.12,0.08c-0.04-0.08-0.04-0.17-0.08-0.29
			C2.87,12.9,2.96,12.86,3.04,12.82z"/>
		<path fill="#FFFFFF" d="M3.83,6.82c0.04,0.04,0.04,0.04,0.08,0.08C3.87,6.95,3.83,6.95,3.79,6.99c0,0-0.04-0.04-0.08-0.08
			C3.75,6.86,3.79,6.82,3.83,6.82z"/>
		<path fill="#FFFFFF" d="M9.49,11.69c-0.04,0.04-0.04,0.04-0.08,0.08c-0.04-0.04-0.04-0.08-0.08-0.13c0,0,0.04-0.04,0.08-0.08
			C9.45,11.61,9.49,11.65,9.49,11.69z"/>
		<path fill="#FFFFFF" d="M7.37,6.57c0.04,0.04,0.08,0.04,0.08,0.08C7.41,6.7,7.41,6.74,7.37,6.78C7.33,6.74,7.33,6.74,7.29,6.7
			C7.29,6.66,7.33,6.61,7.37,6.57z"/>
		<path fill="#FFFFFF" d="M4.54,6.66C4.5,6.7,4.46,6.74,4.41,6.74c0-0.04-0.04-0.13-0.04-0.13c0.04-0.04,0.08-0.04,0.17-0.08
			C4.54,6.61,4.54,6.66,4.54,6.66z"/>
		<path fill="#FFFFFF" d="M6.12,12.4c-0.04-0.04-0.08-0.08-0.08-0.12c0.04,0,0.12-0.04,0.12-0.04c0.04,0.04,0.04,0.08,0.08,0.17
			C6.16,12.4,6.16,12.4,6.12,12.4z"/>
		<path fill="#FFFFFF" d="M4.66,6.36c0.04,0.04,0.08,0.04,0.08,0.08C4.71,6.49,4.71,6.53,4.66,6.57C4.62,6.53,4.62,6.53,4.58,6.49
			C4.58,6.45,4.62,6.41,4.66,6.36z"/>
		<path fill="#FFFFFF" d="M3.29,12.48c-0.04,0.04-0.08,0.08-0.12,0.08c0-0.04-0.04-0.13-0.04-0.13c0.04-0.04,0.08-0.04,0.17-0.08
			C3.29,12.44,3.29,12.48,3.29,12.48z"/>
		<path fill="#FFFFFF" d="M3.66,6.49C3.62,6.53,3.62,6.53,3.58,6.57C3.54,6.53,3.54,6.49,3.5,6.45c0,0,0.04-0.04,0.08-0.08
			C3.62,6.41,3.66,6.45,3.66,6.49z"/>
		<path fill="#FFFFFF" d="M7.87,12.53c-0.04,0.04-0.08,0.04-0.12,0.08c0,0-0.04-0.04-0.08-0.08c0.04-0.04,0.08-0.04,0.12-0.08
			C7.83,12.44,7.83,12.48,7.87,12.53z"/>
		<path fill="#FFFFFF" d="M8.29,12.53c-0.04,0.04-0.08,0.04-0.12,0.08c0,0-0.04-0.04-0.08-0.08c0.04-0.04,0.08-0.04,0.13-0.08
			C8.24,12.44,8.24,12.48,8.29,12.53z"/>
		<path fill="#FFFFFF" d="M7,12.73c-0.04,0.04-0.04,0.04-0.08,0.08c-0.04-0.04-0.04-0.08-0.08-0.13c0,0,0.04-0.04,0.08-0.08
			C6.95,12.65,7,12.69,7,12.73z"/>
		<path fill="#FFFFFF" d="M8.87,12.73c-0.04,0.04-0.04,0.04-0.08,0.08c-0.04-0.04-0.04-0.08-0.08-0.13c0,0,0.04-0.04,0.08-0.08
			C8.83,12.65,8.87,12.69,8.87,12.73z"/>
		<path fill="#FFFFFF" d="M8.91,11.28c-0.04,0-0.08,0.04-0.12,0.04c0,0-0.04-0.04-0.08-0.08c0.04-0.04,0.08-0.04,0.12-0.08
			C8.87,11.19,8.87,11.24,8.91,11.28z"/>
		<path fill="#FFFFFF" d="M7.41,11.24c-0.04,0.04-0.04,0.08-0.08,0.12c-0.04-0.04-0.08-0.04-0.08-0.08c0-0.04,0.04-0.08,0.08-0.13
			C7.37,11.19,7.41,11.19,7.41,11.24z"/>
		<path fill="#FFFFFF" d="M20.19,13.15c0.04-0.04,0.04-0.08,0.08-0.13c0.04,0.04,0.08,0.04,0.08,0.08s-0.04,0.08-0.08,0.12
			C20.24,13.19,20.19,13.19,20.19,13.15z"/>
		<path fill="#FFFFFF" d="M5.08,6.95C5.04,6.91,5,6.91,4.96,6.86C5,6.82,5,6.78,5.04,6.78c0.04,0,0.08,0.04,0.12,0.08
			C5.12,6.91,5.12,6.95,5.08,6.95z"/>
		<path fill="#FFFFFF" d="M1.83,13.86c0.04-0.04,0.08-0.12,0.12-0.17C2,13.73,2,13.82,2.04,13.86C1.96,13.86,1.92,13.86,1.83,13.86z
			"/>
		<path fill="#FFFFFF" d="M9.7,11.03c-0.04,0.04-0.04,0.08-0.08,0.12c-0.04-0.04-0.08-0.04-0.08-0.08c0-0.04,0.04-0.08,0.08-0.13
			C9.66,10.99,9.7,10.99,9.7,11.03z"/>
		<path fill="#FFFFFF" d="M4.33,13.65c0.04,0.04,0.12,0.08,0.17,0.12c-0.04,0.04-0.12,0.04-0.17,0.08
			C4.33,13.77,4.33,13.73,4.33,13.65z"/>
		<path fill="#FFFFFF" d="M6.16,6.07C6.12,6.11,6.12,6.11,6.08,6.16C6.04,6.11,6.04,6.07,6,6.03c0,0,0.04-0.04,0.08-0.08
			C6.12,5.99,6.16,6.03,6.16,6.07z"/>
		<path fill="#FFFFFF" d="M4.75,6.07C4.71,6.11,4.66,6.11,4.62,6.16c0,0-0.04-0.04-0.08-0.08c0.04-0.04,0.08-0.04,0.12-0.08
			C4.71,5.99,4.71,6.03,4.75,6.07z"/>
		<path fill="#FFFFFF" d="M4.04,10.99c0.04,0.04,0.04,0.04,0.08,0.08C4.08,11.11,4.04,11.11,4,11.15c0,0-0.04-0.04-0.08-0.08
			C3.96,11.03,4,10.99,4.04,10.99z"/>
		<path fill="#FFFFFF" d="M2.58,14.07c-0.04-0.04-0.08-0.08-0.08-0.12c0.04,0,0.13-0.04,0.13-0.04c0.04,0.04,0.04,0.08,0.08,0.17
			C2.62,14.07,2.62,14.07,2.58,14.07z"/>
		<path fill="#FFFFFF" d="M3.41,5.95C3.46,5.99,3.5,5.99,3.5,6.03C3.46,6.07,3.46,6.11,3.41,6.16C3.37,6.11,3.37,6.11,3.33,6.07
			C3.33,6.03,3.37,5.99,3.41,5.95z"/>
		<path fill="#FFFFFF" d="M8.49,14.36c-0.04,0.04-0.08,0.08-0.12,0.08c0-0.04-0.04-0.12-0.04-0.12c0.04-0.04,0.08-0.04,0.17-0.08
			C8.49,14.32,8.49,14.36,8.49,14.36z"/>
		<path fill="#FFFFFF" d="M7.37,5.74c0.04,0.04,0.08,0.04,0.08,0.08C7.41,5.86,7.41,5.91,7.37,5.95C7.33,5.91,7.33,5.91,7.29,5.86
			C7.29,5.82,7.33,5.78,7.37,5.74z"/>
		<path fill="#FFFFFF" d="M9.99,10.82c0.04-0.04,0.04-0.04,0.08-0.08c0.04,0.04,0.04,0.08,0.08,0.13c0,0-0.04,0.04-0.08,0.08
			C10.03,10.9,9.99,10.86,9.99,10.82z"/>
		<path fill="#FFFFFF" d="M7.04,5.61C7,5.66,6.95,5.7,6.91,5.7c0-0.04-0.04-0.12-0.04-0.12c0.04-0.04,0.08-0.04,0.17-0.08
			C7.04,5.57,7.04,5.61,7.04,5.61z"/>
		<path fill="#FFFFFF" d="M8.7,5.41C8.66,5.45,8.62,5.49,8.58,5.49c0-0.04-0.04-0.12-0.04-0.12C8.58,5.32,8.62,5.32,8.7,5.28
			C8.7,5.37,8.7,5.41,8.7,5.41z"/>
		<path fill="#FFFFFF" d="M7.87,5.45C7.83,5.49,7.83,5.53,7.79,5.53C7.74,5.49,7.7,5.49,7.66,5.45C7.7,5.41,7.7,5.41,7.74,5.37
			C7.79,5.37,7.83,5.41,7.87,5.45z"/>
		<path fill="#FFFFFF" d="M6.2,5.41C6.16,5.45,6.12,5.49,6.08,5.49c0-0.04-0.04-0.12-0.04-0.12C6.08,5.32,6.12,5.32,6.2,5.28
			C6.2,5.37,6.2,5.41,6.2,5.41z"/>
		<path fill="#FFFFFF" d="M4.91,5.41C4.87,5.45,4.87,5.49,4.83,5.53C4.79,5.49,4.75,5.49,4.75,5.45c0-0.04,0.04-0.08,0.08-0.13
			C4.87,5.37,4.91,5.37,4.91,5.41z"/>
		<path fill="#FFFFFF" d="M0.29,16.98c-0.04-0.04-0.08-0.08-0.08-0.12c0.04,0,0.13-0.04,0.13-0.04c0.04,0.04,0.04,0.08,0.08,0.16
			C0.33,16.98,0.33,16.98,0.29,16.98z"/>
		<path fill="#FFFFFF" d="M9.04,10.53c0.04,0.04,0.04,0.08,0.08,0.13c0,0-0.04,0.04-0.08,0.08c-0.04-0.04-0.04-0.08-0.08-0.12
			C8.95,10.57,8.99,10.57,9.04,10.53z"/>
		<path fill="#FFFFFF" d="M6.41,17.06c-0.04,0.04-0.08,0.08-0.12,0.08c0-0.04-0.04-0.12-0.04-0.12c0.04-0.04,0.08-0.04,0.17-0.09
			C6.41,17.03,6.41,17.06,6.41,17.06z"/>
		<path fill="#FFFFFF" d="M8.7,5.11C8.74,5.16,8.83,5.2,8.87,5.24C8.83,5.28,8.74,5.28,8.7,5.32C8.7,5.24,8.7,5.2,8.7,5.11z"/>
		<path fill="#FFFFFF" d="M12.66,10.53c-0.08,0-0.12,0-0.21,0c0.08-0.08,0.12-0.12,0.21-0.21C12.66,10.4,12.66,10.44,12.66,10.53z"
			/>
		<path fill="#FFFFFF" d="M11.62,10.44c-0.04,0.04-0.04,0.08-0.08,0.08c-0.04-0.04-0.08-0.04-0.12-0.08
			c0.04-0.04,0.04-0.04,0.08-0.08C11.53,10.36,11.58,10.4,11.62,10.44z"/>
		<path fill="#FFFFFF" d="M10.99,10.53c0.08-0.08,0.12-0.12,0.21-0.21C11.12,10.4,11.08,10.44,10.99,10.53z"/>
		<path fill="#FFFFFF" d="M4.04,10.32c0.04,0.04,0.04,0.08,0.08,0.13c0,0-0.04,0.04-0.08,0.08C4,10.49,4,10.44,3.96,10.4
			C3.96,10.36,4,10.36,4.04,10.32z"/>
		<path fill="#FFFFFF" d="M3.08,19.27c0.04,0.04,0.12,0.08,0.17,0.12c-0.04,0.04-0.12,0.04-0.17,0.09
			C3.08,19.39,3.08,19.36,3.08,19.27z"/>
		<path fill="#FFFFFF" d="M11.12,19.44c-0.04-0.04-0.08-0.04-0.12-0.08c0.04-0.04,0.04-0.08,0.08-0.08c0.04,0,0.08,0.04,0.12,0.08
			C11.16,19.39,11.16,19.44,11.12,19.44z"/>
		<path fill="#FFFFFF" d="M8.87,7.32C8.83,7.36,8.83,7.36,8.79,7.41C8.74,7.36,8.74,7.32,8.7,7.28c0,0,0.04-0.04,0.08-0.08
			C8.83,7.24,8.87,7.28,8.87,7.32z"/>
		<path fill="#FFFFFF" d="M8.24,5.24C8.2,5.28,8.2,5.28,8.16,5.32C8.12,5.28,8.12,5.24,8.08,5.2c0,0,0.04-0.04,0.08-0.08
			C8.2,5.16,8.24,5.2,8.24,5.24z"/>
		<path fill="#FFFFFF" d="M10.62,19.77c0.04-0.04,0.04-0.04,0.08-0.08c0.04,0.04,0.04,0.08,0.08,0.12c0,0-0.04,0.04-0.08,0.08
			C10.66,19.86,10.62,19.81,10.62,19.77z"/>
		<path fill="#FFFFFF" d="M1.54,7.45c0.04,0.04,0.04,0.04,0.08,0.08C1.58,7.57,1.54,7.57,1.5,7.61c0,0-0.04-0.04-0.08-0.08
			C1.46,7.49,1.5,7.45,1.54,7.45z"/>
		<path fill="#FFFFFF" d="M3.16,20.35c0.04,0.04,0.08,0.04,0.12,0.09c-0.04,0.04-0.04,0.08-0.08,0.08c-0.04,0-0.08-0.04-0.12-0.08
			C3.12,20.39,3.12,20.35,3.16,20.35z"/>
		<path fill="#FFFFFF" d="M5.16,10.03c-0.04,0.04-0.08,0.08-0.08,0.04C5.04,10.03,5,10.03,4.96,9.99C5,9.94,5,9.94,5.04,9.9
			C5.08,9.94,5.12,9.99,5.16,10.03z"/>
		<path fill="#FFFFFF" d="M12.66,20.86c-0.04,0.04-0.08,0.08-0.08,0.04c-0.04-0.04-0.08-0.04-0.12-0.08
			c0.04-0.04,0.04-0.04,0.08-0.08C12.57,20.77,12.62,20.81,12.66,20.86z"/>
		<path fill="#FFFFFF" d="M13.03,21.06c-0.04,0.04-0.04,0.04-0.08,0.08c-0.04-0.04-0.04-0.08-0.08-0.12c0,0,0.04-0.04,0.08-0.08
			C12.99,20.98,13.03,21.02,13.03,21.06z"/>
		<path fill="#FFFFFF" d="M14.7,21.44c-0.04,0.04-0.04,0.08-0.08,0.12c-0.04-0.04-0.08-0.04-0.08-0.08c0-0.04,0.04-0.08,0.08-0.12
			C14.66,21.4,14.7,21.4,14.7,21.44z"/>
		<path fill="#FFFFFF" d="M14.28,21.69c0,0.04-0.04,0.04-0.04,0.08c-0.04-0.04-0.04-0.08-0.08-0.13c0,0,0.04-0.04,0.08-0.08
			C14.24,21.6,14.28,21.64,14.28,21.69z"/>
		<path fill="#FFFFFF" d="M0.92,3.87C0.96,3.91,0.96,3.95,1,3.99c0,0-0.04,0.04-0.08,0.08C0.88,4.03,0.88,3.99,0.83,3.95
			C0.83,3.91,0.88,3.91,0.92,3.87z"/>
		<path fill="#FFFFFF" d="M7.66,7.49C7.62,7.53,7.58,7.57,7.54,7.57c0-0.04-0.04-0.13-0.04-0.13c0.04-0.04,0.08-0.04,0.17-0.08
			C7.66,7.45,7.66,7.49,7.66,7.49z"/>
		<path fill="#FFFFFF" d="M9.33,7.61c0.08-0.08,0.12-0.13,0.21-0.21c0,0.08,0,0.12,0,0.21C9.45,7.61,9.41,7.61,9.33,7.61z"/>
		<path fill="#FFFFFF" d="M22.36,26.97c-0.04-0.04-0.08-0.08-0.08-0.12c0.04,0,0.12-0.04,0.12-0.04c0.04,0.04,0.04,0.09,0.08,0.17
			C22.4,26.97,22.4,26.97,22.36,26.97z"/>
		<path fill="#FFFFFF" d="M9.95,9.69c0.08-0.08,0.13-0.12,0.21-0.21C10.08,9.57,10.03,9.61,9.95,9.69z"/>
		<path fill="#FFFFFF" d="M30.98,2.74c-0.04,0.04-0.04,0.08-0.08,0.08c-0.04-0.04-0.08-0.04-0.13-0.08
			c0.04-0.04,0.04-0.04,0.08-0.08C30.9,2.66,30.94,2.7,30.98,2.74z"/>
		<path fill="#FFFFFF" d="M1.42,2.7C1.37,2.74,1.33,2.78,1.29,2.78c0-0.04-0.04-0.12-0.04-0.12c0.04-0.04,0.08-0.04,0.17-0.08
			C1.42,2.66,1.42,2.7,1.42,2.7z"/>
		<path fill="#FFFFFF" d="M1.54,7.99C1.5,7.95,1.46,7.95,1.42,7.9C1.46,7.86,1.46,7.82,1.5,7.82c0.04,0,0.08,0.04,0.13,0.08
			C1.58,7.95,1.58,7.99,1.54,7.99z"/>
		<path fill="#FFFFFF" d="M10.16,8.03c0.08-0.08,0.12-0.12,0.21-0.21C10.28,7.9,10.24,7.95,10.16,8.03z"/>
		<path fill="#FFFFFF" d="M8.62,8.03C8.66,8.07,8.7,8.07,8.7,8.11C8.66,8.15,8.66,8.2,8.62,8.24C8.58,8.2,8.58,8.2,8.54,8.15
			C8.54,8.11,8.58,8.07,8.62,8.03z"/>
		<path fill="#FFFFFF" d="M10.16,8.11c-0.04,0.04-0.08,0.08-0.13,0.08c0-0.04-0.04-0.13-0.04-0.13c0.04-0.04,0.08-0.04,0.17-0.08
			C10.16,8.07,10.16,8.11,10.16,8.11z"/>
		<path fill="#FFFFFF" d="M10.91,8.86c0.04,0.04,0.08,0.04,0.08,0.08c-0.04,0.04-0.04,0.08-0.08,0.12
			c-0.04-0.04-0.04-0.04-0.08-0.08C10.83,8.95,10.87,8.9,10.91,8.86z"/>
		<path fill="#FFFFFF" d="M6.25,8.32c0.04-0.04,0.04-0.04,0.08-0.08c0.04,0.04,0.04,0.08,0.08,0.12c0,0-0.04,0.04-0.08,0.08
			C6.29,8.4,6.25,8.36,6.25,8.32z"/>
		<path fill="#FFFFFF" d="M8.49,8.24C8.41,8.32,8.37,8.36,8.29,8.45C8.37,8.36,8.41,8.32,8.49,8.24z"/>
		<path fill="#FFFFFF" d="M6.29,8.82C6.25,8.78,6.25,8.78,6.2,8.74C6.25,8.7,6.29,8.7,6.33,8.65c0,0,0.04,0.04,0.08,0.08
			C6.37,8.78,6.33,8.82,6.29,8.82z"/>
		<path fill="#FFFFFF" d="M10.58,8.32c-0.04,0.04-0.08,0.08-0.13,0.08c0-0.04-0.04-0.12-0.04-0.12c0.04-0.04,0.08-0.04,0.17-0.08
			C10.58,8.28,10.58,8.32,10.58,8.32z"/>
		<path fill="#FFFFFF" d="M12.87,10.65c-0.04,0.04-0.04,0.08-0.08,0.08c-0.04-0.04-0.08-0.04-0.13-0.08
			c0.04-0.04,0.04-0.04,0.08-0.08C12.78,10.57,12.82,10.61,12.87,10.65z"/>
		<path fill="#FFFFFF" d="M24.02,3.91c-0.37-0.13-0.79,0.12-1.12-0.17c0.38-0.04,0.75-0.08,1.12-0.04c0.38,0.04,0.79-0.17,1.12,0.12
			C24.73,3.82,24.4,3.87,24.02,3.91z"/>
		<path fill="#FFFFFF" d="M20.36,4.07c0.12,0,0.29,0,0.42,0c-0.08,0.08-0.17,0.12-0.25,0.21C20.48,4.2,20.4,4.16,20.36,4.07z"/>
		<path fill="#FFFFFF" d="M20.36,5.53c0-0.12,0-0.29,0-0.42c0.08,0.08,0.12,0.17,0.21,0.25C20.48,5.45,20.44,5.49,20.36,5.53z"/>
		<path fill="#FFFFFF" d="M21.19,10.11c-0.08-0.08-0.13-0.12-0.21-0.21C21.07,9.99,21.11,10.03,21.19,10.11z"/>
		<path fill="#FFFFFF" d="M20.78,9.9c0-0.08,0-0.13,0-0.21c0.08,0.08,0.13,0.13,0.21,0.21C20.9,9.9,20.86,9.9,20.78,9.9z"/>
		<path fill="#FFFFFF" d="M25.94,3.99c-0.04,0.04-0.04,0.04-0.08,0.08c-0.04-0.04-0.04-0.08-0.08-0.12c0,0,0.04-0.04,0.08-0.08
			C25.9,3.91,25.94,3.95,25.94,3.99z"/>
		<path fill="#FFFFFF" d="M16.82,3.53c-0.04,0.04-0.08,0.08-0.13,0.08c0-0.04-0.04-0.12-0.04-0.12c0.04-0.04,0.08-0.04,0.17-0.08
			C16.82,3.49,16.82,3.53,16.82,3.53z"/>
		<path fill="#FFFFFF" d="M16.82,4.82c-0.04,0.04-0.04,0.08-0.08,0.08c-0.04-0.04-0.08-0.04-0.12-0.08
			c0.04-0.04,0.04-0.04,0.08-0.08C16.74,4.74,16.78,4.78,16.82,4.82z"/>
		<path fill="#FFFFFF" d="M27.02,26.56c0.08,0,0.12,0,0.21,0c-0.04,0.17,0.08,0.42-0.21,0.42C27.02,26.85,27.02,26.68,27.02,26.56z"
			/>
		<path fill="#FFFFFF" d="M26.81,26.97c0.09,0,0.12,0,0.21,0c-0.09,0.08-0.12,0.12-0.21,0.21C26.81,27.1,26.81,27.06,26.81,26.97z"
			/>
		<path fill="#FFFFFF" d="M19.65,9.07c0.04,0.04,0.08,0.04,0.08,0.08C19.7,9.2,19.7,9.24,19.65,9.28c-0.04-0.04-0.04-0.04-0.08-0.08
			C19.57,9.15,19.61,9.11,19.65,9.07z"/>
	</g>
</g>
</svg>
