<?xml version="1.0" encoding="utf-8"?>
<!-- Generator: Adobe Illustrator 15.0.0, SVG Export Plug-In . SVG Version: 6.00 Build 0)  -->
<!DOCTYPE svg PUBLIC "-//W3C//DTD SVG 1.1//EN" "http://www.w3.org/Graphics/SVG/1.1/DTD/svg11.dtd">
<svg version="1.1" id="Layer_1" xmlns="http://www.w3.org/2000/svg" xmlns:xlink="http://www.w3.org/1999/xlink" x="0px" y="0px"
	 width="32px" height="32px" viewBox="0 0 32 32" enable-background="new 0 0 32 32" xml:space="preserve">
<g id="AzbCRb.tif">
	<g>
		<path fill="#FFFFFF" d="M3.71,15.01c0,0.08,0,0.11,0,0.19c-0.15-0.04-0.3-0.08-0.41-0.15c-0.23-0.15-0.49-0.26-0.64-0.45
			C2.5,14.4,2.5,14.03,2.32,13.91c-0.64-0.3-0.98-0.9-1.47-1.35c-0.08-0.04-0.08-0.15-0.15-0.23c0.56,0.08,1.09,0.34,1.66,0.45
			c0.23,0.04,0.34,0.07,0.53-0.08c0.04-0.04,0.19,0.11,0.26,0.19c0.08,0.38,0.38,0.11,0.79,0.26c0.08,0,0-0.04-0.04-0.04
			s-0.11,0-0.19,0c0.04,0.08,0.08,0.15,0.15,0.19c0.08,0.04,0.15-0.04,0.08-0.11c0.19-0.3,0.26-0.3,0.79-0.08
			c0.23,0.08,0.45,0.15,0.68,0.19c0.08,0,0.23-0.11,0.3-0.19c0.04-0.04-0.04-0.19-0.08-0.26c-0.15-0.26-0.49-0.49-0.49-0.72
			c0.04-0.41-0.53-0.23-0.45-0.56c0.08-0.34-0.3-0.45-0.41-0.68c-0.23-0.56-0.56-1.09-0.87-1.62C3.29,9.02,3.48,8.83,3.56,8.61
			C3.6,8.49,3.52,8.3,3.45,8.23C3.22,8.08,3.18,8.08,3.33,7.97c0.19-0.11,0.41-0.23,0.6-0.34C4.01,7.7,4.05,7.74,4.12,7.81
			c0.04,0.53,0.3,0.9,0.75,1.13c0.19,0.19,0.38,0.38,0.56,0.56C5.48,9.58,5.55,9.62,5.59,9.7c0.08-0.08,0.15-0.11,0.3-0.26
			c0-0.07,0-0.04-0.04,0c0.04,0.04,0.04,0.04,0.08,0.08C5.97,9.47,6.01,9.43,6.01,9.4c0,0-0.04-0.04-0.11,0.04
			C5.7,9.51,5.59,9.51,5.48,9.51C5.44,9.09,5.33,8.98,4.91,8.94c0.08-0.15,0.08-0.49,0-0.6L4.73,7.55C4.61,7.48,4.61,7.33,4.54,7.29
			c-0.3-0.34-0.68-0.64-1.02-0.94C3.41,6.16,3.26,5.97,3.07,5.82c0-0.08,0.08-0.08,0.08-0.11c0-0.08-0.04-0.15-0.04-0.23
			c-0.04,0-0.11,0.04-0.11,0.04c0,0.11,0,0.19,0.11,0.34c0.08,0.49,0.08,0.49,0.45,0.53C3.45,6.65,3.29,6.87,3.18,7.14
			C3.07,7.02,2.92,6.87,2.92,6.76c0.04-0.34-0.19-0.68-0.11-1.02C2.88,5.52,2.58,5.18,3.07,5.1c0.08,0,0.04,0,0-0.04
			C3.03,5.1,3.03,5.1,2.99,5.14c0.04,0.04,0.08,0.07,0.11,0.07c0,0,0.04-0.04-0.04-0.11c-0.04-0.11,0-0.23,0.04-0.26
			C3.18,4.77,3.29,4.58,3.33,4.8c0.19,0.94,0.75,1.66,1.39,2.33c0.3,0.3,0.56,0.64,0.87,0.94c-0.19,0-0.38,0-0.64,0.04
			c0-0.08,0.08-0.08,0.08-0.11c0-0.08-0.04-0.15-0.04-0.23c-0.04,0-0.11,0.04-0.11,0.04c0,0.11,0,0.19,0.11,0.34
			c0.19,0.07,0.3,0.23,0.45,0.34c0.08,0.08,0.11,0.11,0.19,0.19C5.67,8.72,5.67,8.79,5.7,8.83c0.04-0.04,0.08-0.11,0.11-0.15
			c0.07,0,0.11,0,0.19,0c0.08,0.08,0.11,0.11,0.19,0.19c0.08,0.08,0.11,0.11,0.19,0.19s0.11,0.11,0.26,0.23c0.08,0,0.04,0,0-0.04
			C6.61,9.28,6.61,9.28,6.57,9.32C6.61,9.36,6.65,9.4,6.68,9.4c0,0,0.04-0.04-0.04-0.11C6.57,9.17,6.57,9.09,6.57,9.06
			c0.11,0,0.26,0,0.38,0c0,0.34,0.11,0.56,0.49,0.56c0.23,0,0.41,0,0.72,0.04c0.08,0,0.04,0,0-0.04C8.11,9.66,8.11,9.66,8.08,9.7
			c0.04,0.04,0.08,0.08,0.11,0.08c0,0,0.04-0.04-0.04-0.11C8.08,9.55,8.08,9.47,8.08,9.43c0.34,0,0.56,0.11,0.75,0.38
			C8.68,9.85,8.45,9.73,8.45,10c-0.04,0.04-0.11,0.04-0.15,0.08c0.04,0.04,0.11,0.07,0.23,0.19c0.08,0,0.04,0,0-0.04
			c-0.04,0.04-0.04,0.04-0.08,0.08c0.04,0.04,0.08,0.08,0.11,0.08c0,0,0.04-0.04-0.04-0.11c-0.08-0.11-0.08-0.19-0.08-0.23
			c0.11,0,0.26,0,0.38,0c0.11,0.38,0.56,0.08,0.72,0.38c0.68-0.15,1.32,0.15,1.96,0.23c0.87,0.08,1.77,0.26,2.64,0.15
			c0.71-0.08,1.39-0.23,1.84-0.98c0.6-0.98,0.72-1.05,0.72-1.84c0.23,0,0.19-0.15,0.15-0.34c-0.11-0.34,0-0.64,0.38-0.75
			c0.23-0.08,0.23-0.08,0.23-0.15c-0.08-0.34,0.04-0.49,0.34-0.41c0.11,0,0.26,0.34,0.26-0.04c-0.04-1.05,0.64-1.39,1.47-1.69
			c0.38-0.15,0.75-0.26,1.17-0.38c0.75-0.19,1.5-0.23,2.26-0.19c0.38,0.04,0.68,0.11,0.83,0.49c0.04,0.08,0.23,0.04,0.34,0.08
			c0,0.08,0,0.11,0,0.19c-0.38,0-0.79,0.07-1.13-0.19c0-0.23-0.15-0.23-0.3-0.15c-0.11,0.04-0.15,0.19-0.23,0.3
			c0.11,0,0.23,0.04,0.34,0.04c0,0.07,0,0.11,0,0.19c-0.08,0.08-0.11,0.11-0.19,0.23c0,0,0,0,0-0.04c-0.04,0-0.11,0.04-0.15,0.07
			c0,0,0.04,0.08,0.04,0.11c0.04-0.04,0.07-0.08,0.11-0.11c0.08-0.04,0.11-0.04,0.26,0c0.08,0,0.04,0,0-0.04
			c-0.04,0.04-0.04,0.04-0.07,0.08c0.04,0.04,0.07,0.08,0.11,0.08c0,0,0.04-0.04-0.04-0.11C22.8,5.1,22.8,5.03,22.8,4.99
			c0.38,0,0.71,0,1.09,0c0.08,0,0.15-0.11,0.23-0.19c0.08,0,0.11,0,0.19,0c0.04,0.11,0.04,0.34,0.08,0.34
			c0.6,0.07,1.13,0.6,1.81,0.41c0.19-0.04,0.38,0,0.49,0.19c0.11-0.11,0.19-0.26,0.34-0.34c0.34-0.15,0.68,0,1.05-0.23
			c0.38-0.23,0.83-0.19,1.21-0.53c0.23-0.19,0.64-0.04,0.9-0.26c0.04,0,0.11,0.04,0.15,0.08c0,0.04-0.04,0.04-0.04,0.08
			c-0.3,0.23-0.57,0.53-0.9,0.72l-0.26,0.26c0,0.08,0,0.15-0.04,0.19c-0.15,0.19-0.34,0.41-0.53,0.53
			c-0.34,0.15-0.53,0.34-0.68,0.64c-0.11,0.23-0.42,0.34-0.6,0.49c-0.04,0.04-0.08,0.07-0.11,0.11c0.04,0.04,0.11,0.08,0.15,0.08
			c0.34-0.04,0.75-0.04,1.05-0.19c0.26-0.15,0.45-0.23,0.72-0.04c0.19,0.11,0.49,0.04,0.71,0.08c0.04,0,0.11-0.04,0.15-0.08
			c-0.04-0.04-0.08-0.08-0.15-0.11c-0.15,0-0.3,0-0.45,0c-0.04,0-0.08-0.08-0.15-0.08c0.04-0.04,0.04-0.08,0.08-0.08
			c0.26,0.08,0.38-0.38,0.64-0.15c0.38,0.3,0.68,0.11,0.98-0.08c0.11-0.04,0.19-0.15,0.3-0.19c0.15,0,0.3,0.04,0.45,0.08
			c-0.08,0.11-0.08,0.3-0.19,0.38c-0.38,0.3-0.83,0.49-1.17,0.83c-0.34,0.34-0.79,0.53-1.02,0.98c-0.45,0.04-0.38,0.56-0.72,0.75
			c-0.3,0.15-0.49,0.49-0.75,0.72c-0.15,0.15-0.45,0.19-0.49,0.34c-0.11,0.38-0.19,0.75-0.23,1.13c-0.04,0.56,0,1.13,0,1.69
			s0.11,1.17-0.3,1.66c-0.11,0.15,0,0.41-0.08,0.64c-0.19,0.72-0.38,1.47-0.75,2.15c-0.64,1.2-1.28,2.41-2.15,3.43
			c-0.23,0.26-0.42,0.56-0.68,0.83c-0.08,0.07-0.23,0.04-0.34,0.07c-0.08-0.07-0.11-0.11-0.19-0.19c0-0.08,0-0.11,0-0.19
			c0.08-0.07,0.11-0.11,0.19-0.19c0.07-0.07,0.11-0.11,0.19-0.19c0.11-0.08,0.19-0.11,0.3-0.19c0.15-0.15,0-0.19-0.11-0.19
			s-0.23,0-0.38,0c-0.08-0.19-0.11-0.26-0.11-0.3c-0.04,0.04-0.08,0.11-0.11,0.15c-0.19,0.19-0.38,0.38-0.56,0.56
			c-0.11,0.11-0.26,0.26-0.38,0.38c-0.04,0-0.08,0-0.08,0c-0.11,0.07-0.34,0.19-0.38,0.15c-0.19-0.19,0.11-0.19,0.15-0.3
			c0.04-0.08,0.08-0.19,0.08-0.19c-0.3-0.3-0.08-0.38,0.19-0.45c0.08-0.04,0.08-0.23,0.15-0.3c0.23-0.15-0.07-0.68,0.45-0.64
			c-0.04-0.08-0.08-0.15-0.08-0.19c-0.19-0.3-0.26,0.15-0.41,0.04c0.11-0.3,0.19-0.64,0.3-0.94c0,0,0.04,0,0.08,0
			c0.08,0.19-0.19,0.49,0.19,0.56c0.04,0.04,0.04,0.11,0.08,0.15c0.04-0.04,0.08-0.11,0.11-0.15c0.26,0,0.15-0.22,0.19-0.38
			c0.3-0.07,0.41-0.26,0.38-0.56c0.42-0.11,0.38-0.41,0.45-0.98c0-0.07-0.04,0-0.04,0.04c0,0.04,0,0.11,0,0.19
			c0.08-0.04,0.15-0.08,0.19-0.15c0.04-0.08-0.04-0.15-0.11-0.08c-0.3,0.41-0.45,0.64-0.45,0.98c-0.08,0-0.11,0-0.19,0
			c0.08-0.38,0.11-0.75,0.19-1.13c0.08-0.07,0.15-0.15,0.19-0.23c0.08-0.6,0.08-0.6,0.68-0.68c0.19-0.04,0.19-0.15,0.26-0.26
			c0.26-0.41,0.3-0.87,0.49-1.32c0.23-0.45-0.04-1.02,0.23-1.51c0.11-0.23,0.04-0.6,0.04-0.94c0-0.19,0-0.15-0.23-0.04
			c-0.04,0-0.15-0.04-0.15-0.07c0.04-0.15,0.08-0.3,0.08-0.41c0.04-0.3,0.04-0.6,0.04-0.87c-0.49-0.3-0.3-0.75-0.34-1.17
			c0-0.07-0.15-0.15-0.23-0.19c-0.04,0.07-0.11,0.11-0.15,0.19c-0.08,0.41,0.15,0.75,0.26,1.09c0.23,0.75,0.08,1.28-0.53,1.73
			c-0.08,0.04-0.08,0.23-0.11,0.3c-0.04,0.08-0.11,0.15-0.23,0.23c0,0,0,0,0.04,0c0-0.04-0.04-0.11-0.07-0.15
			c0,0-0.08,0.04-0.11,0.04c0.04,0.04,0.08,0.07,0.11,0.11c0.04,0.19,0.04,0.38,0.04,0.56c-0.26,0-0.15,0.23-0.19,0.38
			c-0.49,0.23-0.56,0.64-0.56,1.17c0,0,0,0,0-0.04c-0.04,0-0.11,0.04-0.15,0.08c0,0,0.04,0.08,0.04,0.11
			c0.04-0.04,0.07-0.08,0.11-0.11c0.56-0.23,0.34-0.79,0.56-1.17c0.08,0,0.11,0,0.19,0c0,0.15,0,0.3,0,0.45
			c0,0.04,0.04,0.08,0.08,0.08c0.04,0,0.11-0.04,0.11-0.08c0-0.15,0-0.3,0-0.45c0.38,0.22,0.11,0.56,0.15,0.87c0,0-0.3,0-0.38,0.08
			c-0.08,0.08-0.11,0.23-0.15,0.38c-0.08,0.04-0.11,0.11-0.19,0.15c0.08,0.08,0.11,0.15,0.19,0.23c-0.04,0.15,0.08,0.38-0.26,0.38
			c-0.04-0.04,0.04-0.08,0.08-0.11c-0.04-0.04-0.08-0.11-0.11-0.11c-0.07,0-0.15,0.04-0.23,0.08c0.04,0.04,0.11,0.08,0.26,0.11
			c0.08,0.11,0.04,0.23,0.04,0.34c-0.04,0.15-0.08,0.26-0.11,0.41c-0.08,0-0.11,0-0.26,0.04c0-0.07,0.08-0.07,0.08-0.11
			c0-0.08-0.04-0.15-0.04-0.23c-0.04,0-0.11,0.04-0.11,0.04c0,0.11,0,0.19,0.11,0.34c0.08,0.07,0.08,0.23,0.08,0.34
			c-0.11-0.07-0.19-0.11-0.3-0.19c0,0.38-0.56,0.49-0.45,0.94c-0.38,0.3-0.75,0.64-1.13,0.94c-0.08-0.53,0.19-1.02,0.3-1.51
			c0,0,0.07,0,0.19,0.11c0.07,0.04,0.04-0.04,0-0.11c-0.04,0.04-0.08,0.07-0.08,0.07c0.04,0.08,0.08,0.19,0.11,0.26
			c0.04-0.04,0.04-0.11,0-0.26c0.04-0.3-0.45-0.53-0.11-0.75c-0.19-0.38,0.34-0.38,0.38-0.64c0.3-0.3,0.49-0.64,0.64-1.09
			c0.08-0.3-0.15-0.38-0.15-0.6c-0.15,0.04-0.34,0.04-0.49,0.11c-0.08,0.04-0.11,0.11-0.19,0.19c-0.23,0.34-0.41,0.79-0.71,0.94
			c-0.38,0.19-0.08,0.23-0.04,0.34c0,0.11,0.07,0.38-0.19,0.15c-0.04-0.04-0.15,0.04-0.15,0.08c-0.08,0.15,0.11,0.38-0.19,0.41
			c-0.04-0.04-0.04-0.11-0.08-0.15c-0.04,0.04-0.08,0.11-0.11,0.15c-0.42,0.3-0.83,0.6-1.02,1.13c-0.04,0.08-0.11,0.15-0.19,0.19
			c-0.04-0.08-0.08-0.15-0.11-0.23c-0.04-0.08-0.04-0.19-0.04-0.26c-0.07,0.04-0.19,0.08-0.26,0.15c-0.11,0.11-0.19,0.23-0.26,0.34
			c-0.64,0.53-1.28,1.02-1.69,1.77c-0.34,0.11-0.45,0.34-0.38,0.68c-0.08,0-0.11,0-0.23,0c0,0,0,0,0.04,0
			c0-0.04-0.04-0.11-0.07-0.15c0,0-0.08,0.04-0.11,0.04c0.04,0.04,0.08,0.07,0.11,0.11c0.04,0.04,0,0.11-0.04,0.15
			c-0.04,0.07-0.04,0.11-0.08,0.19c0.08,0,0.15,0.04,0.15,0.04c0.08-0.11,0.11-0.26,0.15-0.38c0.11-0.07,0.26-0.11,0.38-0.19
			c0.08,0.56-0.08,1.05-0.38,1.51c-0.11,0.19-0.26,0.38-0.38,0.56c-0.11,0.15-0.26,0.3-0.34,0.45c-0.15,0.23-0.38-0.26-0.45,0.08
			c-0.04-0.08-0.08-0.19-0.11-0.26c0-0.04,0-0.11,0-0.19c0-0.15-0.04-0.3-0.08-0.45c-0.08,0.15-0.23,0.26-0.26,0.41
			c-0.04,0.23-0.04,0.49-0.04,0.72c0,0.19-0.04,0.26-0.26,0.38c-0.53,0.3-0.98,0.72-1.43,1.13c0,0,0,0,0-0.04
			c-0.04,0-0.11,0.04-0.15,0.08c0,0,0.04,0.08,0.04,0.11c0.04-0.04,0.08-0.08,0.11-0.11c0.3,0.04,0.41,0.23,0.38,0.56
			c0,0,0,0,0-0.04c-0.04,0-0.11,0.04-0.15,0.07c0,0,0.04,0.08,0.04,0.11c0.04-0.04,0.08-0.07,0.11-0.11
			c0.15-0.07,0.38,0.04,0.38-0.22c0.15-0.04,0.38,0.07,0.38-0.19c0.15-0.04,0.38,0.08,0.38-0.19c0.15-0.04,0.38,0.08,0.38-0.19
			c0.3,0.07,0.26,0.26,0.08,0.38c-0.49,0.11-0.87,0.11-1.02,0.56c0,0,0,0,0-0.04c-0.04,0-0.11,0.04-0.15,0.08
			c0,0,0.04,0.07,0.04,0.11c0.04-0.04,0.08-0.07,0.11-0.11c0.15-0.04,0.38,0.04,0.45-0.04c0.26-0.34,0.45-0.07,0.68,0
			c0.04,0.04,0.04,0.11,0.07,0.15c0.04-0.04,0.08-0.11,0.11-0.15c0.11-0.04,0.26-0.07,0.38-0.15c0,0,0-0.11-0.04-0.15
			c-0.08,0.04-0.11,0.04-0.19,0.08c-0.04,0-0.11,0.04-0.15,0.07c0-0.19,0-0.38,0-0.56c0.04,0.04,0.11,0.04,0.15,0.08
			c0.19,0.11,0.34,0.26,0.53,0.3c0.08,0,0.19-0.23,0.26-0.34c0.08,0.07,0.11,0.11,0.26,0.22c0.08,0,0.04,0,0-0.04
			c-0.04,0.04-0.04,0.04-0.07,0.07c0.04,0.04,0.07,0.08,0.11,0.08c0,0,0.04-0.04-0.04-0.11c-0.07-0.11-0.07-0.19-0.07-0.22
			c0.15-0.04,0.38,0.07,0.38-0.19c0.3,0.08,0.41-0.19,0.6-0.34c0.08-0.04,0.15-0.04,0.26-0.04c0,0.08-0.04,0.11-0.04,0.19
			c-0.08,0.34-0.3,0.56-0.53,0.68c-0.19,0.11-0.34,0.07-0.23,0.34c0,0,0.23-0.04,0.34-0.11c0.19-0.11,0.34-0.26,0.49-0.41
			c0.3-0.26,0.49-0.64,1.02-0.53c0.04,0,0.15-0.08,0.19-0.15c0.38-0.83,1.28-1.09,1.81-1.73c0.07-0.11,0.26-0.15,0.38-0.19
			c0.08,0,0.23,0.04,0.23,0.08c0,0.26,0.04,0.34,0.26,0.11c0.19-0.19,0.34-0.49,0.68-0.41c-0.08,0.11-0.11,0.26-0.19,0.41
			c0,0,0,0,0-0.04c-0.04,0-0.11,0.04-0.15,0.08c0,0,0.04,0.07,0.04,0.11c0.04-0.04,0.07-0.08,0.11-0.11
			c0.72-0.19,0.72-0.19,0.75-0.79c0.08,0,0.11,0,0.19,0c0.08,0.08,0.11,0.11,0.19,0.19c-0.19,0.45-0.6,0.68-0.87,1.02
			c-0.45,0.6-1.13,0.9-1.66,1.39c-0.23,0.23-0.83,0.49-1.24,0.6c0.08-0.11,0.11-0.26,0.19-0.38c0.41,0,0.68-0.34,0.94-0.56
			c0.04-0.04,0-0.11,0.19-0.38c0.07-0.11-0.08,0-0.19,0.11v0.07c0.08,0,0.15,0.04,0.19,0c0.11-0.04,0.19-0.11,0.3-0.19
			c0.04-0.04,0.04-0.08,0.04-0.11c0,0-0.04-0.04-0.3,0.11c-0.38,0.26-0.56,0.34-0.79,0.38c0,0,0,0,0.04,0
			c0-0.04-0.04-0.11-0.08-0.15c0,0-0.08,0.04-0.11,0.04c0.04,0.04,0.08,0.07,0.11,0.11c-0.08,0.19-0.23,0.38-0.34,0.56
			c-0.57,0.07-1.09,0.34-1.62,0.6c-0.19,0.11-0.6,0.11-0.6,0.49c0.26-0.08,0.57-0.11,0.83-0.23c0.11-0.04,0.15-0.19,0.26-0.26
			c0.3-0.15,0.56-0.34,0.9-0.26c-0.04,0.11-0.04,0.3-0.08,0.34c-0.83,0.22-1.54,0.79-2.41,0.98c0,0,0,0,0.04,0
			c0-0.04-0.04-0.11-0.08-0.15c0,0-0.08,0.04-0.11,0.04c0.04,0.04,0.08,0.08,0.11,0.11c-0.38,0.26-1.21,0.53-1.77,0.56
			c0,0,0.07,0,0.11,0c-0.08-0.11-0.15-0.23-0.23-0.34c-0.04,0.04-0.15,0.11-0.11,0.11c0.04,0.08,0.07,0.15,0.23,0.23
			c-0.23,0.38-0.72,0.38-1.21,0.38c0-0.26-0.23-0.15-0.41-0.19c0,0,0,0,0.04,0c0-0.04-0.04-0.11-0.08-0.15c0,0-0.08,0.04-0.11,0.04
			c0.04,0.04,0.08,0.07,0.11,0.11c0.08,0.26,0.26,0.15,0.41,0.19c-0.08,0.34-0.34,0.19-0.49,0.15c-0.11,0-0.26-0.08-0.38-0.11
			c0.04,0.08,0.08,0.19,0.11,0.26c-0.04,0.04-0.11,0.08-0.15,0.08c-0.11,0-0.26,0-0.38,0c0.04-0.04,0.04-0.11,0.08-0.15
			c0.04-0.07,0.04-0.11,0.08-0.19c-0.08,0-0.15-0.04-0.15-0.04c-0.08,0.11-0.11,0.26-0.15,0.38c-0.34,0-0.68-0.08-0.94,0.19
			c-0.08-0.38-0.41-0.23-0.53-0.19c-0.49,0.26-1.02,0.15-1.54,0.15c-0.45,0-0.94,0-1.39,0c-0.26,0-0.49,0-0.68-0.23
			c-0.04-0.08-0.23-0.15-0.3-0.15c-0.98,0.07-1.84-0.34-2.75-0.68c-0.3-0.11-0.56-0.26-0.87-0.41c-0.41-0.26-0.75-0.68-1.32-0.64
			c-0.15,0-0.3-0.15-0.45-0.26c-0.15-0.11-0.34-0.34-0.34-0.38c0.19-0.23,0.3,0.04,0.45,0.11c0.19,0.08,0.41,0,0.56-0.15
			c0.11,0.15,0.26,0.26,0.45,0.08v-0.08c0.19,0,0.38-0.41,0.6-0.04c0.6,0.11,1.2,0.19,1.84-0.04c1.96-0.6,3.73-1.62,5.53-2.56
			c0.19-0.11,0.34-0.23,0.53-0.34c0.04-0.04,0.08-0.11,0.11-0.19c-0.08,0-0.19-0.04-0.26-0.04c-0.04,0-0.08,0.11-0.15,0.11
			c-0.38,0.15-0.3-0.11-0.23-0.45c0.04-0.08-0.04-0.04-0.11,0c0.04,0.04,0.08,0.07,0.08,0.07c0.08-0.04,0.19-0.07,0.26-0.11
			c-0.04-0.04-0.11-0.04-0.26,0c-0.41,0.11-0.79,0.04-0.98,0.19c-0.49,0.45-1.02,0.15-1.47,0.07c-0.49-0.07-0.94-0.34-1.43-0.34
			c-0.23,0-0.11-0.23-0.08-0.45c0-0.07,0-0.04-0.04,0c0.04,0.04,0.04,0.04,0.08,0.08c0.04-0.04,0.08-0.08,0.08-0.11
			c0,0-0.04-0.04-0.11,0.04c-0.11,0.11-0.19,0.15-0.26,0.19c-0.19,0.11-0.3,0.15-0.34-0.11c0.04-0.04,0.11-0.04,0.15-0.08
			c-0.04-0.04-0.11-0.07-0.15-0.11c-0.34-0.3-0.68-0.53-1.13-0.57c-0.19-0.26-0.41-0.38-0.75-0.38c-0.04-0.04-0.04-0.15-0.08-0.15
			c-0.34,0-0.64-0.08-0.94-0.23c-0.11-0.04-0.23-0.08-0.34-0.11c0.11-0.04,0.23-0.07,0.34-0.07c0.15-0.04,0.34-0.04,0.11-0.23
			c-0.04,0-0.04-0.08-0.04-0.08c0.19-0.15,0.75-0.11,0.98,0.23c-0.04,0.08,0.04,0.04,0.15-0.04C3.93,19.33,3.9,19.3,3.82,19.3
			c-0.11,0-0.26,0.08-0.38,0.11c0.08,0.04,0.15,0.08,0.41,0c1.17-0.38,2.18-0.64,3.24-0.87c0.68-0.15,1.2-0.56,1.84-0.75
			c0.04,0,0.11-0.04,0.15-0.07c-0.04-0.04-0.08-0.08-0.11-0.11c-0.41-0.11-0.87-0.11-1.28-0.38c-0.04-0.04-0.11-0.04-0.19,0
			c-0.94,0.11-1.17,0.04-2-0.56c0.19,0,0.38,0,0.56,0c0,0.26,0.23,0.15,0.6,0.26c0.08,0,0-0.04-0.04-0.04c-0.04,0-0.11,0-0.19,0
			c0.04,0.08,0.08,0.15,0.15,0.19c0.08,0.04,0.15-0.04,0.08-0.11c-0.23-0.34-0.45-0.23-0.6-0.26c-0.08-0.38-0.38-0.11-0.56-0.19
			c-0.3-0.23-0.53-0.56-0.94-0.56c-0.04-0.04-0.04-0.11-0.08-0.15c-0.04,0.04-0.08,0.11-0.11,0.15c-0.26-0.15-0.38-0.41-0.38-0.71
			C4.12,14.93,3.9,15.01,3.71,15.01c-0.08-0.08-0.11-0.11-0.23-0.19c0,0,0,0,0.04,0c0-0.04-0.04-0.11-0.08-0.15
			c0,0-0.08,0.04-0.11,0.04c0.04,0.04,0.08,0.08,0.11,0.11C3.6,14.89,3.67,14.93,3.71,15.01z M6.16,11.05
			c0.08,0.08,0.11,0.11,0.38,0.3c-0.04-0.04-0.08-0.08-0.08-0.11c-0.04,0.04-0.04,0.04-0.08,0.08c0.04,0.04,0.08,0.08,0.11,0.08
			c0,0,0.04-0.04-0.11-0.15c0-0.08,0-0.11,0-0.19c0.08-0.07,0.19-0.15,0.19-0.23c0-0.08-0.08-0.19-0.15-0.26c0.11,0,0.23,0,0.3,0
			c0.08,0,0.11,0.04,0.19,0.04c0-0.08,0-0.23-0.04-0.23c-0.23-0.11-0.49-0.15-0.72-0.26C6.01,10.07,5.85,10,5.7,9.96
			c0.08,0.11,0.19,0.26,0.23,0.38c0.04,0.11,0.04,0.23,0.08,0.34c-0.19-0.11-0.38-0.26-0.56-0.38c-0.08-0.08-0.11-0.11-0.26-0.19
			c0.04,0,0.04,0,0.08,0c0-0.04-0.04-0.11-0.08-0.15c0,0-0.08,0.04-0.11,0.04c0.04,0.04,0.08,0.08,0.19,0.11c0,0.08,0,0.11,0,0.26
			c0-0.04,0-0.04,0-0.08c-0.04,0-0.11,0.04-0.15,0.08c0,0,0.04,0.07,0.04,0.11c0.04-0.04,0.08-0.08,0.11-0.19c0.08,0,0.11,0,0.19,0
			c0.04,0.34-0.15,0.79,0.38,0.94c0.07,0.08,0.11,0.11,0.38,0.3c-0.08-0.04-0.08-0.08-0.11-0.11c-0.04,0.04-0.04,0.04-0.08,0.07
			c0.04,0.04,0.08,0.08,0.11,0.08c0,0,0.04-0.04-0.11-0.15c-0.08-0.08-0.11-0.11-0.19-0.19c0.04-0.15-0.08-0.38,0.19-0.38
			C6.04,10.94,6.12,10.98,6.16,11.05z M18.58,11.05c-0.07,0.08-0.11,0.11-0.19,0.19c-0.08,0.08-0.11,0.11-0.19,0.19
			c-0.08,0.07-0.11,0.11-0.19,0.19c-0.11,0.11-0.23,0.23-0.34,0.34c0.3,0.19-0.11,0.26-0.04,0.41c-0.08,0.07-0.11,0.11-0.19,0.26
			c0-0.04,0-0.04,0-0.07c-0.04,0-0.11,0.04-0.15,0.07c0,0,0.04,0.08,0.04,0.11c0.04-0.04,0.08-0.08,0.11-0.19c0.08,0,0.11,0,0.19,0
			c0.04,0.11,0.04,0.23,0.08,0.34c0.08-0.04,0.15-0.08,0.19-0.15c0.08-0.11,0.11-0.23,0.11-0.3c0-0.26,0-0.56,0-0.83
			c0.08-0.08,0.11-0.11,0.19-0.19c0.08-0.08,0.11-0.11,0.19-0.19c0.08-0.08,0.11-0.11,0.3-0.38c-0.04,0.04-0.08,0.08-0.11,0.08
			c0.04,0.04,0.04,0.04,0.08,0.08c0.04-0.04,0.08-0.08,0.08-0.11C18.77,10.94,18.73,10.9,18.58,11.05z M21.52,5.22
			c0.04,0,0.04,0,0.08,0c0-0.04-0.04-0.11-0.08-0.15c0,0-0.08,0.04-0.11,0.04c0.04,0.04,0.08,0.08,0.34,0.23
			c-0.04-0.04-0.07-0.08-0.07-0.11c-0.04,0.04-0.04,0.04-0.08,0.08c0.04,0.04,0.08,0.08,0.11,0.08C21.74,5.37,21.74,5.33,21.52,5.22
			z M7.59,24.23c-0.04,0.04-0.08,0.08-0.11,0.08c0.04,0.04,0.04,0.04,0.08,0.07c0.04-0.04,0.08-0.07,0.08-0.11
			c0,0-0.04-0.04-0.15,0.19c0-0.04,0-0.04,0-0.08c-0.04,0-0.11,0.04-0.15,0.08c0,0,0.04,0.07,0.04,0.11
			C7.44,24.57,7.44,24.53,7.59,24.23z M27.8,5.86c0-0.04,0-0.04,0-0.07c-0.04,0-0.11,0.04-0.15,0.07c0,0,0.04,0.08,0.04,0.11
			c0.04-0.04,0.07-0.08,0.23-0.34c-0.04,0.04-0.08,0.08-0.11,0.08c0.04,0.04,0.04,0.04,0.08,0.08c0.04-0.04,0.07-0.08,0.07-0.11
			C27.99,5.67,27.95,5.63,27.8,5.86z M8.79,21.33c-0.04-0.04-0.04-0.07-0.07-0.11c-0.04,0.04-0.04,0.04-0.08,0.08
			c0.04,0.04,0.08,0.07,0.11,0.07c0,0,0.04-0.04-0.11-0.15c-0.08-0.07-0.11-0.11-0.26-0.19c0.04,0,0.04,0,0.08,0
			c0-0.04-0.04-0.11-0.08-0.15c0,0-0.08,0.04-0.11,0.04c0.04,0.04,0.08,0.08,0.19,0.11C8.49,21.1,8.56,21.14,8.79,21.33z
			 M15.38,20.39c-0.04-0.04-0.08-0.07-0.08-0.11c-0.04,0.04-0.04,0.04-0.07,0.08c0.04,0.04,0.07,0.07,0.11,0.07
			c0,0,0.04-0.04-0.19-0.15c0.04,0,0.04,0,0.08,0c0-0.04-0.04-0.11-0.08-0.15c0,0-0.08,0.04-0.11,0.04
			C15.08,20.2,15.08,20.24,15.38,20.39z M5.4,11.99c0-0.07,0-0.11,0-0.19c0.08-0.04,0.11-0.11,0.19-0.15
			c-0.08-0.08-0.11-0.15-0.19-0.23c-0.08-0.08-0.11-0.11-0.26-0.19c0.04-0.04,0.08-0.08,0.08-0.08c-0.08-0.15-0.15-0.3-0.26-0.45
			c-0.04-0.04-0.15-0.04-0.15,0c-0.04,0.04-0.04,0.11-0.04,0.19c0.04,0.15,0.11,0.26,0.19,0.38c0.04,0.04,0.11,0,0.26,0
			c0.08,0.08,0.11,0.11,0.19,0.19c0,0.11,0,0.26,0,0.38c-0.04,0.04-0.11,0.04-0.15,0.08c0.04,0.04,0.11,0.07,0.34,0.23
			c-0.04-0.04-0.08-0.07-0.08-0.11c-0.04,0.04-0.04,0.04-0.08,0.08c0.04,0.04,0.08,0.08,0.11,0.08C5.55,12.14,5.55,12.11,5.4,11.99z
			 M20.2,11.99c0.04,0,0.04,0,0.08,0c0-0.04-0.04-0.11-0.08-0.15c0,0-0.07,0.04-0.11,0.04c0.04,0.04,0.08,0.08,0.34,0.23
			c-0.04-0.04-0.08-0.08-0.08-0.11c-0.04,0.04-0.04,0.04-0.07,0.08c0.04,0.04,0.07,0.07,0.11,0.07
			C20.42,12.14,20.42,12.11,20.2,11.99z M6.53,12.18c-0.04-0.04-0.04-0.11-0.08-0.15c-0.04,0.04-0.08,0.11-0.11,0.15
			c-0.04-0.04-0.11-0.04-0.15-0.08c-0.11-0.08-0.26-0.15-0.38-0.23c0.04,0.15,0.11,0.3,0.15,0.45c0.04,0.08,0.11,0.15,0.19,0.23
			c0.08,0.07,0.11,0.11,0.38,0.3c-0.04-0.04-0.08-0.07-0.08-0.11c-0.04,0.04-0.04,0.04-0.08,0.08c0.04,0.04,0.08,0.08,0.11,0.08
			c0,0,0.04-0.04-0.11-0.15c-0.08-0.08-0.11-0.11-0.19-0.19c0.08-0.11,0.11-0.26,0.19-0.38C6.42,12.18,6.49,12.18,6.53,12.18
			c0.08,0.07,0.11,0.11,0.19,0.19c-0.08,0.3,0.08,0.45,0.56,0.49c-0.04-0.04-0.08-0.07-0.08-0.11c-0.04,0.04-0.04,0.04-0.08,0.08
			c0.04,0.04,0.08,0.08,0.11,0.08c0,0,0.04-0.04-0.11-0.15c-0.11-0.11-0.26-0.26-0.38-0.38C6.68,12.29,6.61,12.26,6.53,12.18z
			 M18.77,17.45c0.08-0.08,0.11-0.11,0.3-0.38c-0.04,0.04-0.08,0.08-0.11,0.08c0.04,0.04,0.04,0.04,0.08,0.07
			c0.04-0.04,0.08-0.07,0.08-0.11c0,0-0.04-0.04-0.15,0.11c-0.08,0.07-0.11,0.11-0.19,0.26C18.77,17.49,18.77,17.49,18.77,17.45
			c-0.04,0-0.11,0.04-0.15,0.07c0,0,0.04,0.08,0.04,0.11C18.73,17.6,18.73,17.57,18.77,17.45z M27.16,9.92c0.04,0,0.04,0,0.08,0
			c0-0.04-0.04-0.11-0.08-0.15c0,0-0.07,0.04-0.11,0.04c0.04,0.04,0.08,0.08,0.34,0.23c-0.04-0.04-0.07-0.07-0.07-0.11
			c-0.04,0.04-0.04,0.04-0.08,0.08c0.04,0.04,0.08,0.08,0.11,0.08S27.39,10.04,27.16,9.92z M9.17,12.75c-0.08,0-0.11,0-0.26,0
			c0.04,0,0.04,0,0.08,0c0-0.04-0.04-0.11-0.08-0.15c0,0-0.08,0.04-0.11,0.04c0.04,0.04,0.08,0.08,0.19,0.11
			c0.04,0.04,0.04,0.11,0.08,0.15c0.04-0.04,0.08-0.11,0.23-0.34c-0.04,0.04-0.08,0.07-0.11,0.07c0.04,0.04,0.04,0.04,0.08,0.08
			c0.04-0.04,0.08-0.08,0.08-0.11C9.36,12.63,9.32,12.6,9.17,12.75z M26.3,8.87c0-0.04,0-0.04,0-0.08c-0.04,0-0.11,0.04-0.15,0.08
			c0,0,0.04,0.08,0.04,0.11c0.04-0.04,0.08-0.07,0.23-0.34c-0.04,0.04-0.08,0.08-0.11,0.08c0.04,0.04,0.04,0.04,0.07,0.08
			c0.04-0.04,0.08-0.08,0.08-0.11C26.49,8.68,26.45,8.64,26.3,8.87z M4.46,14.06c-0.08,0-0.11,0-0.45,0.04
			c0.11-0.04,0.19-0.08,0.26-0.15c-0.08-0.04-0.15-0.08-0.23-0.08c-0.11,0-0.23,0.04-0.34,0.08c0.08,0.04,0.19,0.11,0.56,0.11
			c0.04,0.04,0.04,0.11,0.08,0.15c0.04-0.04,0.08-0.11,0.23-0.34c-0.04,0.04-0.08,0.08-0.11,0.08c0.04,0.04,0.04,0.04,0.08,0.08
			c0.04-0.04,0.08-0.08,0.08-0.11C4.65,13.95,4.61,13.91,4.46,14.06z M18.32,8.04c-0.04,0.04-0.08,0.08-0.11,0.08
			c0.04,0.04,0.04,0.04,0.08,0.08c0.04-0.04,0.07-0.08,0.07-0.11c0,0-0.04-0.04-0.15,0.19c0-0.04,0-0.04,0-0.07
			c-0.04,0-0.11,0.04-0.15,0.07c0,0,0.04,0.08,0.04,0.11C18.16,8.38,18.16,8.34,18.32,8.04z M9.77,14.4
			c-0.04-0.08-0.08-0.11-0.11-0.19c-0.04,0.04-0.11,0.08-0.11,0.11c0,0.08,0.04,0.15,0.08,0.23c0.04-0.04,0.07-0.11,0.23-0.53
			c-0.04,0.04-0.08,0.08-0.11,0.08c0.04,0.04,0.04,0.04,0.08,0.08c0.04-0.04,0.08-0.08,0.08-0.11C9.92,14.14,9.88,14.1,9.77,14.4z
			 M2.77,13.88c-0.08-0.07-0.11-0.11-0.38-0.15c0.08-0.04,0.11-0.08,0.19-0.11C2.54,13.57,2.5,13.5,2.47,13.5
			c-0.08,0-0.15,0.04-0.23,0.07c0.04,0.04,0.11,0.08,0.38,0.11c0.08,0.08,0.11,0.11,0.38,0.38c-0.04-0.08-0.08-0.11-0.11-0.19
			c-0.04,0.04-0.08,0.08-0.08,0.08c0.04,0.08,0.08,0.19,0.11,0.26C2.92,14.18,2.96,14.14,2.77,13.88z M18.39,15.01
			c-0.26,0-0.15,0.23-0.19,0.38c-0.3,0.34-0.53,0.68-0.56,1.13c-0.41,0.04-0.04,0.41-0.26,0.56c-0.23,0.15-0.41,0.38-0.6,0.6
			c-0.23,0.26-0.41,0.57-0.6,0.83c0.41,0.15,0.64-0.3,1.02-0.38c0.15,0,0.26-0.26,0.41-0.38c0.15-0.15,0.26-0.3,0.49-0.34
			c0.38-0.11,1.13-0.83,1.32-1.09c0.11-0.15,0.34-0.26,0.49-0.41c0.04,0.04,0.04,0.11,0.08,0.15c0.04-0.04,0.08-0.11,0.11-0.15
			c0.11-0.11,0.26-0.26,0.38-0.38c0.38-0.04,0.04-0.45,0.3-0.56c-0.08-0.38,0.38-0.3,0.49-0.53c0.11-0.26,0.45-0.45,0.53-0.71
			c0.04-0.26-0.23-0.53-0.15-0.87c0-0.07-0.08-0.19-0.11-0.3c-0.04,0.11-0.08,0.26-0.15,0.3c-0.26,0.23-0.34,0.56-0.53,0.83
			c-0.08,0.15-0.23,0.23-0.38,0.34c0-0.08,0-0.11,0-0.19c0-0.04-0.04-0.11-0.08-0.15c-0.04,0.04-0.11,0.11-0.11,0.15
			c-0.04,0.04,0,0.11,0,0.19c-0.34-0.19-0.38-0.19-0.38,0.19c-0.19,0.15-0.38,0.3-0.56,0.45c-0.04,0.04-0.08,0.08-0.11,0.08
			c-0.04-0.04-0.08-0.11-0.08-0.15c0-0.11,0.04-0.26,0-0.38c-0.04-0.15-0.15-0.34-0.23-0.34c-0.26-0.04-0.08,0.23-0.11,0.3
			c-0.08,0.19-0.11,0.38-0.19,0.56C18.54,14.89,18.47,14.93,18.39,15.01z M6.16,16.06c-0.04-0.04-0.04-0.08-0.08-0.11
			c-0.04,0.04-0.04,0.04-0.08,0.08c0.04,0.04,0.08,0.08,0.11,0.08c0,0,0.04-0.04-0.3-0.11c0.07-0.04,0.11-0.08,0.19-0.11
			c-0.04-0.04-0.08-0.11-0.11-0.11c-0.07,0-0.15,0.04-0.23,0.08C5.67,15.87,5.74,15.91,6.16,16.06z M19.67,13.05
			c-0.08,0.15-0.11,0.23-0.11,0.26c0,0.04,0,0.11,0,0.19c0.08-0.04,0.15-0.08,0.19-0.15c0.04-0.08-0.04-0.15-0.15,0.3
			c-0.04-0.08-0.08-0.11-0.11-0.19c-0.04,0.04-0.11,0.08-0.11,0.11c0,0.08,0.04,0.15,0.08,0.23C19.48,13.8,19.52,13.73,19.67,13.05z
			 M17.3,13.27c-0.04-0.07-0.08-0.11-0.11-0.19c-0.04,0.04-0.11,0.08-0.11,0.11c0,0.07,0.04,0.15,0.08,0.23
			c0.04-0.04,0.08-0.11,0.23-0.53c-0.04,0.04-0.08,0.08-0.11,0.08c0.04,0.04,0.04,0.04,0.07,0.07c0.04-0.04,0.08-0.07,0.08-0.11
			C17.45,13.01,17.41,12.97,17.3,13.27z M22.04,14.7c0.08-0.11,0.11-0.11,0.11-0.15c0-0.08-0.04-0.15-0.04-0.23
			c-0.04,0-0.11,0.04-0.11,0.04c0,0.11,0,0.19,0.6,0.41c-0.15-0.08-0.23-0.11-0.26-0.11s-0.11,0-0.19,0
			c0.04,0.08,0.08,0.15,0.15,0.19C22.38,14.82,22.46,14.78,22.04,14.7z M7.85,10.68c0.11,0,0.26,0,0.38,0
			c-0.04,0.11-0.08,0.23-0.15,0.34c0.11-0.04,0.23-0.08,0.38-0.08c0.04,0,0.11-0.04,0.34,0.15c-0.04-0.04-0.07-0.11-0.11-0.19
			c-0.04,0.04-0.08,0.08-0.08,0.08c0.04,0.07,0.08,0.19,0.11,0.26c0.04-0.04,0.04-0.11-0.11-0.38c0-0.26-0.23-0.15-0.38-0.19
			c-0.04-0.07-0.11-0.11-0.15-0.19C8,10.56,7.93,10.6,7.85,10.75C7.85,10.71,7.85,10.71,7.85,10.68c-0.04,0-0.11,0.04-0.15,0.08
			c0,0,0.04,0.08,0.04,0.11C7.81,10.83,7.81,10.79,7.85,10.68z M17.22,10.41c-0.08,0.15-0.11,0.23-0.11,0.26c0,0.04,0,0.11,0,0.19
			c0.08-0.04,0.15-0.07,0.19-0.15c0.04-0.08-0.04-0.15-0.19,0.15c-0.08,0.08-0.11,0.11-0.19,0.19c-0.41-0.04-0.79,0.23-1.02,0.41
			c-0.34,0.26-0.75,0.11-1.02,0.38c-0.11,0.11-0.11,0.3,0.15,0.3c0.04,0.08,0.11,0.19,0.15,0.19c0.3-0.11,0.64-0.19,0.79-0.49
			c0.04-0.07,0.11-0.23,0.19-0.23c0.41,0,0.56-0.26,0.75-0.56C16.96,10.98,17.04,10.94,17.22,10.41z M20.65,12.75
			c0,0.08,0,0.11,0,0.19c-0.08,0.08-0.11,0.15-0.19,0.23c-0.04,0.04-0.11,0.11-0.26,0.15c0.04,0,0.04,0,0.08,0
			c0-0.04-0.04-0.11-0.08-0.15c0,0-0.07,0.04-0.11,0.04c0.04,0.04,0.08,0.07,0.19,0.11c0.07,0.08,0.15,0.11,0.23,0.19
			c0.04-0.08,0.11-0.11,0.15-0.19c0.04-0.11,0-0.26,0-0.38c0.07-0.08,0.11-0.11,0.41-0.79c-0.08,0.19-0.15,0.34-0.23,0.49
			c0,0.04,0,0.08,0,0.08c0.11-0.08,0.26-0.15,0.34-0.26c0.04-0.04,0.04-0.11,0-0.19c0-0.04-0.07-0.07-0.38,0.45
			c-0.08,0-0.11,0-0.34,0.08c0.07-0.11,0.11-0.11,0.11-0.15c0-0.07-0.04-0.15-0.04-0.23c-0.04,0-0.11,0.04-0.11,0.04
			C20.5,12.56,20.5,12.63,20.65,12.75z M24.04,18.39c-0.26,0-0.15,0.22-0.19,0.68c0-0.15,0-0.23,0-0.3
			c-0.04,0.04-0.15,0.04-0.15,0.08c-0.08,0.15-0.15,0.3-0.23,0.49c0,0.04,0.04,0.11,0.04,0.15c0.07-0.04,0.15-0.04,0.19-0.11
			c0.07-0.11,0.11-0.26,0.15-0.6c0.26,0,0.15-0.22,0.3-0.56c-0.04,0.04-0.08,0.08-0.11,0.08c0.04,0.04,0.04,0.04,0.08,0.07
			c0.04-0.04,0.08-0.07,0.08-0.11C24.23,18.28,24.19,18.24,24.04,18.39z M7.59,20.46c0.04,0,0.04,0,0.08,0
			c0-0.04-0.04-0.11-0.08-0.15c0,0-0.08,0.04-0.11,0.04c0.04,0.04,0.08,0.07,0.38,0.3c-0.04-0.08-0.08-0.11-0.11-0.19
			c-0.04,0.04-0.08,0.07-0.08,0.07c0.04,0.08,0.08,0.19,0.11,0.26C7.81,20.77,7.85,20.73,7.59,20.46z M13.57,20.77
			c-0.11-0.08-0.11-0.11-0.15-0.11c-0.08,0-0.15,0.04-0.23,0.04c0,0.04,0.04,0.11,0.04,0.11c0.11,0,0.19,0,0.41-0.34
			c-0.04,0.04-0.08,0.07-0.11,0.07c0.04,0.04,0.04,0.04,0.08,0.08c0.04-0.04,0.08-0.08,0.08-0.11
			C13.69,20.54,13.65,20.5,13.57,20.77z M9.73,21.52c-0.04-0.04-0.08-0.07-0.08-0.11c-0.04,0.04-0.04,0.04-0.08,0.07
			c0.04,0.04,0.08,0.08,0.11,0.08c0,0,0.04-0.04-0.3-0.11c0.08-0.04,0.11-0.08,0.19-0.11c-0.04-0.04-0.08-0.11-0.11-0.11
			c-0.08,0-0.15,0.04-0.23,0.08C9.24,21.33,9.32,21.37,9.73,21.52z M11.46,11.05c-0.04,0.04-0.11,0.08-0.19,0.11
			c0.04,0.04,0.08,0.08,0.08,0.08c0.08-0.04,0.19-0.08,0.26-0.11c-0.04-0.04-0.11-0.04-0.38,0.11c-0.08,0.08-0.11,0.11-0.56,0.19
			c-0.04,0-0.08,0-0.08,0c-0.11,0.04-0.19,0.07-0.3,0.11c0.11,0.04,0.23,0.08,0.34,0.08c0.08,0,0.19,0,0.26,0
			c0.04,0,0.08-0.08,0.15-0.08c-0.04-0.04-0.08-0.08-0.08-0.08c-0.08,0-0.19,0,0.08,0C11.13,11.35,11.2,11.32,11.46,11.05z
			 M20.12,11.43c-0.04-0.04-0.08-0.11-0.11-0.19c-0.04,0.04-0.08,0.08-0.08,0.08c0.04,0.08,0.08,0.19,0.11,0.26
			c0.04-0.04,0.04-0.11-0.34-0.64c0.04,0.11,0.08,0.19,0.11,0.3c0.04-0.08,0.08-0.11,0.08-0.19c0-0.11-0.08-0.26-0.11-0.38
			C19.78,10.75,19.75,10.83,20.12,11.43z M23.32,11.58c-0.04-0.11-0.08-0.23-0.11-0.34c-0.04,0.08-0.11,0.11-0.11,0.19
			c0,0.11,0.04,0.23,0.08,0.38c0.04-0.08,0.08-0.15-0.08,0c-0.08,0-0.11,0-0.19-0.38c0-0.04,0-0.08,0-0.08
			c-0.04-0.11-0.08-0.19-0.11-0.3c-0.04,0.11-0.08,0.23-0.08,0.34c0,0.07,0,0.19,0,0.26c0,0.04,0.08,0.08,0.08,0.15
			c0.04-0.04,0.07-0.08,0.07-0.08c0-0.08,0-0.19,0,0.08c0.04,0.04,0.04,0.11,0.08,0.15C23.02,11.92,23.06,11.84,23.32,11.58z
			 M8.83,15.31c-0.08-0.07-0.15-0.15-0.23-0.23c-0.04,0-0.11,0.04-0.15,0.04c0.04,0.08,0.08,0.19,0.15,0.23
			c0.04,0.04,0.15-0.04,0.34-0.34c-0.04,0.04-0.08,0.08-0.11,0.08c0.04,0.04,0.04,0.04,0.08,0.08c0.04-0.04,0.08-0.08,0.08-0.11
			C8.98,15.08,8.94,15.04,8.83,15.31z M11.8,21.41c-0.19,0.07-0.49-0.19-0.49,0.34c-0.11-0.07-0.11-0.11-0.15-0.11
			c-0.08,0-0.15,0.04-0.23,0.04c0,0.04,0.04,0.11,0.04,0.11c0.11,0,0.19,0,0.3-0.15c0.19-0.07,0.49,0.19,0.68-0.38
			c-0.04,0.04-0.08,0.07-0.11,0.07c0.04,0.04,0.04,0.04,0.08,0.08c0.04-0.04,0.08-0.08,0.08-0.11
			C11.99,21.29,11.95,21.26,11.8,21.41z M14.4,21.37c-0.04,0.11-0.07,0.23-0.11,0.34c0,0,0.04,0.07,0.08,0.07
			c0.08-0.11,0.19-0.19,0.26-0.3c-0.04-0.04-0.11-0.04-0.34,0.38c0-0.04,0-0.04,0-0.08c-0.04,0-0.11,0.04-0.15,0.08
			c0,0,0.04,0.07,0.04,0.11C14.21,21.93,14.21,21.89,14.4,21.37z M4.09,26.6c-0.04-0.04-0.08-0.07-0.08-0.11
			c-0.04,0.04-0.04,0.04-0.08,0.07c0.04,0.04,0.08,0.08,0.11,0.08c0,0,0.04-0.04-0.38-0.11c0.11-0.04,0.19-0.08,0.26-0.15
			c-0.08-0.04-0.15-0.08-0.23-0.08c-0.11,0-0.23,0.04-0.34,0.08C3.45,26.41,3.56,26.49,4.09,26.6z M8.68,18.32
			c-0.19,0.08-0.3,0.11-0.41,0.15c0.15,0.08,0.3,0.15,0.45,0.23c0,0,0.11-0.11,0.11-0.15c0-0.08-0.08-0.15,0.19-0.38
			c-0.04,0.04-0.11,0.08-0.19,0.11c0.04,0.04,0.08,0.07,0.08,0.07c0.08-0.04,0.19-0.07,0.26-0.11C9.13,18.24,9.09,18.24,8.68,18.32z
			 M20.35,8.49c0.08-0.11,0.11-0.11,0.11-0.15c0-0.08-0.04-0.15-0.04-0.23c-0.04,0-0.11,0.04-0.11,0.04c0,0.11,0,0.19,0.41,0.6
			c-0.07-0.11-0.15-0.19-0.23-0.3c-0.08,0.11-0.19,0.23-0.15,0.3c0.04,0.11,0.15,0.19,0.26,0.26C20.61,8.91,20.65,8.83,20.35,8.49z
			 M13.31,16.51c0-0.04,0-0.08,0-0.08c-0.04-0.11-0.08-0.19-0.11-0.3c-0.04,0.11-0.07,0.23-0.07,0.34c0,0.08,0,0.19,0,0.26
			c0,0.04,0.07,0.08,0.07,0.15c0.04-0.04,0.08-0.08,0.08-0.08c0-0.08,0-0.19,0.26,0.45c-0.08-0.15-0.11-0.26-0.15-0.38
			c-0.08,0.11-0.19,0.23-0.26,0.38c0,0.04,0.07,0.11,0.11,0.19C13.35,17.38,13.46,17.34,13.31,16.51z M12.25,23.74
			c0.08-0.11,0.11-0.11,0.11-0.15c0-0.07-0.04-0.15-0.04-0.22c-0.04,0-0.11,0.04-0.11,0.04c0,0.11,0,0.19,0.75,0.19
			c0-0.11,0-0.15-0.04-0.19s-0.11-0.04-0.11-0.04c-0.15,0.11-0.3,0.22-0.41,0.34c0,0,0.04,0.11,0.08,0.15
			c0,0.04,0.08,0.04,0.08,0.04C12.67,23.74,12.86,23.63,12.25,23.74z M20.69,10.86c-0.04-0.04-0.08-0.11-0.11-0.19
			c-0.04,0.04-0.08,0.08-0.08,0.08c0.04,0.08,0.08,0.19,0.11,0.26c0.04-0.04,0.04-0.11-0.26-0.75c-0.07,0-0.11,0-0.19,0
			c-0.08,0.04-0.15,0.08-0.19,0.11c0.04,0.04,0.11,0.04,0.15,0.07c0.07,0.04,0.15,0.08,0.22,0.11c0.04,0,0.11,0,0.15-0.04
			c0.08-0.04,0.11-0.11,0.19-0.19c-0.11,0-0.19,0-0.26-0.04C20.39,10.3,20.35,10.3,20.69,10.86z M9.58,10.9
			c0.08-0.04,0.11-0.08,0.19-0.11c-0.04-0.04-0.08-0.11-0.11-0.11c-0.08,0-0.15,0.04-0.23,0.08c0.04,0.04,0.11,0.08,1.28,0.38
			c-0.08-0.04-0.08-0.08-0.11-0.08c-0.23-0.07-0.45-0.15-0.68-0.19c-0.08,0-0.11,0-0.19,0c0.04,0.04,0.04,0.15,0.08,0.15
			c0.26,0.07,0.49,0.15,0.75,0.23C10.6,11.24,10.64,11.17,9.58,10.9z M23.66,9.77c0-0.23,0-0.34,0-0.45c0-0.04-0.08-0.08-0.11-0.11
			c-0.08,0.07-0.19,0.15-0.19,0.19c0,0.26,0.08,0.49,0.11,0.75c0.04-0.04,0.15-0.04,0.15-0.07c0.04-0.11,0.04-0.23-0.11,0.23
			c-0.04-0.08-0.08-0.11-0.11-0.19c-0.04,0.04-0.11,0.08-0.11,0.11c0,0.08,0.04,0.15,0.07,0.23C23.44,10.41,23.47,10.34,23.66,9.77z
			 M20.2,9.92c0.04,0,0.04,0,0.08,0c0-0.04-0.04-0.11-0.08-0.15c0,0-0.07,0.04-0.11,0.04c0.04,0.04,0.08,0.08,0.57-0.19
			c0-0.07,0.04-0.19,0-0.26c-0.04-0.08-0.08-0.15-0.15-0.19c-0.04-0.04-0.15,0-0.15,0.04c-0.04,0.07-0.04,0.19-0.04,0.26
			c0.04,0.15,0.15,0.3,0.11,0.38c-0.08,0.11-0.26,0.19,0,0.26c0.04,0,0.19-0.11,0.23-0.19C20.69,9.81,20.65,9.73,20.2,9.92z
			 M23.32,5.26c0.07-0.04,0.11-0.08,0.19-0.11c-0.04-0.04-0.08-0.11-0.11-0.11c-0.07,0-0.15,0.04-0.22,0.08
			c0.04,0.04,0.11,0.08,1.09,0.56c-0.15-0.15-0.3-0.34-0.45-0.45c-0.04-0.04-0.23-0.04-0.26,0c-0.04,0.04-0.04,0.19,0,0.26
			c0.15,0.19,0.34,0.38,0.6,0.3C24.15,5.74,24.19,5.71,23.32,5.26z M11.92,22.91c-0.04,0-0.08,0-0.08,0
			c-0.38,0.19-0.79,0.34-1.17,0.53c-0.08,0.04-0.08,0.15-0.15,0.23c0.08,0,0.23,0.04,0.26,0c0.34-0.23,0.72-0.34,1.13-0.38
			c0.04,0,0.08-0.15,0.08-0.22c0-0.04-0.08-0.08-1.51,0.71c0-0.04,0-0.04,0-0.08c-0.04,0-0.11,0.04-0.15,0.08
			c0,0,0.04,0.07,0.04,0.11C10.45,23.81,10.45,23.78,11.92,22.91z M21.14,6.72c0.04,0,0.04,0,0.07,0c0-0.04-0.04-0.11-0.07-0.15
			c0,0-0.08,0.04-0.11,0.04c0.04,0.04,0.08,0.08,0.56,0.9c-0.11-0.26,0.19-0.64-0.23-0.79c-0.04,0-0.07,0-0.07,0
			c0,0.3-0.08,0.6-0.04,0.9c0.04,0.19,0.15,0.38,0.23,0.6C21.55,7.97,21.59,7.74,21.14,6.72z M9.09,14.74
			c-0.15-0.08-0.23-0.11-0.26-0.11s-0.11,0-0.19,0c0.04,0.07,0.08,0.15,0.15,0.19c0.08,0.04,0.15-0.04-0.15-0.19
			c0.04-0.15-0.08-0.38,0.38-0.26c-0.04-0.04-0.08-0.08-0.08-0.11c-0.04,0.04-0.04,0.04-0.08,0.08c0.04,0.04,0.08,0.08,0.11,0.08
			c0,0,0.04-0.04-0.11-0.15c-0.04-0.19-0.15-0.38-0.11-0.53c0.04-0.15,0.15-0.26,0-0.38c0,0-0.23,0.11-0.23,0.23
			c-0.08,0.26-0.26,0.49-0.26,0.83C8.26,14.7,8.45,14.59,9.09,14.74z M8.04,13.69l-0.56-0.56c-0.08,0.04-0.19,0.11-0.15,0.15
			c0.04,0.34-0.08,0.49-0.41,0.41c-0.04,0-0.11,0.04-0.15,0.08c0.04,0.04,0.08,0.11,0.11,0.11c0.3-0.07,0.56,0.11,0.87,0.19
			c0.26,0.08,0.34-0.04,0.45-0.72c-0.04,0.04-0.07,0.08-0.11,0.08c0.04,0.04,0.04,0.04,0.08,0.08c0.04-0.04,0.08-0.08,0.08-0.11
			C8.23,13.39,8.19,13.35,8.04,13.69z M19.71,8.23c0.04-0.11,0.04-0.23,0.08-0.34c0.19,0.11,0.3,0.19,0.34-0.15
			c0.04-0.26,0.22-0.45,0.3-0.72c0.04-0.07,0-0.15,0-0.26c-0.11,0-0.23-0.04-0.3,0.04c-0.15,0.11-0.26,0.15-0.42,0.04
			c-0.04-0.04-0.11,0-0.19,0c0,0.08,0,0.19,0,0.26c-0.38,0.04-0.11,0.34-0.23,0.49c-0.15,0.19-0.23,0.45-0.41,0.56
			c-0.3,0.23,0.08,0.41,0,0.6c-0.08,0.19-0.23,0.34,0.08,0.38c0.3,0.04,0.15,0.3,0.3,0.38c0,0,0.08-0.08,0.11-0.11
			c0.08-0.08,0.11-0.15,0.38-0.11c-0.08-0.04-0.08-0.07-0.11-0.11c-0.04,0.04-0.04,0.04-0.08,0.07c0.04,0.04,0.08,0.08,0.11,0.08
			c0,0,0.04-0.04-0.11-0.15c0.08-0.19,0.11-0.38,0.19-0.56c0.11-0.04,0.23-0.04,0.34-0.08c-0.08-0.08-0.11-0.19-0.19-0.26
			C19.86,8.27,19.78,8.23,19.71,8.23z M6.23,25.55c-0.64,0.11-1.28,0.26-1.92,0.38c-0.08,0-0.23,0.15-0.23,0.19
			c0.11,0.38,0.19-0.04,0.26,0c0.11,0.04,0.23,0.11,0.34,0.11c0.15,0,0.34,0,0.49,0c-0.04-0.41,0.3-0.3,0.53-0.3
			c0.26,0,0.49,0,0.75-0.04c0.04,0,0.08-0.11,0.08-0.15s0-0.15-0.04-0.15C6.42,25.55,6.31,25.55,6.23,25.55z M26.3,11.54
			c0,0.26,0,0.56,0,0.83c0,0.04,0.04,0.11,0.07,0.15c0.04-0.04,0.11-0.08,0.11-0.11c0.07-0.11,0.11-0.26,0.15-0.41
			c0.04-0.11-0.04-0.26,0-0.38c0.11-0.23-0.3-0.45-0.04-0.72c0,0-0.19-0.19-0.15-0.26c0.04-0.26-0.19-0.56-0.26-0.53
			c-0.38,0.15,0.04,0.3,0.08,0.45C26.33,10.94,26.3,11.24,26.3,11.54z M9.62,25.13c0.07-0.11,0.19-0.26,0.26-0.41
			c0.04-0.08,0-0.15,0-0.26c-0.04,0-0.08,0-0.15,0.04c-0.26,0.11-0.56,0.19-0.83,0.3c-0.04,0-0.04,0.11-0.08,0.15
			C9.09,25.02,9.32,25.06,9.62,25.13z M26.15,12.63c-0.04-0.34-0.08-0.64-0.08-0.98c-0.26,0.3-0.08,0.68-0.11,1.02
			C25.92,13.01,26,13.35,26,13.69C26.26,13.35,26.03,12.97,26.15,12.63z M10.48,16.02c0-0.08,0-0.19,0-0.26
			c0-0.04-0.11-0.11-0.15-0.11s-0.11,0.08-0.11,0.11c-0.04,0.08-0.04,0.15,0,0.19c0.19,0.3,0.04,0.38-0.23,0.38
			c-0.04,0-0.07,0-0.07,0c-0.08,0.08-0.11,0.19-0.15,0.26C9.85,16.62,9.92,16.7,10,16.7C10.37,16.59,10.48,16.4,10.48,16.02z
			 M22.08,11.62c-0.04,0.04-0.08,0.07-0.11,0.11c-0.26,0.26-0.15,0.6-0.11,0.94h0.11c0.07-0.3,0.15-0.6,0.22-0.9
			C22.19,11.73,22.12,11.66,22.08,11.62z M7.66,25.73c0.04,0,0.19-0.04,0.38-0.07C8,25.62,7.96,25.55,7.96,25.55
			c-0.23,0.11-0.41-0.45-0.72-0.08c-0.04,0.04-0.15,0.04-0.23,0.08c-0.04,0-0.08,0.04-0.08,0.07c0.04,0.04,0.04,0.11,0.08,0.11
			C7.21,25.73,7.36,25.73,7.66,25.73z M18.96,6.42c-0.04-0.04-0.11-0.11-0.19-0.07c-0.19,0.04-0.38,0.11-0.26,0.38
			c0.04,0.15,0.04,0.26,0.07,0.41c0,0.04,0.08,0.08,0.11,0.11c0.04-0.04,0.04-0.04,0.07-0.08C18.84,6.95,18.88,6.72,18.96,6.42z
			 M12.67,13.35c-0.19-0.15-0.3-0.34-0.49-0.38c-0.08-0.04-0.23,0.15-0.34,0.23c0.08,0.04,0.19,0.07,0.26,0.11
			c0.11,0.08,0.19,0.15,0.3,0.19C12.44,13.5,12.52,13.42,12.67,13.35z M10.82,24.08c-0.23,0.15-0.45,0.26-0.64,0.38
			c0,0,0,0.11,0.04,0.11c0.08,0.07,0.19,0.15,0.3,0.19c0.04,0,0.15-0.07,0.19-0.15c0.08-0.11,0.15-0.26,0.19-0.38
			C10.9,24.19,10.86,24.15,10.82,24.08C10.82,24.08,10.79,24.08,10.82,24.08z M7.96,26.86c-0.08,0.04-0.15,0.08-0.26,0.11
			c0.11,0.04,0.23,0.08,0.3,0.11c0.11,0.04,0.19,0.15,0.3,0.15c0.11,0,0.23-0.04,0.34-0.07c-0.08-0.08-0.15-0.19-0.26-0.26
			C8.26,26.83,8.11,26.86,7.96,26.86z M12.56,19.86c0-0.04-0.04-0.11-0.08-0.15s-0.49,0.41-0.45,0.41c0.08,0.08,0.19,0.11,0.3,0.15
			C12.59,20.31,12.59,20.16,12.56,19.86z M14.55,19.56c-0.19-0.15-0.34-0.3-0.49-0.41c-0.04,0-0.11,0.08-0.19,0.15
			c0.11,0.15,0.26,0.3,0.38,0.41C14.29,19.71,14.4,19.64,14.55,19.56z M8.6,16.32c0.15,0,0.23,0,0.26,0
			c0.08-0.04,0.19-0.07,0.26-0.11c-0.04-0.04-0.04-0.04-0.08-0.08c-0.11-0.08-0.15-0.3-0.34-0.08c-0.11,0.15-0.26,0.08-0.38-0.08
			c0,0-0.11,0.04-0.15,0.08c-0.04,0.04,0,0.15,0.04,0.15C8.41,16.29,8.56,16.32,8.6,16.32z M26.63,8.91
			c-0.08,0.11-0.15,0.23-0.15,0.3c0.04,0.26,0.11,0.07,0.23,0.04c0,0,0.11,0.08,0.15,0.11s0.08,0.11,0.11,0.19
			c0.07-0.08,0.15-0.11,0.19-0.19c0.04-0.04-0.04-0.15-0.07-0.19C27.01,9.06,26.86,9.02,26.63,8.91z M23.47,12.03
			c0,0.08,0,0.19,0,0.26c0,0.08,0.08,0.15,0.08,0.23c0.04-0.08,0.04-0.19,0.11-0.23c0.3-0.19,0-0.38,0-0.56
			c0-0.04-0.08-0.08-0.11-0.11c-0.04,0.04-0.08,0.11-0.08,0.15C23.47,11.84,23.47,11.96,23.47,12.03z M24.87,16.74
			c-0.04,0.08-0.04,0.11-0.08,0.15c-0.04,0.19,0.04,0.34,0.19,0.49c0.08,0.04,0.08,0.15,0.11,0.23c0.04-0.11,0.08-0.23,0.04-0.34
			c-0.04-0.15-0.11-0.3-0.19-0.45C24.98,16.77,24.9,16.74,24.87,16.74z M7.89,11.99c-0.26-0.07-0.45-0.11-0.68-0.19
			c0,0.07-0.04,0.15,0,0.19c0.11,0.23,0.34,0.23,0.56,0.19C7.77,12.18,7.81,12.11,7.89,11.99z M14.25,12.82c0,0.11,0,0.19,0,0.26
			c0.04,0.08,0.08,0.15,0.08,0.23c0.04-0.08,0.07-0.15,0.11-0.23c0.08-0.11,0.15-0.26,0.19-0.38c0-0.04-0.08-0.11-0.08-0.11
			c-0.08,0-0.19,0-0.23,0.07C14.25,12.67,14.29,12.78,14.25,12.82z M8.75,19.37c0.15-0.11,0.38,0.11,0.41-0.23c0-0.04,0-0.07,0-0.07
			c-0.19-0.19-0.3-0.08-0.45,0.04c-0.08,0.07-0.19,0.07-0.3,0.11C8.53,19.3,8.64,19.33,8.75,19.37z M25.92,6.8
			c-0.08-0.11-0.3-0.23,0.04-0.26c0.04,0,0.11-0.04,0.15-0.08C26.07,6.42,26,6.35,25.96,6.35c-0.15,0-0.34-0.08-0.38,0.15
			c0,0.15,0.04,0.26,0.08,0.41c0,0,0.11,0,0.19,0C25.88,6.87,25.88,6.84,25.92,6.8z M10.97,20.58c-0.11-0.15-0.15-0.26-0.23-0.3
			c-0.23-0.04-0.26,0.11-0.23,0.26c0.04,0.11,0.08,0.19,0.15,0.26C10.75,20.77,10.82,20.69,10.97,20.58z M9.96,26.86
			c0.04-0.22,0.11-0.41,0.15-0.64l-0.04-0.08c-0.04,0-0.11,0-0.11,0.04c-0.08,0.15-0.15,0.3-0.19,0.45c0,0.04,0.04,0.11,0.04,0.15
			C9.81,26.83,9.85,26.83,9.96,26.86z M17.07,15.76c0-0.04-0.04-0.19-0.08-0.34c-0.26,0.08-0.08,0.3-0.11,0.45
			c-0.04,0.11,0,0.26,0,0.38c0,0.04,0.04,0.07,0.07,0.07s0.11-0.04,0.11-0.07C17.11,16.1,17.07,15.98,17.07,15.76z M20.69,5.22
			c0.04,0,0.19-0.04,0.34-0.07c-0.08-0.26-0.3-0.08-0.45-0.11c-0.11-0.04-0.26,0-0.38,0c-0.04,0-0.07,0.04-0.07,0.08
			c0,0.04,0.04,0.11,0.07,0.11C20.35,5.22,20.46,5.22,20.69,5.22z M19.97,6.5c0.04,0,0.08,0,0.08,0c0.08-0.19,0.19-0.41,0.26-0.64
			c0,0-0.07-0.07-0.11-0.07c-0.15,0.07-0.3,0.45-0.26,0.6C19.93,6.46,19.97,6.46,19.97,6.5z M11.35,24.23
			c0.11-0.15,0.19-0.26,0.26-0.38c0-0.04-0.04-0.11-0.04-0.15c-0.15,0.08-0.34,0.15-0.49,0.23C11.16,24.04,11.24,24.12,11.35,24.23z
			 M9.58,17.08c0.08,0,0.19,0,0.26,0c0.04,0,0.04-0.08,0.08-0.11c-0.23,0-0.45,0-0.68,0c0.04,0.04,0.04,0.11,0.08,0.11
			C9.39,17.08,9.47,17.08,9.58,17.08z M12.22,25.96c0.08-0.08,0.15-0.15,0.15-0.23c0.04-0.11-0.04-0.22-0.04-0.34
			c-0.11,0.15-0.23,0.3-0.3,0.41C12.07,25.85,12.1,25.88,12.22,25.96z M25.17,9.02c0-0.08,0-0.11,0-0.19
			c-0.04-0.08-0.08-0.15-0.08-0.23c-0.04,0.08-0.08,0.15-0.08,0.23c0,0.11,0,0.26,0,0.38c0,0.04,0.08,0.11,0.08,0.15
			c0.04-0.04,0.08-0.08,0.08-0.15C25.2,9.13,25.17,9.09,25.17,9.02z M18.5,13.05c-0.11-0.15-0.15-0.23-0.19-0.3
			c-0.08,0.15-0.19,0.3-0.26,0.45c0,0,0.11,0.11,0.15,0.07C18.28,13.24,18.35,13.16,18.5,13.05z M10.15,13.24
			c-0.15-0.11-0.26-0.23-0.41-0.3c-0.04,0-0.11,0.04-0.15,0.04c0.11,0.11,0.23,0.23,0.34,0.3C9.96,13.31,10.03,13.27,10.15,13.24z
			 M14.51,20.43c-0.04-0.15-0.08-0.22-0.11-0.3c-0.11,0.15-0.23,0.3-0.3,0.45c0.04,0.04,0.11,0.11,0.15,0.08
			C14.33,20.58,14.4,20.5,14.51,20.43z M11.05,26.19c0-0.11,0-0.26,0-0.38c0-0.04-0.08-0.04-0.11-0.08c0,0.23,0,0.45,0,0.68
			c0.04-0.04,0.11-0.04,0.11-0.08C11.09,26.34,11.05,26.26,11.05,26.19z M9.88,20.28c-0.04,0.04-0.11,0.08-0.11,0.08
			c0,0.15,0.04,0.3,0.08,0.41c0,0.04,0.15,0,0.23,0C10,20.65,9.96,20.46,9.88,20.28z M14.14,27.05c-0.08-0.08-0.15-0.15-0.23-0.15
			c-0.11-0.04-0.23,0.04-0.34,0.04c0.15,0.11,0.3,0.23,0.41,0.3C14.02,27.2,14.06,27.13,14.14,27.05z M21.21,10.56
			c0-0.11,0-0.26,0-0.38c0-0.04-0.07-0.04-0.11-0.08c0,0.23,0,0.45,0,0.68c0.04-0.04,0.11-0.04,0.11-0.08
			C21.25,10.71,21.21,10.64,21.21,10.56z M8.26,27.69c-0.11-0.11-0.19-0.19-0.3-0.3c-0.08,0.08-0.19,0.19-0.26,0.26
			c0.11,0.04,0.23,0.11,0.34,0.11C8.11,27.8,8.19,27.73,8.26,27.69z M22.91,10.11c0-0.08,0-0.19,0-0.26c0-0.04-0.08-0.04-0.11-0.07
			c0,0.23,0,0.45,0,0.68c0.04-0.04,0.11-0.04,0.11-0.07C22.95,10.3,22.91,10.19,22.91,10.11z M4.99,26.9
			c0.08-0.04,0.15-0.11,0.23-0.15c-0.08-0.04-0.15-0.07-0.26-0.07c-0.08,0-0.19,0.07-0.26,0.11C4.76,26.83,4.88,26.86,4.99,26.9z
			 M3.11,25.32c-0.11,0.04-0.23,0.08-0.3,0.11c0.08,0.04,0.15,0.11,0.26,0.11c0.08,0,0.15-0.04,0.26-0.04
			C3.26,25.43,3.18,25.36,3.11,25.32z M21.67,6.05c-0.08-0.23-0.08-0.34-0.11-0.45c-0.04,0.04-0.11,0.11-0.11,0.15
			c0,0.11,0.04,0.23,0.08,0.34C21.55,6.08,21.63,6.08,21.67,6.05z M13.53,23.1c-0.08-0.11-0.11-0.15-0.15-0.19
			c-0.08,0.11-0.15,0.23-0.26,0.3c0.04,0.04,0.11,0.07,0.15,0.04C13.42,23.25,13.5,23.17,13.53,23.1z M18.05,7.1
			c-0.08-0.11-0.11-0.15-0.11-0.19c-0.08,0.11-0.15,0.23-0.26,0.3c0.04,0.04,0.11,0.08,0.15,0.04C17.94,7.25,18.01,7.18,18.05,7.1z
			 M11.31,20.54c-0.08-0.22-0.08-0.34-0.11-0.45c-0.04,0.04-0.11,0.11-0.11,0.15c0,0.11,0.04,0.23,0.08,0.34
			C11.2,20.58,11.28,20.58,11.31,20.54z M11.46,19.15c-0.08-0.11-0.11-0.15-0.15-0.19c-0.08,0.11-0.15,0.22-0.26,0.3
			c0.04,0.04,0.11,0.07,0.15,0.04C11.35,19.3,11.43,19.22,11.46,19.15z M9.69,17.49c0.08-0.04,0.15-0.11,0.23-0.15
			c-0.08-0.04-0.15-0.08-0.26-0.08c-0.08,0-0.19,0.08-0.26,0.11C9.47,17.41,9.58,17.45,9.69,17.49z M23.92,17.34
			c-0.08-0.23-0.08-0.34-0.11-0.45c-0.04,0.04-0.11,0.11-0.11,0.15c0,0.11,0.04,0.22,0.07,0.34C23.81,17.38,23.89,17.38,23.92,17.34
			z M10.82,16.85c-0.11,0.04-0.23,0.08-0.3,0.11c0.08,0.04,0.15,0.08,0.23,0.08c0.11,0,0.23-0.04,0.34-0.08
			C10.97,16.93,10.9,16.89,10.82,16.85z M24.75,7.97c0.04,0.08,0.11,0.15,0.15,0.23c0.04-0.08,0.08-0.15,0.08-0.26
			c0-0.08-0.08-0.19-0.11-0.26C24.83,7.78,24.83,7.85,24.75,7.97z M6.01,15.16c-0.11,0.08-0.15,0.11-0.19,0.11
			c0.11,0.08,0.23,0.15,0.3,0.26c0.04-0.04,0.08-0.11,0.04-0.15C6.12,15.31,6.04,15.23,6.01,15.16z M22.95,13.61
			c-0.04-0.11-0.08-0.23-0.11-0.3c-0.04,0.08-0.11,0.15-0.11,0.26c0,0.08,0.04,0.15,0.04,0.26C22.87,13.76,22.91,13.69,22.95,13.61z
			 M11.01,13.61c0.04,0.07,0.11,0.15,0.15,0.23c0.04-0.08,0.08-0.15,0.08-0.26c0-0.07-0.08-0.19-0.11-0.26
			C11.09,13.42,11.09,13.5,11.01,13.61z M11.2,12.71c-0.11,0.04-0.23,0.08-0.3,0.11c0.08,0.04,0.15,0.11,0.26,0.11
			c0.08,0,0.15-0.04,0.26-0.04C11.35,12.82,11.28,12.75,11.2,12.71z M9.39,11.13c-0.08-0.08-0.19-0.15-0.26-0.26
			c-0.04,0.04-0.11,0.15-0.11,0.15c0.08,0.07,0.15,0.15,0.23,0.19C9.24,11.24,9.32,11.17,9.39,11.13z M24.94,10.98
			c0.04,0.07,0.11,0.15,0.15,0.23c0.04-0.08,0.08-0.15,0.08-0.26c0-0.08-0.08-0.19-0.11-0.26C25.02,10.79,25.02,10.86,24.94,10.98z
			 M6.72,27.43c0.08-0.04,0.15-0.07,0.23-0.11c-0.04-0.04-0.11-0.08-0.15-0.08c-0.08,0-0.15,0.04-0.23,0.08
			C6.61,27.35,6.65,27.39,6.72,27.43z M27.43,9.58c0.04,0.07,0.08,0.11,0.11,0.15c0.04-0.08,0.08-0.15,0.08-0.23
			c0-0.04-0.04-0.11-0.08-0.15C27.5,9.43,27.46,9.51,27.43,9.58z M8.04,26.64C8,26.56,7.96,26.49,7.96,26.49
			c-0.08,0-0.15,0.04-0.26,0.07c0.04,0.04,0.04,0.11,0.08,0.11C7.85,26.68,7.96,26.64,8.04,26.64z M16.13,26.15
			c-0.11,0-0.19-0.04-0.26-0.04c-0.04,0-0.04,0.07-0.08,0.11c0.08,0.04,0.15,0.04,0.26,0.07C16.06,26.3,16.09,26.22,16.13,26.15z
			 M3.26,26.15c0.15-0.07,0.19-0.07,0.26-0.11C3.48,26,3.41,25.92,3.37,25.92S3.26,25.96,3.22,26C3.22,26.04,3.26,26.11,3.26,26.15z
			 M26.07,11.24c0-0.11,0.04-0.19,0.04-0.26c0-0.04-0.08-0.04-0.11-0.08c-0.04,0.08-0.04,0.15-0.08,0.26
			C25.96,11.17,26.03,11.2,26.07,11.24z M11.77,26.11c0-0.11,0.04-0.19,0.04-0.26c0-0.04-0.08-0.04-0.11-0.08
			c-0.04,0.08-0.04,0.15-0.08,0.26C11.65,26.04,11.73,26.07,11.77,26.11z M19.82,5.37c0,0.04-0.04,0.11-0.08,0.15
			c0.04,0.04,0.11,0.08,0.15,0.08c0.08,0,0.11-0.08,0.15-0.11C20.01,5.44,19.97,5.41,19.82,5.37z M20.84,5.93
			c0.04,0.08,0.08,0.15,0.11,0.23c0.04-0.04,0.08-0.11,0.08-0.15c0-0.08-0.04-0.15-0.08-0.23C20.91,5.82,20.88,5.86,20.84,5.93z
			 M27.24,5.93c-0.04-0.08-0.08-0.15-0.08-0.15c-0.07,0-0.15,0.04-0.26,0.07c0.04,0.04,0.04,0.11,0.08,0.11
			C27.05,5.97,27.16,5.93,27.24,5.93z M22.87,6.54c0-0.11,0.04-0.19,0.04-0.26c0-0.04-0.08-0.04-0.11-0.07
			c-0.04,0.07-0.04,0.15-0.08,0.26C22.76,6.46,22.83,6.5,22.87,6.54z M24.45,6.12c-0.08,0.04-0.15,0.08-0.23,0.11
			c0.04,0.04,0.11,0.08,0.15,0.08c0.08,0,0.15-0.04,0.23-0.08C24.56,6.23,24.53,6.2,24.45,6.12z M24.94,6.72
			c-0.08,0.04-0.15,0.08-0.15,0.08c0,0.08,0.04,0.15,0.08,0.26c0.04-0.04,0.11-0.04,0.11-0.07C24.98,6.91,24.98,6.84,24.94,6.72z
			 M10.67,21.18c-0.04-0.08-0.08-0.15-0.08-0.15c-0.08,0-0.15,0.04-0.26,0.07c0.04,0.04,0.04,0.11,0.08,0.11
			C10.48,21.22,10.6,21.18,10.67,21.18z M9.28,20.62c-0.04,0.07-0.11,0.11-0.11,0.15c0,0.07,0.04,0.15,0.08,0.23
			c0.04-0.04,0.08-0.11,0.08-0.15C9.36,20.8,9.32,20.73,9.28,20.62z M22.61,11.92c-0.04,0-0.11-0.04-0.15-0.08
			c-0.04,0.04-0.08,0.11-0.08,0.15c0,0.08,0.08,0.11,0.11,0.15C22.5,12.11,22.53,12.03,22.61,11.92z M14.78,20.65
			c0-0.11,0.04-0.19,0.04-0.26c0-0.04-0.08-0.04-0.11-0.07c-0.04,0.07-0.04,0.15-0.07,0.26C14.66,20.58,14.74,20.62,14.78,20.65z
			 M6.72,19.94c-0.11,0-0.19-0.04-0.26-0.04c-0.04,0-0.04,0.07-0.08,0.11c0.08,0.04,0.15,0.04,0.26,0.08
			C6.65,20.09,6.68,20.01,6.72,19.94z M16.09,19.33c0-0.11,0.04-0.19,0.04-0.26c0-0.04-0.08-0.04-0.11-0.08
			c-0.04,0.08-0.04,0.15-0.07,0.26C15.98,19.26,16.06,19.3,16.09,19.33z M28.82,8.3c-0.04,0-0.11-0.04-0.15-0.08
			c0,0-0.08,0.11-0.08,0.15c0,0.08,0.08,0.11,0.11,0.15C28.71,8.53,28.74,8.46,28.82,8.3z M18.65,7.74
			c-0.08-0.15-0.08-0.19-0.11-0.26c-0.04,0.04-0.11,0.11-0.11,0.15s0.04,0.11,0.08,0.15C18.54,7.78,18.62,7.78,18.65,7.74z
			 M24.87,17.9c-0.08-0.15-0.08-0.19-0.11-0.26c-0.04,0.04-0.11,0.11-0.11,0.15c0,0.04,0.04,0.11,0.07,0.15
			C24.75,17.94,24.83,17.94,24.87,17.9z M7.32,10.45c-0.08,0.04-0.15,0.08-0.23,0.11c0.04,0.04,0.11,0.08,0.15,0.08
			c0.08,0,0.15-0.04,0.23-0.08C7.44,10.56,7.4,10.53,7.32,10.45z M11.39,16.14c-0.08,0.04-0.15,0.08-0.15,0.08
			c0,0.08,0.04,0.15,0.08,0.26c0.04-0.04,0.11-0.04,0.11-0.08C11.43,16.32,11.43,16.25,11.39,16.14z M23.17,13.01
			c-0.08-0.15-0.08-0.19-0.11-0.26c-0.04,0.04-0.11,0.11-0.11,0.15c0,0.04,0.04,0.11,0.08,0.15C23.06,13.05,23.13,13.05,23.17,13.01
			z M26.56,12.86c-0.04,0-0.11-0.04-0.15-0.07c-0.04,0.04-0.08,0.11-0.08,0.15c0,0.08,0.08,0.11,0.11,0.15
			C26.45,13.05,26.49,12.97,26.56,12.86z M26.37,16.21c-0.07-0.15-0.07-0.19-0.11-0.26c-0.04,0.04-0.11,0.11-0.11,0.15
			c0,0.04,0.04,0.11,0.07,0.15C26.26,16.25,26.33,16.25,26.37,16.21z M7.81,16.14c0-0.08,0-0.15,0-0.15c-0.08,0-0.15,0-0.26,0v0.11
			C7.62,16.1,7.74,16.1,7.81,16.14z M4.65,13.27c-0.08,0.04-0.11,0.08-0.15,0.11c0.08,0.04,0.15,0.07,0.23,0.07
			c0.04,0,0.11-0.04,0.15-0.07C4.8,13.35,4.73,13.31,4.65,13.27z M27.8,7.7c-0.11,0-0.19-0.04-0.26-0.04
			c-0.04,0-0.04,0.08-0.08,0.11c0.08,0.04,0.15,0.04,0.26,0.07C27.73,7.85,27.76,7.78,27.8,7.7z M26.15,8.04
			C26.22,8,26.26,7.97,26.3,7.93c-0.08-0.04-0.15-0.08-0.23-0.08c-0.04,0-0.11,0.04-0.15,0.08C26,7.97,26.07,8,26.15,8.04z
			 M13.57,13.42c-0.04,0-0.11-0.04-0.15-0.08c-0.04,0.04-0.08,0.11-0.08,0.15c0,0.07,0.08,0.11,0.11,0.15
			C13.46,13.61,13.5,13.54,13.57,13.42z M15.91,15.38c-0.07,0.04-0.15,0.08-0.15,0.08c0,0.08,0.04,0.15,0.08,0.26
			c0.04-0.04,0.11-0.04,0.11-0.08C15.94,15.57,15.94,15.49,15.91,15.38z M13.27,15.38c-0.08,0.04-0.15,0.08-0.15,0.08
			c0,0.08,0.04,0.15,0.07,0.26c0.04-0.04,0.11-0.04,0.11-0.08C13.31,15.57,13.31,15.49,13.27,15.38z M7.62,15.38
			c0-0.08,0-0.15,0-0.15c-0.08,0-0.15,0-0.26,0v0.11C7.44,15.34,7.55,15.34,7.62,15.38z M9.58,13.8c-0.08-0.04-0.11-0.11-0.15-0.11
			c-0.08,0-0.15,0.04-0.23,0.08c0.04,0.04,0.11,0.08,0.15,0.08C9.39,13.88,9.51,13.84,9.58,13.8z M10.56,14.93
			c-0.04,0-0.11-0.04-0.15-0.08c-0.04,0.04-0.08,0.11-0.08,0.15c0,0.08,0.08,0.11,0.11,0.15C10.45,15.12,10.48,15.04,10.56,14.93z
			 M11.01,14.25c-0.08,0.04-0.15,0.08-0.15,0.08c0,0.08,0.04,0.15,0.08,0.26c0.04-0.04,0.11-0.04,0.11-0.08
			C11.05,14.44,11.05,14.37,11.01,14.25z M5.97,14.22c-0.04-0.08-0.08-0.15-0.08-0.15c-0.07,0-0.15,0.04-0.26,0.08
			c0.04,0.04,0.04,0.11,0.08,0.11C5.78,14.25,5.89,14.22,5.97,14.22z M6.91,14.22c-0.04-0.08-0.08-0.15-0.08-0.15
			c-0.08,0-0.15,0.04-0.26,0.08c0.04,0.04,0.04,0.11,0.08,0.11C6.72,14.25,6.83,14.22,6.91,14.22z M22.68,14.44
			c0-0.11,0.04-0.19,0.04-0.26c0-0.04-0.08-0.04-0.11-0.08c-0.04,0.08-0.04,0.15-0.08,0.26C22.57,14.37,22.64,14.4,22.68,14.44z
			 M15.94,14.14c-0.04-0.04-0.04-0.08-0.08-0.08c-0.04,0.04-0.04,0.08-0.08,0.11c0,0,0.04,0.04,0.08,0.08
			C15.91,14.22,15.91,14.18,15.94,14.14z M3.29,14.29c-0.04,0.04-0.08,0.04-0.11,0.08c0.04,0.04,0.04,0.08,0.08,0.08
			c0.04,0,0.08-0.04,0.11-0.08C3.33,14.33,3.29,14.29,3.29,14.29z M4.99,14.4c0.04-0.04,0.04-0.04,0.08-0.08
			c-0.04-0.04-0.08-0.04-0.11-0.08c0,0-0.04,0.04-0.08,0.08C4.91,14.37,4.95,14.4,4.99,14.4z M7.89,14.37
			c0.04,0.04,0.04,0.04,0.08,0.08C8,14.4,8,14.37,8.04,14.33c0,0-0.04-0.04-0.08-0.08C7.93,14.29,7.93,14.33,7.89,14.37z
			 M22.34,13.95c-0.04-0.04-0.04-0.04-0.08-0.08c-0.04,0.04-0.04,0.08-0.08,0.11c0,0,0.04,0.04,0.08,0.08
			C22.31,14.03,22.31,13.99,22.34,13.95z M17.68,14.37c0.04,0.04,0.04,0.04,0.07,0.08c0.04-0.04,0.04-0.08,0.08-0.11
			c0,0-0.04-0.04-0.08-0.08C17.71,14.29,17.71,14.33,17.68,14.37z M4.88,14.7c0.04,0.04,0.04,0.08,0.08,0.11
			c0.04-0.04,0.08-0.04,0.08-0.08s-0.04-0.08-0.08-0.11C4.91,14.63,4.91,14.67,4.88,14.7z M7.66,14.7
			c-0.04-0.04-0.04-0.04-0.08-0.07c-0.04,0.04-0.04,0.07-0.08,0.11c0,0,0.04,0.04,0.08,0.08C7.62,14.78,7.62,14.74,7.66,14.7z
			 M26.07,9.21C26.03,9.25,26,9.25,25.96,9.28C26,9.32,26,9.36,26.03,9.36s0.08-0.04,0.11-0.08C26.11,9.25,26.07,9.21,26.07,9.21z
			 M4.35,14.85c-0.04,0.04-0.04,0.04-0.08,0.08c0.04,0.04,0.08,0.04,0.11,0.08c0,0,0.04-0.04,0.08-0.08
			C4.42,14.89,4.39,14.85,4.35,14.85z M6.91,14.89l-0.04-0.04c-0.04,0-0.08,0.04-0.11,0.08c0.04,0.04,0.04,0.08,0.08,0.08
			C6.83,14.97,6.87,14.93,6.91,14.89z M9.92,14.89l-0.04-0.04c-0.04,0-0.08,0.04-0.11,0.08c0.04,0.04,0.04,0.08,0.08,0.08
			C9.85,14.97,9.88,14.93,9.92,14.89z M19.52,10.41c-0.04-0.04-0.04-0.08-0.07-0.11c-0.04,0.04-0.08,0.04-0.08,0.08
			c0,0.04,0.04,0.07,0.08,0.11C19.48,10.45,19.48,10.45,19.52,10.41z M4.76,15.01c-0.04,0.04-0.08,0.04-0.08,0.08
			c0,0.04,0.04,0.08,0.08,0.11c0.04-0.04,0.08-0.04,0.08-0.08C4.8,15.08,4.8,15.04,4.76,15.01z M11.05,15.08
			c-0.04-0.04-0.04-0.04-0.08-0.08c-0.04,0.04-0.04,0.08-0.08,0.11c0,0,0.04,0.04,0.08,0.08C11.01,15.16,11.01,15.12,11.05,15.08z
			 M5.21,15.27c-0.04-0.04-0.04-0.04-0.08-0.08c-0.04,0.04-0.04,0.08-0.08,0.11c0,0,0.04,0.04,0.08,0.08
			C5.18,15.34,5.18,15.31,5.21,15.27z M22.53,13.57c-0.04-0.04-0.04-0.04-0.08-0.07c-0.04,0.04-0.04,0.07-0.08,0.11
			c0,0,0.04,0.04,0.08,0.07C22.5,13.65,22.5,13.61,22.53,13.57z M18.24,13.61c0.04,0.04,0.04,0.04,0.08,0.07
			c0.04-0.04,0.04-0.07,0.08-0.11c0,0-0.04-0.04-0.08-0.07C18.28,13.54,18.28,13.57,18.24,13.61z M8.04,15.46
			C8,15.42,8,15.42,7.96,15.38c-0.04,0.04-0.04,0.08-0.08,0.11c0,0,0.04,0.04,0.08,0.08C8,15.53,8,15.49,8.04,15.46z M29.65,8
			c0.04-0.04,0.04-0.04,0.07-0.08c-0.04-0.04-0.07-0.04-0.11-0.08c0,0-0.04,0.04-0.07,0.08C29.57,7.97,29.61,8,29.65,8z
			 M22.53,10.41c-0.04-0.04-0.04-0.08-0.08-0.11c-0.04,0.04-0.08,0.04-0.08,0.08c0,0.04,0.04,0.07,0.08,0.11
			C22.5,10.45,22.5,10.45,22.53,10.41z M9.73,15.65c-0.04-0.04-0.04-0.04-0.08-0.08c-0.04,0.04-0.04,0.08-0.08,0.11
			c0,0,0.04,0.04,0.08,0.08C9.69,15.72,9.69,15.68,9.73,15.65z M29.23,8.04c-0.04,0.04-0.08,0.04-0.08,0.08
			c0,0.04,0.04,0.08,0.08,0.11c0.04-0.04,0.07-0.04,0.07-0.07C29.27,8.12,29.27,8.08,29.23,8.04z M27.01,7.81
			c0.04-0.04,0.04-0.04,0.08-0.07c-0.04-0.04-0.08-0.04-0.11-0.08c0,0-0.04,0.04-0.08,0.08C26.94,7.78,26.97,7.81,27.01,7.81z
			 M6.53,16.21c-0.04-0.04-0.04-0.04-0.08-0.08c-0.04,0.04-0.04,0.08-0.08,0.11c0,0,0.04,0.04,0.08,0.07
			C6.49,16.29,6.49,16.25,6.53,16.21z M22.72,12.82c-0.04-0.04-0.04-0.08-0.08-0.08c-0.04,0-0.08,0.04-0.11,0.08
			c0.04,0.04,0.04,0.08,0.08,0.08C22.64,12.9,22.68,12.86,22.72,12.82z M6.98,16.55c-0.04,0.04-0.04,0.04-0.08,0.08
			c0.04,0.04,0.08,0.04,0.11,0.08c0,0,0.04-0.04,0.08-0.08C7.06,16.59,7.02,16.55,6.98,16.55z M16.06,16.51
			c-0.04,0.04-0.08,0.04-0.08,0.08c0,0.04,0.04,0.08,0.08,0.11c0.04-0.04,0.08-0.04,0.08-0.08C16.09,16.59,16.09,16.55,16.06,16.51z
			 M19.9,12.86c-0.04-0.04-0.04-0.07-0.08-0.11c-0.04,0.04-0.08,0.04-0.08,0.08c0,0.04,0.04,0.08,0.08,0.11
			C19.86,12.9,19.86,12.9,19.9,12.86z M7.13,10.19c0.04,0.04,0.04,0.07,0.08,0.11c0.04-0.04,0.08-0.04,0.08-0.08
			c0-0.04-0.04-0.08-0.08-0.11C7.17,10.11,7.17,10.15,7.13,10.19z M10.22,17.26c-0.04,0.04-0.08,0.04-0.08,0.08
			c0,0.04,0.04,0.07,0.08,0.11c0.04-0.04,0.08-0.04,0.08-0.08C10.26,17.34,10.26,17.3,10.22,17.26z M29.87,7.55
			c-0.04-0.04-0.04-0.04-0.08-0.08c-0.04,0.04-0.04,0.08-0.08,0.11c0,0,0.04,0.04,0.08,0.08C29.83,7.63,29.83,7.59,29.87,7.55z
			 M9.51,17.68c-0.04,0.04-0.08,0.04-0.11,0.08c0.04,0.04,0.04,0.08,0.08,0.08s0.08-0.04,0.11-0.08
			C9.54,17.72,9.51,17.68,9.51,17.68z M28.29,7.48c-0.04,0.04-0.08,0.04-0.08,0.08s0.04,0.08,0.08,0.11
			c0.04-0.04,0.07-0.04,0.07-0.08C28.33,7.55,28.33,7.51,28.29,7.48z M12.18,17.9l-0.04-0.04c-0.04,0-0.08,0.04-0.11,0.07
			c0.04,0.04,0.04,0.08,0.08,0.08C12.1,17.98,12.14,17.94,12.18,17.9z M13.5,17.9c-0.04-0.04-0.04-0.07-0.08-0.07
			s-0.08,0.04-0.11,0.07c0.04,0.04,0.04,0.08,0.08,0.08S13.46,17.94,13.5,17.9z M22.91,12.45c-0.04-0.04-0.04-0.04-0.08-0.07
			c-0.04,0.04-0.04,0.07-0.08,0.11c0,0,0.04,0.04,0.08,0.08C22.87,12.52,22.87,12.48,22.91,12.45z M9.58,18.09
			c0.04,0.04,0.04,0.08,0.08,0.11c0.04-0.04,0.08-0.04,0.08-0.07c0-0.04-0.04-0.08-0.08-0.11C9.62,18.02,9.62,18.05,9.58,18.09z
			 M18.96,12.45c-0.04-0.04-0.04-0.07-0.08-0.07c-0.04,0-0.08,0.04-0.11,0.07c0.04,0.04,0.04,0.08,0.08,0.08
			C18.88,12.52,18.92,12.48,18.96,12.45z M30.21,7.44c0.04-0.04,0.04-0.04,0.08-0.07c-0.04-0.04-0.08-0.04-0.11-0.08
			c0,0-0.04,0.04-0.08,0.08C30.14,7.4,30.17,7.44,30.21,7.44z M26.26,7.44C26.3,7.4,26.3,7.4,26.33,7.36
			c-0.04-0.04-0.08-0.04-0.11-0.08c0,0-0.04,0.04-0.07,0.08C26.18,7.4,26.22,7.44,26.26,7.44z M10.07,18.62
			c-0.04,0.04-0.08,0.04-0.11,0.08c0.04,0.04,0.04,0.07,0.08,0.07s0.08-0.04,0.11-0.07C10.11,18.66,10.07,18.62,10.07,18.62z
			 M8.19,18.81c-0.04,0.04-0.07,0.04-0.11,0.07c0.04,0.04,0.04,0.08,0.08,0.08c0.04,0,0.08-0.04,0.11-0.08
			C8.23,18.85,8.19,18.81,8.19,18.81z M16.4,18.81c-0.04,0.04-0.04,0.04-0.08,0.07c0.04,0.04,0.08,0.04,0.11,0.08
			c0,0,0.04-0.04,0.07-0.08C16.47,18.85,16.43,18.81,16.4,18.81z M25.13,7.44c0.04-0.04,0.04-0.04,0.07-0.07
			c-0.04-0.04-0.07-0.04-0.11-0.08c0,0-0.04,0.04-0.08,0.08C25.05,7.4,25.09,7.44,25.13,7.44z M17.26,7.4
			c-0.04-0.04-0.04-0.08-0.08-0.11c-0.04,0.04-0.08,0.04-0.08,0.08c0,0.04,0.04,0.07,0.08,0.11C17.22,7.44,17.22,7.44,17.26,7.4z
			 M7.81,19c-0.04,0.04-0.08,0.04-0.11,0.08c0.04,0.04,0.04,0.07,0.08,0.07c0.04,0,0.08-0.04,0.11-0.07C7.85,19.03,7.81,19,7.81,19z
			 M22.16,8.91c-0.04-0.04-0.04-0.08-0.08-0.11C22.04,8.83,22,8.83,22,8.87c0,0.04,0.04,0.08,0.08,0.11
			C22.12,8.94,22.12,8.94,22.16,8.91z M19.9,10.04c-0.04-0.04-0.04-0.07-0.08-0.11c-0.04,0.04-0.08,0.04-0.08,0.08
			c0,0.04,0.04,0.08,0.08,0.11C19.86,10.07,19.86,10.07,19.9,10.04z M11.99,19.22c-0.04-0.04-0.04-0.04-0.08-0.08
			c-0.04,0.04-0.04,0.08-0.08,0.11c0,0,0.04,0.04,0.08,0.07C11.95,19.3,11.95,19.26,11.99,19.22z M15.76,19.26
			c-0.04-0.04-0.04-0.08-0.08-0.11c-0.04,0.04-0.08,0.04-0.08,0.08c0,0.04,0.04,0.07,0.08,0.11C15.72,19.3,15.72,19.3,15.76,19.26z
			 M18.99,10.04c0.04,0.04,0.04,0.04,0.08,0.08c0.04-0.04,0.04-0.08,0.08-0.11c0,0-0.04-0.04-0.08-0.08
			C19.03,9.96,19.03,10,18.99,10.04z M13.38,19.49c0.04-0.04,0.08-0.04,0.11-0.08c-0.04-0.04-0.04-0.08-0.08-0.08
			s-0.08,0.04-0.11,0.08C13.35,19.45,13.38,19.49,13.38,19.49z M20.72,12.03c-0.04,0.04-0.04,0.04-0.07,0.08
			c0.04,0.04,0.07,0.04,0.11,0.08c0,0,0.04-0.04,0.08-0.08C20.8,12.07,20.76,12.03,20.72,12.03z M7.85,19.6
			c-0.04-0.04-0.04-0.04-0.08-0.07c-0.04,0.04-0.04,0.07-0.08,0.11c0,0,0.04,0.04,0.08,0.07C7.81,19.67,7.81,19.64,7.85,19.6z
			 M7.29,19.82c-0.04-0.04-0.04-0.08-0.08-0.11c-0.04,0.04-0.08,0.04-0.08,0.08c0,0.04,0.04,0.07,0.08,0.11
			C7.25,19.86,7.25,19.86,7.29,19.82z M18.58,10c-0.04-0.04-0.04-0.08-0.07-0.08c-0.04,0.04-0.04,0.08-0.08,0.11
			c0,0,0.04,0.04,0.08,0.08C18.54,10.07,18.54,10.04,18.58,10z M18.39,7.02c-0.04-0.04-0.04-0.07-0.08-0.11
			c-0.04,0.04-0.08,0.04-0.08,0.08c0,0.04,0.04,0.07,0.08,0.11C18.35,7.06,18.35,7.06,18.39,7.02z M21.33,11.81
			c-0.04,0.04-0.08,0.04-0.08,0.07s0.04,0.08,0.08,0.11c0.04-0.04,0.08-0.04,0.08-0.07C21.36,11.88,21.36,11.84,21.33,11.81z
			 M18.58,11.88l-0.04-0.04c-0.04,0-0.08,0.04-0.11,0.08c0.04,0.04,0.04,0.07,0.08,0.07C18.5,11.96,18.54,11.92,18.58,11.88z
			 M15.12,20.84c-0.04,0.04-0.08,0.04-0.08,0.08s0.04,0.08,0.08,0.11c0.04-0.04,0.07-0.04,0.07-0.08
			C15.15,20.92,15.15,20.88,15.12,20.84z M13.01,21.18c0.04-0.04,0.08-0.04,0.11-0.08c-0.04-0.04-0.04-0.07-0.08-0.07
			s-0.08,0.04-0.11,0.07C12.97,21.14,13.01,21.18,13.01,21.18z M14.21,21.18c0.04-0.04,0.04-0.04,0.07-0.08
			c-0.04-0.04-0.07-0.04-0.11-0.07c0,0-0.04,0.04-0.07,0.07C14.14,21.14,14.17,21.18,14.21,21.18z M20.5,11.73
			c0.04,0.04,0.04,0.04,0.08,0.08c0.04-0.04,0.04-0.08,0.08-0.11c0,0-0.04-0.04-0.08-0.07C20.54,11.66,20.54,11.69,20.5,11.73z
			 M18.8,11.54c0.04,0.04,0.04,0.04,0.08,0.08c0.04-0.04,0.04-0.08,0.08-0.11c0,0-0.04-0.04-0.08-0.07
			C18.84,11.47,18.84,11.5,18.8,11.54z M13.57,21.26c-0.04,0.04-0.04,0.04-0.08,0.07c0.04,0.04,0.08,0.04,0.11,0.08
			c0,0,0.04-0.04,0.08-0.08C13.65,21.29,13.61,21.26,13.57,21.26z M25.2,9.81c0.04,0.04,0.04,0.08,0.08,0.11
			c0.04-0.04,0.07-0.04,0.07-0.08c0-0.04-0.04-0.07-0.07-0.11C25.24,9.73,25.24,9.77,25.2,9.81z M26.33,6.65
			c0.04,0.04,0.04,0.04,0.08,0.08c0.04-0.04,0.04-0.08,0.08-0.11c0,0-0.04-0.04-0.08-0.08C26.37,6.57,26.37,6.61,26.33,6.65z
			 M12.67,21.59c-0.04,0.04-0.08,0.04-0.08,0.08c0,0.04,0.04,0.07,0.08,0.11c0.04-0.04,0.08-0.04,0.08-0.07
			C12.71,21.67,12.71,21.63,12.67,21.59z M24.56,6.69c0.04-0.04,0.04-0.04,0.08-0.08c-0.08,0-0.11-0.04-0.15-0.04
			c0,0-0.04,0.04-0.08,0.07C24.49,6.65,24.53,6.69,24.56,6.69z M9.05,11.58c0.04-0.04,0.08-0.04,0.11-0.08l-0.04-0.04
			c-0.04,0-0.08,0.04-0.11,0.08L9.05,11.58z M6.76,11.54c0.04,0.04,0.04,0.04,0.08,0.08c0.04-0.04,0.04-0.08,0.08-0.11
			c0,0-0.04-0.04-0.08-0.07C6.8,11.47,6.8,11.5,6.76,11.54z M13.46,22.38c-0.04,0.04-0.08,0.04-0.11,0.07
			c0.04,0.04,0.04,0.08,0.08,0.08s0.08-0.04,0.11-0.08C13.5,22.42,13.46,22.38,13.46,22.38z M20.8,11.39
			c0.04-0.04,0.04-0.04,0.08-0.08c-0.04-0.04-0.08-0.04-0.11-0.08c0,0-0.04,0.04-0.08,0.08C20.72,11.35,20.76,11.39,20.8,11.39z
			 M17.6,9.77c-0.04,0.04-0.08,0.04-0.11,0.07c0.04,0.04,0.04,0.08,0.08,0.08s0.08-0.04,0.11-0.08C17.64,9.81,17.6,9.77,17.6,9.77z
			 M20.39,5.41c-0.04,0.04-0.08,0.04-0.08,0.08c0,0.04,0.04,0.08,0.08,0.11c0.04-0.04,0.08-0.04,0.08-0.08
			C20.42,5.48,20.42,5.44,20.39,5.41z M6.95,24.68c0.04,0.04,0.04,0.07,0.08,0.11c0.04-0.04,0.08-0.04,0.08-0.07
			s-0.04-0.08-0.08-0.11C6.98,24.61,6.98,24.64,6.95,24.68z M13.76,11.09c-0.04,0.04-0.04,0.04-0.08,0.08
			c0.04,0.04,0.08,0.04,0.11,0.08c0,0,0.04-0.04,0.08-0.08C13.84,11.13,13.8,11.09,13.76,11.09z M8.15,25.17
			c-0.04,0.04-0.08,0.04-0.08,0.08c0,0.04,0.04,0.07,0.08,0.11c0.04-0.04,0.08-0.04,0.08-0.07C8.19,25.25,8.19,25.21,8.15,25.17z
			 M7.66,11.13l-0.04-0.04c-0.04,0-0.08,0.04-0.11,0.08c0.04,0.04,0.04,0.08,0.08,0.08C7.59,11.2,7.62,11.17,7.66,11.13z M26.3,9.62
			c-0.04-0.04-0.04-0.04-0.08-0.07c-0.04,0.04-0.04,0.07-0.07,0.11c0,0,0.04,0.04,0.07,0.08C26.26,9.7,26.26,9.66,26.3,9.62z
			 M16.47,25.96C16.43,26,16.4,26,16.36,26.04c0.04,0.04,0.04,0.08,0.08,0.08c0.04,0,0.07-0.04,0.11-0.08
			C16.51,26,16.47,25.96,16.47,25.96z M21.97,4.95c-0.04-0.04-0.04-0.08-0.08-0.11c-0.04,0.04-0.08,0.04-0.08,0.08
			s0.04,0.08,0.08,0.11C21.93,4.99,21.93,4.99,21.97,4.95z M6.16,26.56l-0.04-0.04c-0.04,0-0.08,0.04-0.11,0.07
			c0.04,0.04,0.04,0.08,0.08,0.08C6.08,26.64,6.12,26.6,6.16,26.56z M14.25,10.94c-0.04-0.04-0.04-0.04-0.08-0.08
			c-0.04,0.04-0.04,0.08-0.07,0.11c0,0,0.04,0.04,0.07,0.07C14.21,11.02,14.21,10.98,14.25,10.94z M8.6,26.56
			c-0.04-0.04-0.04-0.04-0.08-0.07c-0.04,0.04-0.04,0.07-0.08,0.11c0,0,0.04,0.04,0.08,0.08C8.56,26.64,8.56,26.6,8.6,26.56z
			 M9.09,26.86c-0.04,0.04-0.08,0.04-0.08,0.08s0.04,0.07,0.08,0.11c0.04-0.04,0.08-0.04,0.08-0.08C9.13,26.94,9.13,26.9,9.09,26.86
			z M7.29,27.32l-0.04-0.04c-0.04,0-0.08,0.04-0.11,0.08c0.04,0.04,0.04,0.07,0.08,0.07C7.21,27.39,7.25,27.35,7.29,27.32z
			 M7.47,27.69c-0.04-0.04-0.04-0.04-0.08-0.07c-0.04,0.04-0.04,0.07-0.08,0.11c0,0,0.04,0.04,0.08,0.07
			C7.44,27.77,7.44,27.73,7.47,27.69z M22.16,4.39c-0.04-0.04-0.04-0.08-0.08-0.11C22.04,4.31,22,4.31,22,4.35s0.04,0.07,0.08,0.11
			C22.12,4.43,22.12,4.43,22.16,4.39z"/>
		<path fill="#FFFFFF" d="M6.91,8.98C6.83,8.87,6.8,8.72,6.72,8.61c0.3-0.04,0.49,0.08,0.56,0.38C7.17,8.98,7.06,8.98,6.91,8.98z"/>
		<path fill="#FFFFFF" d="M10.79,28.22c-0.11-0.04-0.19-0.07-0.26-0.11c0.11-0.04,0.26-0.08,0.38-0.11c0.04,0,0.11,0.04,0.19,0.07
			C10.97,28.11,10.86,28.18,10.79,28.22z"/>
		<path fill="#FFFFFF" d="M3.52,7.29c-0.04,0-0.08,0-0.08,0C3.37,7.33,3.29,7.36,3.18,7.44c0-0.11-0.04-0.23-0.04-0.34
			C3.29,7.14,3.52,6.99,3.52,7.29z"/>
		<path fill="#FFFFFF" d="M8.79,9.73c0.08,0,0.11,0,0.19,0c0.08,0.04,0.11,0.08,0.15,0.11C9.09,9.89,9.02,9.89,8.98,9.92
			c-0.08,0-0.11,0-0.19,0C8.79,9.85,8.79,9.81,8.79,9.73z"/>
		<path fill="#FFFFFF" d="M5.78,21.22c-0.08,0-0.11,0-0.19,0c-0.08-0.04-0.11-0.07-0.15-0.11c0.04-0.04,0.11-0.04,0.15-0.07
			c0.08,0,0.11,0,0.19,0C5.78,21.1,5.78,21.14,5.78,21.22z"/>
		<path fill="#FFFFFF" d="M7.89,9.4C7.81,9.32,7.74,9.28,7.7,9.25c0.08-0.04,0.15-0.07,0.23-0.07c0.04,0,0.08,0.07,0.11,0.11
			C8,9.32,7.96,9.36,7.89,9.4z"/>
		<path fill="#FFFFFF" d="M4.65,20.65c-0.08,0-0.11,0-0.19,0c-0.08-0.04-0.11-0.08-0.15-0.11c0.04-0.04,0.11-0.04,0.15-0.07
			c0.08,0,0.11,0,0.19,0C4.65,20.54,4.65,20.58,4.65,20.65z"/>
		<path fill="#FFFFFF" d="M3.9,7.66c0-0.11,0-0.26,0-0.38c0.26,0,0.15,0.23,0.19,0.38C4.05,7.66,3.97,7.66,3.9,7.66z"/>
		<path fill="#FFFFFF" d="M3.37,12.75c0.08,0.04,0.11,0.08,0.15,0.08c-0.08,0.04-0.19,0.08-0.26,0.11c-0.04,0-0.08-0.04-0.08-0.08
			C3.22,12.78,3.29,12.75,3.37,12.75z"/>
		<path fill="#FFFFFF" d="M16.51,8.15c-0.04,0.04-0.04,0.04-0.07,0.07c-0.04-0.04-0.04-0.07-0.08-0.11c0,0,0.04-0.04,0.08-0.08
			C16.47,8.08,16.47,8.12,16.51,8.15z"/>
		<path fill="#FFFFFF" d="M5.59,8.04C5.67,8.12,5.7,8.15,5.78,8.23c-0.08,0-0.11,0-0.19,0C5.59,8.15,5.59,8.12,5.59,8.04z"/>
		<path fill="#FFFFFF" d="M7.47,9.09C7.44,9.13,7.44,9.17,7.4,9.17C7.36,9.13,7.32,9.13,7.29,9.09c0.04-0.04,0.04-0.04,0.08-0.07
			C7.44,9.02,7.44,9.06,7.47,9.09z"/>
		<path fill="#FFFFFF" d="M3.9,15.31c-0.04,0.04-0.04,0.08-0.08,0.08c-0.04-0.04-0.08-0.04-0.11-0.08c0.04-0.04,0.04-0.04,0.08-0.07
			C3.86,15.23,3.86,15.27,3.9,15.31z"/>
		<path fill="#FFFFFF" d="M4.65,15.95c-0.04,0.04-0.08,0.11-0.11,0.15c-0.04-0.04-0.04-0.11-0.08-0.15
			C4.54,15.95,4.61,15.95,4.65,15.95z"/>
		<path fill="#FFFFFF" d="M5.78,8.23C5.85,8.3,5.89,8.34,5.97,8.42c-0.08,0-0.11,0-0.19,0C5.78,8.34,5.78,8.3,5.78,8.23z"/>
		<path fill="#FFFFFF" d="M5.59,16.7c-0.04-0.04-0.11-0.08-0.15-0.11c0.04-0.04,0.11-0.04,0.15-0.08
			C5.59,16.59,5.59,16.62,5.59,16.7z"/>
		<path fill="#FFFFFF" d="M6.27,8.23C6.31,8.27,6.34,8.27,6.34,8.3C6.31,8.34,6.31,8.38,6.27,8.42C6.23,8.38,6.23,8.38,6.19,8.34
			C6.19,8.3,6.23,8.27,6.27,8.23z"/>
		<path fill="#FFFFFF" d="M16.62,7.85c-0.04-0.04-0.07-0.07-0.07-0.11c0.04,0,0.11-0.04,0.11-0.04c0.04,0.04,0.04,0.08,0.08,0.15
			C16.7,7.85,16.66,7.85,16.62,7.85z"/>
		<path fill="#FFFFFF" d="M3.71,7.29C3.67,7.33,3.63,7.4,3.6,7.44C3.56,7.4,3.56,7.33,3.52,7.29C3.6,7.29,3.67,7.29,3.71,7.29z"/>
		<path fill="#FFFFFF" d="M0.51,12.18c0.08,0.07,0.11,0.11,0.19,0.19C0.66,12.29,0.58,12.26,0.51,12.18z"/>
		<path fill="#FFFFFF" d="M3.9,20.16c-0.04,0.04-0.08,0.08-0.11,0.08c0-0.04-0.04-0.11-0.04-0.11c0.04-0.04,0.08-0.04,0.15-0.07
			C3.9,20.12,3.9,20.12,3.9,20.16z"/>
		<path fill="#FFFFFF" d="M3.9,7.29c-0.08,0-0.11,0-0.19,0c0.04-0.04,0.04-0.11,0.08-0.15C3.82,7.18,3.86,7.25,3.9,7.29z"/>
		<path fill="#FFFFFF" d="M0.43,12.18c-0.04-0.04-0.08-0.08-0.08-0.11c0.04,0,0.11-0.04,0.11-0.04c0.04,0.04,0.04,0.08,0.08,0.15
			C0.51,12.18,0.47,12.18,0.43,12.18z"/>
		<path fill="#FFFFFF" d="M4.84,20.77C4.8,20.8,4.8,20.84,4.76,20.84c-0.04-0.04-0.08-0.04-0.11-0.07c0.04-0.04,0.04-0.04,0.08-0.08
			C4.8,20.69,4.8,20.73,4.84,20.77z"/>
		<path fill="#FFFFFF" d="M5.18,20.88c0.04,0.04,0.04,0.04,0.08,0.07c-0.04,0.04-0.08,0.04-0.11,0.08c0,0-0.04-0.04-0.08-0.08
			C5.1,20.92,5.14,20.88,5.18,20.88z"/>
		<circle fill="#FFFFFF" cx="6.08" cy="8.49" r="0.15"/>
		<path fill="#FFFFFF" d="M6.65,8.61C6.61,8.57,6.57,8.53,6.57,8.49c0.04,0,0.11-0.04,0.11-0.04c0.04,0.04,0.04,0.08,0.08,0.15
			C6.72,8.61,6.68,8.61,6.65,8.61z"/>
		<path fill="#FFFFFF" d="M9.36,22.8c-0.04,0.04-0.04,0.07-0.08,0.11c-0.04-0.04-0.08-0.04-0.08-0.07s0.04-0.08,0.08-0.11
			C9.32,22.72,9.32,22.76,9.36,22.8z"/>
		<path fill="#FFFFFF" d="M8.23,23.36c-0.04,0.04-0.04,0.07-0.08,0.11c-0.04-0.04-0.08-0.04-0.08-0.08s0.04-0.08,0.08-0.11
			C8.19,23.29,8.19,23.32,8.23,23.36z"/>
		<path fill="#FFFFFF" d="M6.16,8.61c0.08,0.08,0.11,0.11,0.19,0.19c-0.08,0-0.11,0-0.19,0C6.16,8.72,6.16,8.68,6.16,8.61z"/>
		<path fill="#FFFFFF" d="M2.32,25.17c-0.04-0.04-0.08-0.07-0.08-0.11c0.04,0,0.11-0.04,0.11-0.04c0.04,0.04,0.04,0.08,0.08,0.15
			C2.39,25.17,2.35,25.17,2.32,25.17z"/>
		<path fill="#FFFFFF" d="M24.23,4.46c0.04,0.04,0.11,0.08,0.15,0.11c-0.04,0.04-0.11,0.04-0.15,0.08
			C24.23,4.58,24.23,4.54,24.23,4.46z"/>
		<path fill="#FFFFFF" d="M24.04,4.46c0.04-0.04,0.08-0.11,0.11-0.15c0.04,0.04,0.04,0.11,0.08,0.15
			C24.19,4.46,24.11,4.46,24.04,4.46z"/>
		<path fill="#FFFFFF" d="M6.34,8.79c0.08,0.08,0.11,0.11,0.19,0.19c-0.08,0-0.11,0-0.19,0C6.34,8.91,6.34,8.87,6.34,8.79z"/>
		<path fill="#FFFFFF" d="M12.18,27.8c-0.04,0.04-0.08,0.11-0.11,0.15c-0.04-0.04-0.04-0.11-0.08-0.15
			C12.07,27.8,12.14,27.8,12.18,27.8z"/>
		<path fill="#FFFFFF" d="M14.25,24.79c-0.15,0.04-0.38-0.07-0.38,0.19c-0.15,0.04-0.38-0.08-0.38,0.19
			c-0.3-0.07-0.26-0.3-0.08-0.38c0.45-0.15,0.64-0.6,1.09-0.75c0.11-0.04,0.3-0.19,0.3-0.34c0.07-0.53,0.45-0.11,0.64-0.26
			c0,0.08,0.04,0.11,0.04,0.19c0,0.04-0.04,0.04-0.08,0.07c-0.11,0.23-0.26,0.41-0.38,0.64c0.34,0.38-0.34,0.34-0.23,0.6
			c-0.08-0.07-0.15-0.15-0.19-0.22C14.51,24.53,14.48,24.53,14.25,24.79z"/>
		<path fill="#FFFFFF" d="M16.32,20.8c0.11-0.19-0.34-0.11-0.11-0.34c0.57-0.53,1.09-1.09,1.66-1.66c0.04-0.04,0.11-0.04,0.11,0
			c0.04,0.04,0.08,0.15,0.04,0.15c-0.38,0.49-0.72,0.98-1.09,1.47c-0.3-0.04-0.19,0.26-0.3,0.38s-0.15,0.26-0.19,0.38
			C16.4,21.07,16.36,20.95,16.32,20.8z"/>
		<path fill="#FFFFFF" d="M17.07,21.14c0,0.15,0.04,0.26,0,0.34c-0.26,0.34-0.53,0.68-0.79,0.98c0,0.04-0.15-0.04-0.19-0.07
			c-0.04-0.04-0.15-0.11-0.11-0.11c0.3-0.41,0.64-0.79,0.98-1.17C16.96,21.07,17.04,21.14,17.07,21.14z"/>
		<path fill="#FFFFFF" d="M22.53,17.64c0.08,0,0.11,0,0.19,0c-0.22,0.53-0.15,1.17-0.75,1.51c0.04-0.26,0-0.53-0.19-0.75
			c0.26,0.04,0.45-0.11,0.56-0.3C22.46,17.94,22.5,17.79,22.53,17.64z"/>
		<path fill="#FFFFFF" d="M16.85,23.14c0,0.04,0,0.08-0.04,0.11c-0.08,0.07-0.15,0.19-0.26,0.26c-0.26,0.19-0.38,0.6-0.79,0.6
			c-0.04-0.41,0.41-0.49,0.56-0.79c0.08-0.11,0.15-0.26,0.23-0.38c0-0.04,0.11,0,0.15,0.04C16.77,23.02,16.81,23.1,16.85,23.14z"/>
		<path fill="#FFFFFF" d="M19.03,22.54c-0.08,0-0.11,0-0.15,0c-0.04-0.04-0.08-0.08-0.08-0.11c0-0.08,0.75-0.98,0.83-0.98
			c0.04,0,0.11,0,0.19,0.04c0.04,0,0.04,0.11,0,0.11c-0.23,0.3-0.42,0.56-0.64,0.83C19.14,22.46,19.07,22.5,19.03,22.54z"/>
		<path fill="#FFFFFF" d="M17.26,22.91c0-0.11,0-0.26,0-0.38c0.15-0.04,0.3,0.07,0.38-0.15c0.11-0.23,0.08-0.53,0.38-0.6
			c0.04,0.15-0.08,0.38,0.19,0.38C17.98,22.5,17.79,22.91,17.26,22.91z"/>
		<path fill="#FFFFFF" d="M20.35,17.45c0.04,0.04,0.11,0.04,0.11,0.11c0.07,0.22,0.19,0.45,0,0.68c-0.08,0.07-0.19,0.11-0.26,0.15
			c-0.04-0.08-0.11-0.26-0.07-0.26c0.15-0.15,0.19-0.3,0.19-0.49C20.27,17.57,20.35,17.53,20.35,17.45z"/>
		<path fill="#FFFFFF" d="M20.08,18.96c-0.04,0.07-0.08,0.15-0.15,0.22c-0.04,0.04-0.08,0.11-0.15,0.11c0,0-0.11-0.07-0.11-0.11
			c0-0.34-0.08-0.71,0.38-0.83c0,0.11,0,0.26,0,0.38c-0.04,0.04-0.11,0.04-0.15,0.08C20.01,18.88,20.05,18.92,20.08,18.96z"/>
		<path fill="#FFFFFF" d="M18.01,23.44c-0.19,0.08-0.26,0.15-0.38,0.19c-0.04,0-0.11-0.08-0.15-0.08c0.08-0.07,0.11-0.15,0.19-0.23
			C17.68,23.29,17.75,23.32,18.01,23.44z"/>
		<path fill="#FFFFFF" d="M15.83,23.21c-0.19,0-0.26,0.04-0.38,0.04c0,0-0.04-0.08-0.04-0.11c0.08,0,0.15-0.04,0.23-0.04
			C15.72,23.1,15.76,23.14,15.83,23.21z"/>
		<path fill="#FFFFFF" d="M18.2,21.78c0.08,0.08,0.11,0.15,0.19,0.23c-0.08,0.04-0.11,0.11-0.19,0.15
			C18.2,22.04,18.2,21.89,18.2,21.78z"/>
		<path fill="#FFFFFF" d="M20.08,21.07c-0.04,0.08-0.08,0.15-0.08,0.15c-0.08,0-0.15-0.04-0.26-0.07c0.04-0.04,0.04-0.11,0.08-0.11
			C19.9,21.03,20.01,21.07,20.08,21.07z"/>
		<path fill="#FFFFFF" d="M20.65,20.84c0.04-0.15-0.08-0.38,0.19-0.38C20.84,20.62,20.95,20.8,20.65,20.84z"/>
		<path fill="#FFFFFF" d="M18.47,20.73c-0.04,0-0.11,0.04-0.15,0.07c-0.04-0.04-0.08-0.11-0.08-0.15c0-0.08,0.08-0.11,0.11-0.15
			C18.35,20.54,18.39,20.58,18.47,20.73z"/>
		<path fill="#FFFFFF" d="M19.67,20.28c0,0.11,0.04,0.19,0.04,0.26c0,0.04-0.07,0.04-0.11,0.08c-0.04-0.08-0.04-0.15-0.08-0.26
			C19.56,20.35,19.63,20.31,19.67,20.28z"/>
		<path fill="#FFFFFF" d="M21.03,20.28c0.04-0.15-0.08-0.38,0.19-0.38C21.21,20.05,21.33,20.24,21.03,20.28z"/>
		<path fill="#FFFFFF" d="M19.56,19.86c-0.08,0.08-0.11,0.15-0.15,0.19c-0.04-0.08-0.07-0.15-0.07-0.23c0-0.04,0.07-0.08,0.11-0.11
			C19.48,19.75,19.52,19.82,19.56,19.86z"/>
		<path fill="#FFFFFF" d="M21.21,19.9c0.04-0.15-0.07-0.38,0.19-0.38C21.4,19.67,21.52,19.86,21.21,19.9z"/>
		<path fill="#FFFFFF" d="M19.71,17.08c0.08,0,0.11,0,0.19,0c-0.04,0.15,0.08,0.38-0.19,0.38C19.71,17.34,19.71,17.19,19.71,17.08z"
			/>
		<path fill="#FFFFFF" d="M21.33,16.51c-0.04-0.04-0.08-0.08-0.08-0.11c0.04,0,0.11-0.04,0.11-0.04c0.04,0.04,0.04,0.08,0.08,0.15
			C21.4,16.51,21.36,16.51,21.33,16.51z"/>
		<path fill="#FFFFFF" d="M19.71,17.53c-0.04,0.04-0.07,0.08-0.11,0.08c0-0.04-0.04-0.11-0.04-0.11c0.04-0.04,0.08-0.04,0.15-0.08
			C19.71,17.49,19.71,17.49,19.71,17.53z"/>
		<path fill="#FFFFFF" d="M19.29,18.05c0.04,0.04,0.04,0.04,0.08,0.08c-0.04,0.04-0.08,0.04-0.11,0.07c0,0-0.04-0.04-0.08-0.07
			C19.22,18.09,19.26,18.05,19.29,18.05z"/>
		<path fill="#FFFFFF" d="M18.01,18.51c-0.04,0.04-0.04,0.08-0.08,0.08c-0.04-0.04-0.08-0.04-0.11-0.08
			c0.04-0.04,0.04-0.04,0.08-0.07C17.98,18.43,17.98,18.47,18.01,18.51z"/>
		<path fill="#FFFFFF" d="M20.08,18.77c0.08,0.08,0.11,0.11,0.19,0.19c-0.08,0-0.11,0-0.19,0C20.08,18.88,20.08,18.85,20.08,18.77z"
			/>
		<path fill="#FFFFFF" d="M20.46,19.07c-0.04,0.04-0.04,0.07-0.08,0.07c-0.04-0.04-0.08-0.04-0.11-0.07
			c0.04-0.04,0.04-0.04,0.07-0.08C20.42,19,20.42,19.03,20.46,19.07z"/>
		<path fill="#FFFFFF" d="M20.27,19.41c-0.04,0.04-0.04,0.08-0.08,0.11c-0.04-0.04-0.07-0.04-0.07-0.08c0-0.04,0.04-0.07,0.07-0.11
			C20.24,19.33,20.24,19.37,20.27,19.41z"/>
		<path fill="#FFFFFF" d="M20.65,19.41c-0.04,0.04-0.08,0.08-0.11,0.08c0-0.04-0.04-0.11-0.04-0.11c0.04-0.04,0.08-0.04,0.15-0.08
			C20.65,19.37,20.65,19.37,20.65,19.41z"/>
		<path fill="#FFFFFF" d="M21.52,19.33c0.04,0.04,0.08,0.04,0.08,0.08c-0.04,0.04-0.04,0.08-0.08,0.11
			c-0.04-0.04-0.04-0.04-0.08-0.08C21.44,19.41,21.48,19.37,21.52,19.33z"/>
		<path fill="#FFFFFF" d="M19.63,19.52c0.04,0.04,0.07,0.04,0.07,0.07c-0.04,0.04-0.04,0.08-0.07,0.11
			c-0.04-0.04-0.04-0.04-0.08-0.07C19.56,19.6,19.59,19.56,19.63,19.52z"/>
		<path fill="#FFFFFF" d="M20.2,19.71c0.04,0.04,0.08,0.04,0.08,0.08c-0.04,0.04-0.04,0.07-0.08,0.11
			c-0.04-0.04-0.04-0.04-0.07-0.08C20.12,19.79,20.16,19.75,20.2,19.71z"/>
		<path fill="#FFFFFF" d="M18.39,20.01c-0.04,0.04-0.04,0.04-0.08,0.08c-0.04-0.04-0.04-0.08-0.08-0.11c0,0,0.04-0.04,0.08-0.07
			C18.35,19.94,18.35,19.97,18.39,20.01z"/>
		<path fill="#FFFFFF" d="M20.08,19.97c-0.04,0.04-0.08,0.08-0.11,0.08c0-0.04-0.04-0.11-0.04-0.11c0.04-0.04,0.08-0.04,0.15-0.08
			C20.08,19.94,20.08,19.94,20.08,19.97z"/>
		<path fill="#FFFFFF" d="M18.69,20.09c0.04,0.04,0.04,0.07,0.07,0.11c0,0-0.04,0.04-0.07,0.07c-0.04-0.04-0.04-0.07-0.08-0.11
			C18.62,20.12,18.65,20.09,18.69,20.09z"/>
		<path fill="#FFFFFF" d="M21.59,20.16c-0.04,0.04-0.08,0.08-0.11,0.08c0-0.04-0.04-0.11-0.04-0.11c0.04-0.04,0.08-0.04,0.15-0.07
			C21.59,20.12,21.59,20.12,21.59,20.16z"/>
		<path fill="#FFFFFF" d="M21.03,20.28c-0.08,0.08-0.11,0.11-0.19,0.19C20.91,20.39,20.99,20.35,21.03,20.28z"/>
		<path fill="#FFFFFF" d="M19.22,20.88c0.04,0.04,0.08,0.04,0.11,0.07c-0.04,0.04-0.04,0.08-0.08,0.08c-0.04,0-0.08-0.04-0.11-0.08
			C19.18,20.92,19.22,20.88,19.22,20.88z"/>
		<path fill="#FFFFFF" d="M20.65,20.92c-0.04,0.04-0.08,0.08-0.11,0.08c0-0.04-0.04-0.11-0.04-0.11c0.04-0.04,0.08-0.04,0.15-0.08
			C20.65,20.88,20.65,20.88,20.65,20.92z"/>
		<path fill="#FFFFFF" d="M18.2,21.14c-0.04,0.04-0.04,0.04-0.08,0.07c-0.04-0.04-0.04-0.07-0.08-0.11c0,0,0.04-0.04,0.08-0.07
			C18.16,21.07,18.16,21.1,18.2,21.14z"/>
		<path fill="#FFFFFF" d="M18.5,21.22c-0.04-0.04-0.08-0.07-0.08-0.11c0.04,0,0.11-0.04,0.11-0.04c0.04,0.04,0.04,0.08,0.08,0.15
			C18.58,21.22,18.54,21.22,18.5,21.22z"/>
		<path fill="#FFFFFF" d="M17.83,21.29c-0.04,0.04-0.04,0.07-0.08,0.11c-0.04-0.04-0.07-0.04-0.07-0.08s0.04-0.07,0.07-0.11
			C17.79,21.22,17.79,21.26,17.83,21.29z"/>
		<path fill="#FFFFFF" d="M18.77,21.33c-0.04,0.04-0.04,0.08-0.07,0.08c-0.04-0.04-0.08-0.04-0.11-0.08
			c0.04-0.04,0.04-0.04,0.08-0.07C18.73,21.26,18.73,21.29,18.77,21.33z"/>
		<path fill="#FFFFFF" d="M18.01,21.78c0.04-0.04,0.08-0.11,0.11-0.15c0.04,0.04,0.04,0.11,0.08,0.15
			C18.16,21.78,18.09,21.78,18.01,21.78z"/>
		<path fill="#FFFFFF" d="M21.59,21.97c0.08,0.07,0.11,0.11,0.19,0.19C21.74,22.08,21.67,22.04,21.59,21.97z"/>
		<path fill="#FFFFFF" d="M21.78,22.16c0.08,0,0.11,0,0.19,0c-0.08,0.08-0.11,0.11-0.19,0.19C21.78,22.27,21.78,22.23,21.78,22.16z"
			/>
		<path fill="#FFFFFF" d="M17.19,22.54c-0.04-0.04-0.08-0.08-0.08-0.11c0.04,0,0.11-0.04,0.11-0.04c0.04,0.04,0.04,0.07,0.08,0.15
			C17.26,22.54,17.22,22.54,17.19,22.54z"/>
		<path fill="#FFFFFF" d="M15.57,22.84c-0.04,0.04-0.04,0.07-0.08,0.07c-0.04-0.04-0.08-0.04-0.11-0.07
			c0.04-0.04,0.04-0.04,0.08-0.08C15.53,22.76,15.53,22.8,15.57,22.84z"/>
		<path fill="#FFFFFF" d="M16.81,22.72c0.04,0.04,0.08,0.04,0.08,0.08c-0.04,0.04-0.04,0.07-0.08,0.11
			c-0.04-0.04-0.04-0.04-0.08-0.07C16.73,22.8,16.77,22.76,16.81,22.72z"/>
		<path fill="#FFFFFF" d="M15.87,22.91c0.04,0.04,0.08,0.04,0.08,0.08c-0.04,0.04-0.04,0.08-0.08,0.11
			c-0.04-0.04-0.04-0.04-0.08-0.08C15.79,22.99,15.83,22.95,15.87,22.91z"/>
		<path fill="#FFFFFF" d="M17.26,22.99c-0.04,0.04-0.08,0.08-0.11,0.08c0-0.04-0.04-0.11-0.04-0.11c0.04-0.04,0.08-0.04,0.15-0.08
			C17.26,22.95,17.26,22.95,17.26,22.99z"/>
		<path fill="#FFFFFF" d="M18.01,23.02c-0.04,0.04-0.04,0.04-0.08,0.08c-0.04-0.04-0.04-0.08-0.08-0.11c0,0,0.04-0.04,0.08-0.08
			C17.98,22.95,17.98,22.99,18.01,23.02z"/>
		<path fill="#FFFFFF" d="M16.25,24.79c-0.04-0.04-0.08-0.07-0.08-0.11c0.04,0,0.11-0.04,0.11-0.04c0.04,0.04,0.04,0.08,0.08,0.15
			C16.32,24.79,16.28,24.79,16.25,24.79z"/>
		<path fill="#FFFFFF" d="M15.94,24.98c-0.08,0-0.11,0-0.19,0c0.04-0.04,0.08-0.11,0.11-0.15C15.91,24.87,15.94,24.94,15.94,24.98z"
			/>
		<path fill="#FFFFFF" d="M13.04,25.36c-0.04-0.04-0.08-0.07-0.08-0.11c0.04,0,0.11-0.04,0.11-0.04c0.04,0.04,0.04,0.08,0.08,0.15
			C13.12,25.36,13.08,25.36,13.04,25.36z"/>
		<path fill="#FFFFFF" d="M18.39,15.01c0.08-0.08,0.11-0.11,0.19-0.19c0.11-0.04,0.23-0.08,0.34-0.11
			c-0.15,0.19,0.34,0.26,0.11,0.53c-0.34,0.38-0.53,0.87-1.02,1.09c0.08-0.3,0.11-0.64,0.19-0.94
			C18.5,15.34,18.39,15.16,18.39,15.01z"/>
		<path fill="#FFFFFF" d="M20.27,14.06c0.07,0,0.11,0,0.19,0c0.04,0.19-0.15,0.34-0.15,0.49c-0.07,0.53-0.26,0.15-0.34,0.04
			c-0.08-0.08-0.04-0.23-0.08-0.34C20.05,14.22,20.27,14.33,20.27,14.06z"/>
		<path fill="#FFFFFF" d="M17.64,16.51c0.08,0,0.11,0,0.19,0c0,0.08,0,0.11,0,0.19c-0.04,0.08-0.08,0.11-0.11,0.15
			c-0.04-0.04-0.04-0.11-0.08-0.15C17.64,16.62,17.64,16.59,17.64,16.51z"/>
		<path fill="#FFFFFF" d="M19.22,16.21c-0.04,0-0.11,0.04-0.15,0.08c-0.04-0.04-0.08-0.11-0.08-0.15c0-0.08,0.08-0.11,0.11-0.15
			C19.11,16.02,19.14,16.06,19.22,16.21z"/>
		<path fill="#FFFFFF" d="M20.39,15.57c-0.04-0.04-0.08-0.08-0.08-0.11c0.04,0,0.11-0.04,0.11-0.04c0.04,0.04,0.04,0.08,0.08,0.15
			C20.46,15.57,20.42,15.57,20.39,15.57z"/>
		<path fill="#FFFFFF" d="M20.08,15.95c-0.08,0-0.11,0-0.19,0c0.04-0.04,0.08-0.11,0.11-0.15C20.05,15.83,20.08,15.91,20.08,15.95z"
			/>
		<path fill="#FFFFFF" d="M17.83,16.51c0.08-0.08,0.11-0.11,0.19-0.19C17.98,16.4,17.9,16.44,17.83,16.51z"/>
		<path fill="#FFFFFF" d="M18.69,16.32c0.04,0.04,0.07,0.04,0.07,0.08c-0.04,0.04-0.04,0.08-0.07,0.11
			c-0.04-0.04-0.04-0.04-0.08-0.08C18.62,16.4,18.65,16.36,18.69,16.32z"/>
		<path fill="#FFFFFF" d="M18.58,16.59c-0.04,0.04-0.07,0.08-0.11,0.08c0-0.04-0.04-0.11-0.04-0.11c0.04-0.04,0.08-0.04,0.15-0.08
			C18.58,16.55,18.58,16.55,18.58,16.59z"/>
		<path fill="#FFFFFF" d="M22.72,17.64c0-0.11,0-0.26,0-0.38c0.26,0,0.15,0.23,0.19,0.38C22.87,17.64,22.8,17.64,22.72,17.64z"/>
		<path fill="#FFFFFF" d="M23.1,16.14c0-0.11,0-0.26,0-0.38c0.08,0.08,0.11,0.15,0.19,0.23C23.25,16.02,23.17,16.1,23.1,16.14z"/>
		<path fill="#FFFFFF" d="M23.29,14.44c0-0.11,0-0.26,0-0.38c0.26,0,0.15,0.23,0.19,0.38C23.44,14.44,23.36,14.44,23.29,14.44z"/>
		<path fill="#FFFFFF" d="M19.71,8.23c0,0.11,0,0.26,0,0.38c-0.11-0.04-0.23-0.04-0.34-0.08C19.48,8.46,19.59,8.34,19.71,8.23z"/>
		<path fill="#FFFFFF" d="M20.08,7.4c-0.04,0.04-0.04,0.04-0.08,0.07c-0.04-0.04-0.04-0.07-0.08-0.11c0,0,0.04-0.04,0.08-0.08
			C20.05,7.33,20.05,7.36,20.08,7.4z"/>
		<path fill="#FFFFFF" d="M19.71,7.21c-0.04,0.04-0.04,0.08-0.07,0.08c-0.04-0.04-0.08-0.04-0.11-0.08
			c0.04-0.04,0.04-0.04,0.08-0.08C19.67,7.14,19.67,7.18,19.71,7.21z"/>
		<path fill="#FFFFFF" d="M4.09,7.85c0-0.07,0-0.11,0-0.19C4.12,7.7,4.2,7.74,4.24,7.78C4.2,7.81,4.16,7.81,4.09,7.85z"/>
		<path fill="#FFFFFF" d="M3.56,6.84C3.6,6.8,3.6,6.76,3.63,6.72C3.67,6.76,3.71,6.76,3.71,6.8S3.67,6.87,3.63,6.91
			C3.6,6.87,3.6,6.87,3.56,6.84z"/>
		<path fill="#FFFFFF" d="M15.12,11.99c0.04,0.04,0.07,0.04,0.07,0.08c-0.04,0.04-0.04,0.07-0.07,0.11
			c-0.04-0.04-0.04-0.04-0.08-0.08C15.04,12.07,15.08,12.03,15.12,11.99z"/>
		<path fill="#FFFFFF" d="M22.34,19.71c-0.08,0-0.11,0-0.19,0c0.04-0.15-0.08-0.38,0.19-0.38C22.34,19.45,22.34,19.6,22.34,19.71z"
			/>
		<path fill="#FFFFFF" d="M22.72,18.85c-0.04,0.04-0.08,0.07-0.11,0.07c0-0.04-0.04-0.11-0.04-0.11c0.04-0.04,0.08-0.04,0.15-0.08
			C22.72,18.81,22.72,18.81,22.72,18.85z"/>
		<path fill="#FFFFFF" d="M22.53,19.33c-0.08,0-0.11,0-0.19,0c0.04-0.04,0.08-0.11,0.11-0.15C22.5,19.22,22.53,19.3,22.53,19.33z"/>
		<path fill="#FFFFFF" d="M14.81,25.73c-0.08,0-0.11,0-0.19,0c0.07-0.07,0.11-0.11,0.19-0.19C14.81,25.62,14.81,25.66,14.81,25.73z"
			/>
		<path fill="#FFFFFF" d="M6.16,10.86c-0.08,0-0.11,0-0.19,0c0-0.07,0-0.11,0-0.19C6.04,10.75,6.12,10.79,6.16,10.86z"/>
		<path fill="#FFFFFF" d="M6.16,11.05c0-0.07,0-0.11,0-0.19c0.08,0.08,0.11,0.11,0.19,0.19C6.31,11.05,6.23,11.05,6.16,11.05z"/>
		<path fill="#FFFFFF" d="M17.64,12.56c0-0.08,0-0.11,0-0.19c0.04,0.04,0.11,0.07,0.15,0.11C17.75,12.52,17.71,12.52,17.64,12.56z"
			/>
		<circle fill="#FFFFFF" cx="22.27" cy="21.86" r="0.15"/>
		<path fill="#FFFFFF" d="M21.97,22.16c0.07-0.07,0.11-0.11,0.19-0.19C22.12,22.04,22.04,22.08,21.97,22.16z"/>
		<path fill="#FFFFFF" d="M22.72,4.65c0.08-0.08,0.11-0.11,0.19-0.19C22.87,4.54,22.8,4.58,22.72,4.65z"/>
		<path fill="#FFFFFF" d="M22.53,21.78c-0.08,0-0.11,0-0.19,0c-0.08-0.3,0.08-0.45,0.38-0.38c0,0.07,0,0.11,0,0.19
			C22.68,21.67,22.61,21.71,22.53,21.78z"/>
		<path fill="#FFFFFF" d="M22.53,21.03c0.08,0,0.11,0,0.19,0c0,0.07,0,0.11,0,0.19C22.68,21.14,22.61,21.1,22.53,21.03z"/>
		<path fill="#FFFFFF" d="M22.91,21.41c-0.08,0-0.11,0-0.19,0c0-0.08,0-0.11,0-0.19C22.8,21.29,22.87,21.33,22.91,21.41z"/>
		<path fill="#FFFFFF" d="M22.16,21.78c-0.08-0.07-0.11-0.11-0.19-0.19C22.04,21.67,22.12,21.71,22.16,21.78z"/>
		<path fill="#FFFFFF" d="M5.59,8.23c0,0.08,0,0.11,0,0.19c-0.08,0-0.11,0-0.19,0C5.48,8.34,5.55,8.3,5.59,8.23z"/>
		<circle fill="#FFFFFF" cx="5.7" cy="8.49" r="0.15"/>
	</g>
</g>
</svg>
